,Client,Threshold,Mean,Mean+1SD,Mean+2SD,Mean+3SD,EE,ORCE,IF,LOF,KMeans
0,dataset_00.csv,38.125125,26.781,27.8358,28.197,28.4793,27.4325,27.0941,27.4678,32.1132,28.197001543805477
1,dataset_01.csv,24.023750000000003,13.6342,14.7685,15.0246,15.2201,14.2393,13.9933,14.3012,18.4096,15.140002978160151
2,dataset_02.csv,37.0145,26.3378,27.5282,27.8254,28.113,27.0563,26.6972,27.0869,30.8944,27.88594775212636
3,dataset_03.csv,305.52912499999996,32.1592,79.5674,87.7632,89.1511,90.7009,86.2286,90.7009,91.3945,31.992318798449617
4,dataset_04.csv,43.1525,32.6338,33.5927,33.8438,34.171,33.1994,32.8999,33.1994,37.529,34.03770274702747
5,dataset_05.csv,35.97649999999999,15.214,18.0208,18.7314,19.2922,16.7395,16.7318,16.7912,23.5484,18.89574990695943
6,dataset_06.csv,41.231,30.5308,31.4627,31.8489,32.1422,31.1691,30.8158,31.193,35.7387,31.911969423558894
7,dataset_07.csv,24.648625000000003,13.5005,14.7478,15.0302,15.5467,13.9579,13.8044,13.98,19.5693,15.141362643847742
8,dataset_08.csv,34.976,14.9867,17.7154,18.5961,19.0056,16.5414,16.497,16.6688,22.2401,18.78062944738834
9,dataset_09.csv,36.710249999999995,26.2666,27.2556,27.6843,28.1007,26.8271,26.5226,26.8919,31.0215,27.715233333333337
10,dataset_10.csv,45.102000000000004,32.1267,33.4603,33.7554,34.5246,32.8363,32.4925,32.8869,37.3696,33.75544358507734
11,dataset_11.csv,95.38600000000002,75.8566,78.2158,78.7555,79.2582,77.8022,77.2409,77.8022,82.2308,78.91582698094282
12,dataset_12.csv,286.127875,29.373,74.123,81.0694,82.7722,83.3194,74.5711,83.3194,85.445,29.372982828282815
13,dataset_13.csv,37.56775,27.2003,28.1042,28.3314,28.6275,27.7787,27.4319,27.8021,32.0102,28.553439944134077
14,dataset_14.csv,25.964,13.6092,15.2006,15.448,15.6694,14.548,14.1965,14.548,18.6529,15.54751878662531
15,dataset_15.csv,72.59025,58.9133,60.7227,61.1597,61.4037,59.4984,59.4275,59.5177,64.4757,61.19118615384616
16,dataset_16.csv,42.367125,32.751,33.5817,33.8129,33.9887,33.1897,32.8755,33.1956,37.4761,33.90573121511377
17,dataset_17.csv,36.95100000000001,26.2795,27.3226,27.694,27.8315,27.0097,26.6257,27.0097,30.5792,27.770260475651202
18,dataset_18.csv,150.9895,38.8426,49.4566,58.7022,60.319,58.5589,54.627,58.5593,61.9661,45.976850111856855
19,dataset_19.csv,64.87899999999999,54.6052,55.7483,55.9377,56.5852,55.0035,54.8564,55.0595,60.8016,55.98851518218624
20,dataset_20.csv,38.141999999999996,25.9648,27.4626,27.8244,28.0622,26.9298,26.594,26.9797,30.1334,27.926259521700615
21,dataset_21.csv,40.78975,30.5459,31.3716,31.7754,31.9533,30.9549,30.6727,31.0078,34.924,31.88461895770393
22,dataset_22.csv,37.754999999999995,27.0714,28.135,28.3509,28.6986,27.7769,27.4344,27.7873,32.3582,28.50712535496957
23,dataset_23.csv,81.53900000000002,71.3498,72.1587,72.4382,72.8172,71.6888,71.4036,71.6888,76.2544,72.53231604488928
24,dataset_24.csv,24.5675,13.6756,14.8597,15.096,15.3994,14.3091,14.0486,14.358,18.5489,15.269936217948718
25,dataset_25.csv,25.17075,13.573,14.8083,15.063,15.2986,14.1679,13.949,14.1932,18.4121,15.198136470588228
26,dataset_26.csv,64.91524999999999,54.6127,55.549,56.0467,56.2858,55.1452,54.8845,55.1525,59.6474,56.117469891411645
27,dataset_27.csv,43.93075000000001,31.9252,33.1241,33.4622,33.7884,32.4448,32.1897,32.4698,36.8565,33.51813443565781
