1	17.379 17.379
2	72.0 72.0
3	19.181 19.181
4	142.0 142.0
5	22.743 22.743
6	327.0 327.0
7	16.934 16.934
8	291.0 291.0
9	13.639 13.639
10	209.0 209.0
11	18.739 18.739
12	175.0 175.0
13	14.838 14.838
14	282.0 282.0
15	13.071 13.071
16	281.0 281.0
17	17.892 17.892
18	239.0 239.0
19	18.47 18.47
20	287.0 287.0
21	14.966 14.966
22	124.0 124.0
23	10.846 10.846
24	152.0 152.0
25	11.598 11.598
26	276.0 276.0
27	12.213 12.213
28	325.0 325.0
29	15.728 15.728
30	283.0 283.0
31	10.593 10.593
32	95.0 95.0
33	18.669 18.669
34	240.0 240.0
35	15.747 15.747
36	55.0 55.0
37	10.592 10.592
38	295.0 295.0
39	11.531 11.531
40	54.0 54.0
41	10.333 10.333
42	156.0 156.0
43	12.4 12.4
44	164.0 164.0
45	10.644 10.644
46	159.0 159.0
47	11.504 11.504
48	218.0 218.0
49	14.76 14.76
50	56.0 56.0
51	14.696 14.696
52	155.0 155.0
53	12.903 12.903
54	173.0 173.0
55	12.741 12.741
56	337.0 337.0
57	18.452 18.452
58	261.0 261.0
59	13.643 13.643
60	254.0 254.0
61	23.16 23.16
62	104.0 104.0
63	13.379 13.379
64	119.0 119.0
65	14.445 14.445
66	49.0 49.0
67	13.343 13.343
68	204.0 204.0
69	13.208 13.208
70	84.0 84.0
71	15.933 15.933
72	147.0 147.0
73	38.033 38.033
74	27.0 27.0
75	11.076 11.076
76	168.0 168.0
77	10.685 10.685
78	35.0 35.0
79	15.711 15.711
80	230.0 230.0
81	17.814 17.814
82	162.0 162.0
83	11.591 11.591
84	242.0 242.0
85	13.256 13.256
86	293.0 293.0
87	13.088 13.088
88	38.0 38.0
89	13.115 13.115
90	292.0 292.0
91	13.696 13.696
92	313.0 313.0
93	13.152 13.152
94	284.0 284.0
95	14.436 14.436
96	93.0 93.0
97	13.534 13.534
98	244.0 244.0
99	11.159 11.159
100	66.0 66.0
101	10.507 10.507
102	303.0 303.0
103	14.007 14.007
104	328.0 328.0
105	11.376 11.376
106	56.0 56.0
107	14.563 14.563
108	281.0 281.0
109	12.229 12.229
110	313.0 313.0
111	12.636 12.636
112	233.0 233.0
113	17.875 17.875
114	237.0 237.0
115	10.909 10.909
116	90.0 90.0
117	22.776 22.776
118	231.0 231.0
119	18.677 18.677
120	140.0 140.0
121	12.794 12.794
122	190.0 190.0
123	19.941 19.941
124	74.0 74.0
125	12.961 12.961
126	94.0 94.0
127	14.56 14.56
128	214.0 214.0
129	13.586 13.586
130	165.0 165.0
131	13.169 13.169
132	164.0 164.0
133	14.482 14.482
134	101.0 101.0
135	13.254 13.254
136	235.0 235.0
137	15.783 15.783
138	247.0 247.0
139	10.629 10.629
140	62.0 62.0
141	15.651 15.651
142	233.0 233.0
143	14.112 14.112
144	211.0 211.0
145	15.164 15.164
146	215.0 215.0
147	13.811 13.811
148	326.0 326.0
149	12.764 12.764
150	244.0 244.0
151	12.686 12.686
152	273.0 273.0
153	11.758 11.758
154	240.0 240.0
155	12.285 12.285
156	33.0 33.0
157	11.768 11.768
158	26.0 26.0
159	12.096 12.096
160	211.0 211.0
161	12.321 12.321
162	110.0 110.0
163	13.545 13.545
164	232.0 232.0
165	17.03 17.03
166	244.0 244.0
167	13.457 13.457
168	183.0 183.0
169	11.791 11.791
170	313.0 313.0
171	15.477 15.477
172	99.0 99.0
173	16.338 16.338
174	317.0 317.0
175	10.577 10.577
176	108.0 108.0
177	10.729 10.729
178	173.0 173.0
179	15.312 15.312
180	309.0 309.0
181	13.618 13.618
182	204.0 204.0
183	19.465 19.465
184	107.0 107.0
185	15.623 15.623
186	222.0 222.0
187	12.983 12.983
188	317.0 317.0
189	14.19 14.19
190	336.0 336.0
191	25.133 25.133
192	312.0 312.0
193	19.539 19.539
194	307.0 307.0
195	21.563 21.563
196	277.0 277.0
197	11.294 11.294
198	214.0 214.0
199	20.199 20.199
200	205.0 205.0
201	20.225 20.225
202	157.0 157.0
203	14.051 14.051
204	118.0 118.0
205	20.404 20.404
206	59.0 59.0
207	18.199 18.199
208	141.0 141.0
209	15.849 15.849
210	170.0 170.0
211	13.885 13.885
212	31.0 31.0
213	24.051 24.051
214	192.0 192.0
215	19.29 19.29
216	134.0 134.0
217	24.015 24.015
218	240.0 240.0
219	11.997 11.997
220	269.0 269.0
221	13.499 13.499
222	294.0 294.0
223	10.661 10.661
224	173.0 173.0
225	15.496 15.496
226	109.0 109.0
227	11.655 11.655
228	79.0 79.0
229	11.669 11.669
230	297.0 297.0
231	12.05 12.05
232	130.0 130.0
233	19.401 19.401
234	47.0 47.0
235	12.498 12.498
236	250.0 250.0
237	11.652 11.652
238	218.0 218.0
239	10.768 10.768
240	297.0 297.0
241	10.537 10.537
242	107.0 107.0
243	10.756 10.756
244	62.0 62.0
245	12.941 12.941
246	112.0 112.0
247	11.81 11.81
248	212.0 212.0
249	11.112 11.112
250	67.0 67.0
251	10.621 10.621
252	255.0 255.0
253	11.714 11.714
254	307.0 307.0
255	10.865 10.865
256	309.0 309.0
257	11.555 11.555
258	74.0 74.0
259	10.595 10.595
260	312.0 312.0
261	10.593 10.593
262	307.0 307.0
263	14.108 14.108
264	96.0 96.0
265	11.202 11.202
266	250.0 250.0
267	10.57 10.57
268	333.0 333.0
269	10.567 10.567
270	200.0 200.0
271	10.221 10.221
272	30.0 30.0
273	11.15 11.15
274	135.0 135.0
275	10.979 10.979
276	339.0 339.0
277	10.751 10.751
278	280.0 280.0
279	10.641 10.641
280	74.0 74.0
281	11.912 11.912
282	317.0 317.0
283	10.387 10.387
284	89.0 89.0
285	11.066 11.066
286	97.0 97.0
287	11.117 11.117
288	122.0 122.0
289	11.534 11.534
290	210.0 210.0
291	10.261 10.261
292	131.0 131.0
293	10.834 10.834
294	249.0 249.0
295	11.861 11.861
296	279.0 279.0
297	19.418 19.418
298	213.0 213.0
299	14.282 14.282
300	190.0 190.0
301	11.148 11.148
302	258.0 258.0
303	13.622 13.622
304	86.0 86.0
305	25.969 25.969
306	183.0 183.0
307	10.708 10.708
308	108.0 108.0
309	11.449 11.449
310	251.0 251.0
311	11.128 11.128
312	38.0 38.0
313	11.346 11.346
314	152.0 152.0
315	11.202 11.202
316	180.0 180.0
317	14.098 14.098
318	117.0 117.0
319	14.721 14.721
320	267.0 267.0
321	13.191 13.191
322	312.0 312.0
323	11.729 11.729
324	111.0 111.0
325	10.745 10.745
326	33.0 33.0
327	11.161 11.161
328	197.0 197.0
329	20.715 20.715
330	198.0 198.0
331	18.123 18.123
332	41.0 41.0
333	18.241 18.241
334	33.0 33.0
335	13.237 13.237
336	115.0 115.0
337	11.576 11.576
338	313.0 313.0
339	12.461 12.461
340	321.0 321.0
341	12.012 12.012
342	121.0 121.0
343	16.351 16.351
344	114.0 114.0
345	15.649 15.649
346	321.0 321.0
347	10.626 10.626
348	136.0 136.0
349	11.73 11.73
350	294.0 294.0
351	14.251 14.251
352	332.0 332.0
353	11.452 11.452
354	24.0 24.0
355	10.873 10.873
356	266.0 266.0
357	10.25 10.25
358	128.0 128.0
359	10.325 10.325
360	267.0 267.0
361	10.432 10.432
362	241.0 241.0
363	17.664 17.664
364	213.0 213.0
365	10.593 10.593
366	123.0 123.0
367	13.893 13.893
368	315.0 315.0
369	21.264 21.264
370	261.0 261.0
371	19.117 19.117
372	214.0 214.0
373	11.328 11.328
374	285.0 285.0
375	15.722 15.722
376	173.0 173.0
377	13.53 13.53
378	158.0 158.0
379	11.968 11.968
380	201.0 201.0
381	12.795 12.795
382	191.0 191.0
383	22.192 22.192
384	165.0 165.0
385	13.613 13.613
386	332.0 332.0
387	14.688 14.688
388	159.0 159.0
389	15.244 15.244
390	257.0 257.0
391	18.667 18.667
392	139.0 139.0
393	10.809 10.809
394	338.0 338.0
395	16.36 16.36
396	95.0 95.0
397	15.403 15.403
398	214.0 214.0
399	15.319 15.319
400	238.0 238.0
401	16.166 16.166
402	96.0 96.0
403	13.168 13.168
404	185.0 185.0
405	20.908 20.908
406	184.0 184.0
407	12.975 12.975
408	129.0 129.0
409	14.881 14.881
410	101.0 101.0
411	17.468 17.468
412	75.0 75.0
413	14.255 14.255
414	212.0 212.0
415	20.409 20.409
416	274.0 274.0
417	13.058 13.058
418	62.0 62.0
419	18.043 18.043
420	132.0 132.0
421	15.114 15.114
422	86.0 86.0
423	17.88 17.88
424	279.0 279.0
425	14.978 14.978
426	114.0 114.0
427	23.852 23.852
428	226.0 226.0
429	16.42 16.42
430	58.0 58.0
431	14.481 14.481
432	41.0 41.0
433	14.872 14.872
434	94.0 94.0
435	14.309 14.309
436	298.0 298.0
437	14.012 14.012
438	193.0 193.0
439	14.625 14.625
440	274.0 274.0
441	14.87 14.87
442	286.0 286.0
443	11.023 11.023
444	153.0 153.0
445	14.105 14.105
446	55.0 55.0
447	14.597 14.597
448	245.0 245.0
449	13.682 13.682
450	331.0 331.0
451	11.232 11.232
452	277.0 277.0
453	12.263 12.263
454	294.0 294.0
455	14.992 14.992
456	221.0 221.0
457	13.036 13.036
458	240.0 240.0
459	14.042 14.042
460	261.0 261.0
461	12.629 12.629
462	199.0 199.0
463	15.02 15.02
464	83.0 83.0
465	16.198 16.198
466	27.0 27.0
467	14.379 14.379
468	172.0 172.0
469	11.944 11.944
470	90.0 90.0
471	10.759 10.759
472	218.0 218.0
473	14.864 14.864
474	62.0 62.0
475	22.89 22.89
476	279.0 279.0
477	15.243 15.243
478	90.0 90.0
479	11.479 11.479
480	305.0 305.0
481	13.342 13.342
482	337.0 337.0
483	16.566 16.566
484	293.0 293.0
485	12.112 12.112
486	289.0 289.0
487	15.014 15.014
488	160.0 160.0
489	16.602 16.602
490	253.0 253.0
491	10.896 10.896
492	154.0 154.0
493	13.824 13.824
494	226.0 226.0
495	12.792 12.792
496	125.0 125.0
497	12.049 12.049
498	199.0 199.0
499	12.175 12.175
500	317.0 317.0
501	11.754 11.754
502	318.0 318.0
503	13.529 13.529
504	66.0 66.0
505	11.765 11.765
506	90.0 90.0
507	13.238 13.238
508	285.0 285.0
509	12.099 12.099
510	325.0 325.0
511	12.195 12.195
512	101.0 101.0
513	11.545 11.545
514	39.0 39.0
515	25.089 25.089
516	176.0 176.0
517	26.789 26.789
518	323.0 323.0
519	14.568 14.568
520	145.0 145.0
521	16.483 16.483
522	264.0 264.0
523	17.185 17.185
524	50.0 50.0
525	11.288 11.288
526	333.0 333.0
527	15.545 15.545
528	79.0 79.0
529	12.026 12.026
530	124.0 124.0
531	15.919 15.919
532	210.0 210.0
533	12.803 12.803
534	234.0 234.0
535	26.571 26.571
536	95.0 95.0
537	15.029 15.029
538	117.0 117.0
539	24.519 24.519
540	287.0 287.0
541	17.8 17.8
542	124.0 124.0
543	18.965 18.965
544	308.0 308.0
545	30.79 30.79
546	265.0 265.0
547	16.463 16.463
548	251.0 251.0
549	18.231 18.231
550	163.0 163.0
551	10.196 10.196
552	292.0 292.0
553	12.128 12.128
554	163.0 163.0
555	18.19 18.19
556	289.0 289.0
557	11.698 11.698
558	195.0 195.0
559	10.661 10.661
560	210.0 210.0
561	12.497 12.497
562	175.0 175.0
563	12.017 12.017
564	188.0 188.0
565	10.792 10.792
566	194.0 194.0
567	10.574 10.574
568	135.0 135.0
569	11.045 11.045
570	287.0 287.0
571	11.382 11.382
572	215.0 215.0
573	13.065 13.065
574	90.0 90.0
575	12.012 12.012
576	224.0 224.0
577	11.159 11.159
578	97.0 97.0
579	11.212 11.212
580	325.0 325.0
581	11.491 11.491
582	115.0 115.0
583	12.231 12.231
584	233.0 233.0
585	10.483 10.483
586	95.0 95.0
587	15.222 15.222
588	256.0 256.0
589	12.862 12.862
590	255.0 255.0
591	10.727 10.727
592	159.0 159.0
593	11.33 11.33
594	210.0 210.0
595	10.409 10.409
596	59.0 59.0
597	22.625 22.625
598	44.0 44.0
599	11.299 11.299
600	282.0 282.0
601	10.462 10.462
602	111.0 111.0
603	11.103 11.103
604	39.0 39.0
605	11.788 11.788
606	234.0 234.0
607	11.054 11.054
608	78.0 78.0
609	10.233 10.233
610	173.0 173.0
611	10.577 10.577
612	301.0 301.0
613	10.998 10.998
614	136.0 136.0
615	14.091 14.091
616	32.0 32.0
617	10.595 10.595
618	107.0 107.0
619	12.462 12.462
620	47.0 47.0
621	10.064 10.064
622	71.0 71.0
623	14.823 14.823
624	285.0 285.0
625	10.613 10.613
626	143.0 143.0
627	13.063 13.063
628	110.0 110.0
629	16.825 16.825
630	309.0 309.0
631	13.604 13.604
632	306.0 306.0
633	16.032 16.032
634	249.0 249.0
635	11.5 11.5
636	248.0 248.0
637	19.542 19.542
638	140.0 140.0
639	14.689 14.689
640	209.0 209.0
641	24.53 24.53
642	289.0 289.0
643	16.403 16.403
644	95.0 95.0
645	16.502 16.502
646	229.0 229.0
647	14.16 14.16
648	152.0 152.0
649	27.308 27.308
650	97.0 97.0
651	26.586 26.586
652	27.0 27.0
653	17.151 17.151
654	210.0 210.0
655	14.381 14.381
656	64.0 64.0
657	14.649 14.649
658	113.0 113.0
659	17.037 17.037
660	266.0 266.0
661	26.869 26.869
662	224.0 224.0
663	10.691 10.691
664	316.0 316.0
665	10.689 10.689
666	137.0 137.0
667	11.235 11.235
668	173.0 173.0
669	15.57 15.57
670	111.0 111.0
671	12.258 12.258
672	250.0 250.0
673	10.955 10.955
674	144.0 144.0
675	15.601 15.601
676	315.0 315.0
677	12.248 12.248
678	246.0 246.0
679	14.74 14.74
680	209.0 209.0
681	14.93 14.93
682	166.0 166.0
683	14.772 14.772
684	212.0 212.0
685	14.657 14.657
686	250.0 250.0
687	15.44 15.44
688	114.0 114.0
689	13.484 13.484
690	131.0 131.0
691	23.298 23.298
692	193.0 193.0
693	14.392 14.392
694	249.0 249.0
695	19.376 19.376
696	48.0 48.0
697	25.155 25.155
698	87.0 87.0
699	13.835 13.835
700	323.0 323.0
701	13.444 13.444
702	285.0 285.0
703	22.592 22.592
704	27.0 27.0
705	12.189 12.189
706	89.0 89.0
707	12.369 12.369
708	254.0 254.0
709	11.16 11.16
710	37.0 37.0
711	12.837 12.837
712	314.0 314.0
713	15.53 15.53
714	273.0 273.0
715	15.43 15.43
716	146.0 146.0
717	17.708 17.708
718	244.0 244.0
719	15.083 15.083
720	137.0 137.0
721	13.349 13.349
722	185.0 185.0
723	15.359 15.359
724	177.0 177.0
725	14.139 14.139
726	258.0 258.0
727	10.677 10.677
728	335.0 335.0
729	15.388 15.388
730	271.0 271.0
731	11.856 11.856
732	101.0 101.0
733	27.377 27.377
734	226.0 226.0
735	14.996 14.996
736	159.0 159.0
737	20.17 20.17
738	277.0 277.0
739	15.779 15.779
740	156.0 156.0
741	13.205 13.205
742	209.0 209.0
743	19.338 19.338
744	35.0 35.0
745	13.324 13.324
746	278.0 278.0
747	12.958 12.958
748	218.0 218.0
749	12.702 12.702
750	260.0 260.0
751	19.158 19.158
752	117.0 117.0
753	17.537 17.537
754	43.0 43.0
755	13.136 13.136
756	312.0 312.0
757	25.267 25.267
758	169.0 169.0
759	19.041 19.041
760	98.0 98.0
761	14.51 14.51
762	30.0 30.0
763	15.621 15.621
764	113.0 113.0
765	12.688 12.688
766	282.0 282.0
767	11.344 11.344
768	268.0 268.0
769	14.764 14.764
770	40.0 40.0
771	34.405 34.405
772	125.0 125.0
773	12.51 12.51
774	224.0 224.0
775	24.231 24.231
776	104.0 104.0
777	14.056 14.056
778	126.0 126.0
779	12.364 12.364
780	273.0 273.0
781	14.96 14.96
782	143.0 143.0
783	18.794 18.794
784	46.0 46.0
785	14.968 14.968
786	281.0 281.0
787	12.403 12.403
788	128.0 128.0
789	23.945 23.945
790	149.0 149.0
791	15.853 15.853
792	334.0 334.0
793	18.96 18.96
794	137.0 137.0
795	11.774 11.774
796	38.0 38.0
797	13.308 13.308
798	265.0 265.0
799	12.141 12.141
800	323.0 323.0
801	10.25 10.25
802	252.0 252.0
803	18.29 18.29
804	220.0 220.0
805	17.718 17.718
806	328.0 328.0
807	20.729 20.729
808	342.0 342.0
809	10.849 10.849
810	252.0 252.0
811	10.721 10.721
812	314.0 314.0
813	17.674 17.674
814	42.0 42.0
815	13.154 13.154
816	204.0 204.0
817	13.136 13.136
818	243.0 243.0
819	13.392 13.392
820	25.0 25.0
821	10.796 10.796
822	203.0 203.0
823	11.334 11.334
824	210.0 210.0
825	12.451 12.451
826	287.0 287.0
827	14.905 14.905
828	63.0 63.0
829	16.6 16.6
830	53.0 53.0
831	13.273 13.273
832	35.0 35.0
833	17.285 17.285
834	200.0 200.0
835	19.393 19.393
836	139.0 139.0
837	19.621 19.621
838	126.0 126.0
839	25.842 25.842
840	296.0 296.0
841	19.173 19.173
842	147.0 147.0
843	10.903 10.903
844	46.0 46.0
845	11.177 11.177
846	190.0 190.0
847	12.42 12.42
848	150.0 150.0
849	10.989 10.989
850	306.0 306.0
851	11.935 11.935
852	208.0 208.0
853	10.746 10.746
854	42.0 42.0
855	12.282 12.282
856	195.0 195.0
857	11.615 11.615
858	145.0 145.0
859	18.514 18.514
860	311.0 311.0
861	15.855 15.855
862	312.0 312.0
863	14.502 14.502
864	194.0 194.0
865	13.662 13.662
866	276.0 276.0
867	19.578 19.578
868	255.0 255.0
869	16.639 16.639
870	302.0 302.0
871	14.628 14.628
872	37.0 37.0
873	27.091 27.091
874	231.0 231.0
875	13.753 13.753
876	208.0 208.0
877	22.487 22.487
878	209.0 209.0
879	14.472 14.472
880	319.0 319.0
881	26.99 26.99
882	323.0 323.0
883	25.154 25.154
884	326.0 326.0
885	14.308 14.308
886	69.0 69.0
887	10.936 10.936
888	129.0 129.0
889	11.54 11.54
890	251.0 251.0
891	10.543 10.543
892	139.0 139.0
893	10.778 10.778
894	76.0 76.0
895	11.925 11.925
896	52.0 52.0
897	12.131 12.131
898	274.0 274.0
899	14.793 14.793
900	76.0 76.0
901	11.287 11.287
902	160.0 160.0
903	15.77 15.77
904	304.0 304.0
905	12.793 12.793
906	70.0 70.0
907	11.531 11.531
908	104.0 104.0
909	12.694 12.694
910	295.0 295.0
911	11.607 11.607
912	316.0 316.0
913	17.449 17.449
914	297.0 297.0
915	20.135 20.135
916	207.0 207.0
917	15.345 15.345
918	105.0 105.0
919	11.332 11.332
920	159.0 159.0
921	14.731 14.731
922	136.0 136.0
923	11.574 11.574
924	80.0 80.0
925	16.027 16.027
926	43.0 43.0
927	11.097 11.097
928	336.0 336.0
929	15.678 15.678
930	133.0 133.0
931	14.897 14.897
932	148.0 148.0
933	18.129 18.129
934	98.0 98.0
935	13.613 13.613
936	75.0 75.0
937	17.598 17.598
938	120.0 120.0
939	13.557 13.557
940	53.0 53.0
941	19.235 19.235
942	273.0 273.0
943	12.042 12.042
944	126.0 126.0
945	15.047 15.047
946	301.0 301.0
947	15.226 15.226
948	74.0 74.0
949	11.235 11.235
950	230.0 230.0
951	14.227 14.227
952	97.0 97.0
953	20.444 20.444
954	152.0 152.0
955	10.614 10.614
956	69.0 69.0
957	11.425 11.425
958	102.0 102.0
959	18.932 18.932
960	321.0 321.0
961	16.438 16.438
962	65.0 65.0
963	12.01 12.01
964	102.0 102.0
965	15.326 15.326
966	42.0 42.0
967	14.655 14.655
968	165.0 165.0
969	13.392 13.392
970	38.0 38.0
971	10.959 10.959
972	202.0 202.0
973	11.141 11.141
974	234.0 234.0
975	16.996 16.996
976	242.0 242.0
977	15.107 15.107
978	39.0 39.0
979	24.119 24.119
980	234.0 234.0
981	13.902 13.902
982	332.0 332.0
983	12.036 12.036
984	334.0 334.0
985	22.023 22.023
986	278.0 278.0
987	13.254 13.254
988	46.0 46.0
989	18.12 18.12
990	187.0 187.0
991	22.727 22.727
992	169.0 169.0
993	19.14 19.14
994	324.0 324.0
995	12.419 12.419
996	112.0 112.0
997	23.485 23.485
998	263.0 263.0
999	11.739 11.739
1000	259.0 259.0
1001	10.598 10.598
1002	196.0 196.0
1003	10.362 10.362
1004	30.0 30.0
1005	10.769 10.769
1006	220.0 220.0
1007	12.844 12.844
1008	239.0 239.0
1009	11.586 11.586
1010	107.0 107.0
1011	11.33 11.33
1012	236.0 236.0
1013	11.75 11.75
1014	225.0 225.0
1015	12.913 12.913
1016	268.0 268.0
1017	14.428 14.428
1018	325.0 325.0
1019	15.227 15.227
1020	56.0 56.0
1021	12.359 12.359
1022	294.0 294.0
1023	11.883 11.883
1024	57.0 57.0
1025	15.69 15.69
1026	102.0 102.0
1027	11.037 11.037
1028	288.0 288.0
1029	13.319 13.319
1030	145.0 145.0
1031	18.683 18.683
1032	307.0 307.0
1033	12.897 12.897
1034	288.0 288.0
1035	22.761 22.761
1036	272.0 272.0
1037	13.191 13.191
1038	329.0 329.0
1039	23.302 23.302
1040	187.0 187.0
1041	17.722 17.722
1042	288.0 288.0
1043	15.064 15.064
1044	274.0 274.0
1045	12.588 12.588
1046	54.0 54.0
1047	12.004 12.004
1048	258.0 258.0
1049	13.208 13.208
1050	324.0 324.0
1051	19.228 19.228
1052	294.0 294.0
1053	22.737 22.737
1054	268.0 268.0
1055	14.223 14.223
1056	89.0 89.0
1057	15.937 15.937
1058	86.0 86.0
1059	15.214 15.214
1060	142.0 142.0
1061	21.003 21.003
1062	133.0 133.0
1063	15.076 15.076
1064	130.0 130.0
1065	15.0 15.0
1066	139.0 139.0
1067	18.221 18.221
1068	50.0 50.0
1069	21.601 21.601
1070	215.0 215.0
1071	16.271 16.271
1072	211.0 211.0
1073	11.83 11.83
1074	335.0 335.0
1075	19.927 19.927
1076	211.0 211.0
1077	23.657 23.657
1078	244.0 244.0
1079	13.892 13.892
1080	299.0 299.0
1081	26.652 26.652
1082	330.0 330.0
1083	15.376 15.376
1084	95.0 95.0
1085	16.436 16.436
1086	201.0 201.0
1087	14.803 14.803
1088	222.0 222.0
1089	11.539 11.539
1090	111.0 111.0
1091	14.958 14.958
1092	171.0 171.0
1093	14.416 14.416
1094	151.0 151.0
1095	14.503 14.503
1096	159.0 159.0
1097	11.492 11.492
1098	279.0 279.0
1099	11.585 11.585
1100	144.0 144.0
1101	13.153 13.153
1102	230.0 230.0
1103	17.28 17.28
1104	45.0 45.0
1105	13.891 13.891
1106	58.0 58.0
1107	16.12 16.12
1108	321.0 321.0
1109	12.763 12.763
1110	228.0 228.0
1111	17.816 17.816
1112	243.0 243.0
1113	13.357 13.357
1114	299.0 299.0
1115	16.206 16.206
1116	116.0 116.0
1117	22.464 22.464
1118	151.0 151.0
1119	16.812 16.812
1120	50.0 50.0
1121	16.758 16.758
1122	299.0 299.0
1123	27.797 27.797
1124	46.0 46.0
1125	16.854 16.854
1126	247.0 247.0
1127	18.424 18.424
1128	35.0 35.0
1129	13.965 13.965
1130	264.0 264.0
1131	16.454 16.454
1132	328.0 328.0
1133	11.432 11.432
1134	231.0 231.0
1135	15.37 15.37
1136	178.0 178.0
1137	10.62 10.62
1138	88.0 88.0
1139	14.034 14.034
1140	330.0 330.0
1141	15.566 15.566
1142	254.0 254.0
1143	13.212 13.212
1144	318.0 318.0
1145	14.649 14.649
1146	39.0 39.0
1147	10.684 10.684
1148	28.0 28.0
1149	16.541 16.541
1150	145.0 145.0
1151	14.559 14.559
1152	194.0 194.0
1153	10.598 10.598
1154	80.0 80.0
1155	13.711 13.711
1156	120.0 120.0
1157	14.793 14.793
1158	299.0 299.0
1159	11.284 11.284
1160	253.0 253.0
1161	14.071 14.071
1162	199.0 199.0
1163	16.664 16.664
1164	201.0 201.0
1165	14.32 14.32
1166	25.0 25.0
1167	11.1 11.1
1168	163.0 163.0
1169	13.274 13.274
1170	76.0 76.0
1171	18.183 18.183
1172	35.0 35.0
1173	14.286 14.286
1174	185.0 185.0
1175	14.732 14.732
1176	128.0 128.0
1177	17.296 17.296
1178	185.0 185.0
1179	13.408 13.408
1180	291.0 291.0
1181	18.5 18.5
1182	40.0 40.0
1183	11.185 11.185
1184	285.0 285.0
1185	14.469 14.469
1186	53.0 53.0
1187	14.363 14.363
1188	109.0 109.0
1189	19.446 19.446
1190	231.0 231.0
1191	10.378 10.378
1192	258.0 258.0
1193	17.939 17.939
1194	305.0 305.0
1195	14.256 14.256
1196	134.0 134.0
1197	14.841 14.841
1198	319.0 319.0
1199	14.088 14.088
1200	182.0 182.0
1201	13.857 13.857
1202	325.0 325.0
1203	11.928 11.928
1204	90.0 90.0
1205	15.222 15.222
1206	114.0 114.0
1207	14.432 14.432
1208	147.0 147.0
1209	24.158 24.158
1210	269.0 269.0
1211	13.823 13.823
1212	258.0 258.0
1213	15.458 15.458
1214	148.0 148.0
1215	15.16 15.16
1216	91.0 91.0
1217	14.337 14.337
1218	128.0 128.0
1219	11.032 11.032
1220	82.0 82.0
1221	13.541 13.541
1222	233.0 233.0
1223	14.678 14.678
1224	319.0 319.0
1225	12.871 12.871
1226	178.0 178.0
1227	10.756 10.756
1228	253.0 253.0
1229	10.154 10.154
1230	163.0 163.0
1231	14.406 14.406
1232	182.0 182.0
1233	14.391 14.391
1234	179.0 179.0
1235	12.583 12.583
1236	135.0 135.0
1237	13.014 13.014
1238	123.0 123.0
1239	13.076 13.076
1240	305.0 305.0
1241	12.632 12.632
1242	264.0 264.0
1243	13.865 13.865
1244	36.0 36.0
1245	11.694 11.694
1246	320.0 320.0
1247	14.168 14.168
1248	311.0 311.0
1249	17.368 17.368
1250	301.0 301.0
1251	11.388 11.388
1252	143.0 143.0
1253	14.621 14.621
1254	133.0 133.0
1255	15.59 15.59
1256	103.0 103.0
1257	17.376 17.376
1258	329.0 329.0
1259	16.537 16.537
1260	26.0 26.0
1261	14.122 14.122
1262	261.0 261.0
1263	49.134 49.134
1264	118.0 118.0
1265	13.409 13.409
1266	295.0 295.0
1267	12.843 12.843
1268	319.0 319.0
1269	15.932 15.932
1270	109.0 109.0
1271	13.554 13.554
1272	207.0 207.0
1273	18.674 18.674
1274	101.0 101.0
1275	11.347 11.347
1276	37.0 37.0
1277	13.59 13.59
1278	341.0 341.0
1279	13.318 13.318
1280	134.0 134.0
1281	15.063 15.063
1282	92.0 92.0
1283	16.612 16.612
1284	178.0 178.0
1285	22.263 22.263
1286	326.0 326.0
1287	14.6 14.6
1288	110.0 110.0
1289	14.711 14.711
1290	97.0 97.0
1291	15.241 15.241
1292	246.0 246.0
1293	16.766 16.766
1294	168.0 168.0
1295	20.591 20.591
1296	130.0 130.0
1297	20.761 20.761
1298	254.0 254.0
1299	14.944 14.944
1300	50.0 50.0
1301	14.429 14.429
1302	127.0 127.0
1303	16.936 16.936
1304	330.0 330.0
1305	13.938 13.938
1306	82.0 82.0
1307	13.441 13.441
1308	102.0 102.0
1309	14.595 14.595
1310	175.0 175.0
1311	16.63 16.63
1312	122.0 122.0
1313	14.324 14.324
1314	164.0 164.0
1315	13.242 13.242
1316	93.0 93.0
1317	16.027 16.027
1318	75.0 75.0
1319	11.5 11.5
1320	119.0 119.0
1321	11.785 11.785
1322	236.0 236.0
1323	24.243 24.243
1324	300.0 300.0
1325	14.825 14.825
1326	181.0 181.0
1327	18.773 18.773
1328	77.0 77.0
1329	22.153 22.153
1330	237.0 237.0
1331	17.616 17.616
1332	210.0 210.0
1333	23.358 23.358
1334	326.0 326.0
1335	14.381 14.381
1336	217.0 217.0
1337	14.128 14.128
1338	280.0 280.0
1339	10.919 10.919
1340	111.0 111.0
1341	22.086 22.086
1342	203.0 203.0
1343	15.69 15.69
1344	300.0 300.0
1345	15.004 15.004
1346	211.0 211.0
1347	17.072 17.072
1348	147.0 147.0
1349	14.6 14.6
1350	199.0 199.0
1351	21.094 21.094
1352	97.0 97.0
1353	12.185 12.185
1354	163.0 163.0
1355	16.909 16.909
1356	139.0 139.0
1357	13.48 13.48
1358	282.0 282.0
1359	18.337 18.337
1360	89.0 89.0
1361	32.634 32.634
1362	157.0 157.0
1363	93.059 93.059
1364	277.0 277.0
1365	15.408 15.408
1366	273.0 273.0
1367	14.864 14.864
1368	96.0 96.0
1369	14.971 14.971
1370	300.0 300.0
1371	11.411 11.411
1372	184.0 184.0
1373	16.108 16.108
1374	139.0 139.0
1375	15.691 15.691
1376	280.0 280.0
1377	12.298 12.298
1378	145.0 145.0
1379	12.135 12.135
1380	63.0 63.0
1381	14.922 14.922
1382	342.0 342.0
1383	15.053 15.053
1384	75.0 75.0
1385	15.491 15.491
1386	183.0 183.0
1387	14.823 14.823
1388	321.0 321.0
1389	11.169 11.169
1390	261.0 261.0
1391	18.594 18.594
1392	52.0 52.0
1393	13.331 13.331
1394	325.0 325.0
1395	11.61 11.61
1396	89.0 89.0
1397	13.306 13.306
1398	325.0 325.0
1399	17.303 17.303
1400	122.0 122.0
1401	14.982 14.982
1402	51.0 51.0
1403	15.743 15.743
1404	261.0 261.0
1405	17.79 17.79
1406	214.0 214.0
1407	15.981 15.981
1408	303.0 303.0
1409	12.875 12.875
1410	52.0 52.0
1411	17.621 17.621
1412	298.0 298.0
1413	16.32 16.32
1414	182.0 182.0
1415	16.468 16.468
1416	109.0 109.0
1417	14.892 14.892
1418	180.0 180.0
1419	21.451 21.451
1420	299.0 299.0
1421	17.682 17.682
1422	91.0 91.0
1423	13.043 13.043
1424	197.0 197.0
1425	15.147 15.147
1426	298.0 298.0
1427	13.774 13.774
1428	158.0 158.0
1429	21.226 21.226
1430	193.0 193.0
1431	14.971 14.971
1432	203.0 203.0
1433	13.966 13.966
1434	312.0 312.0
1435	20.268 20.268
1436	318.0 318.0
1437	10.675 10.675
1438	322.0 322.0
1439	21.359 21.359
1440	130.0 130.0
1441	18.107 18.107
1442	235.0 235.0
1443	13.005 13.005
1444	148.0 148.0
1445	15.304 15.304
1446	272.0 272.0
1447	50.633 50.633
1448	294.0 294.0
1449	13.522 13.522
1450	66.0 66.0
1451	20.833 20.833
1452	309.0 309.0
1453	23.801 23.801
1454	318.0 318.0
1455	11.683 11.683
1456	130.0 130.0
1457	20.053 20.053
1458	322.0 322.0
1459	12.559 12.559
1460	37.0 37.0
1461	21.293 21.293
1462	221.0 221.0
1463	12.76 12.76
1464	109.0 109.0
1465	10.711 10.711
1466	297.0 297.0
1467	14.374 14.374
1468	325.0 325.0
1469	11.966 11.966
1470	44.0 44.0
1471	49.814 49.814
1472	251.0 251.0
1473	15.283 15.283
1474	212.0 212.0
1475	17.14 17.14
1476	226.0 226.0
1477	13.07 13.07
1478	88.0 88.0
1479	13.22 13.22
1480	240.0 240.0
1481	11.827 11.827
1482	94.0 94.0
1483	12.896 12.896
1484	311.0 311.0
1485	21.964 21.964
1486	130.0 130.0
1487	11.28 11.28
1488	58.0 58.0
1489	12.521 12.521
1490	113.0 113.0
1491	14.171 14.171
1492	227.0 227.0
1493	12.163 12.163
1494	287.0 287.0
1495	12.55 12.55
1496	301.0 301.0
1497	12.867 12.867
1498	227.0 227.0
1499	14.034 14.034
1500	69.0 69.0
1501	14.987 14.987
1502	312.0 312.0
1503	44.59 44.59
1504	268.0 268.0
1505	15.839 15.839
1506	280.0 280.0
1507	14.083 14.083
1508	115.0 115.0
1509	13.216 13.216
1510	90.0 90.0
1511	13.099 13.099
1512	103.0 103.0
1513	15.47 15.47
1514	149.0 149.0
1515	14.067 14.067
1516	33.0 33.0
1517	14.008 14.008
1518	286.0 286.0
1519	14.58 14.58
1520	203.0 203.0
1521	16.496 16.496
1522	137.0 137.0
1523	16.284 16.284
1524	91.0 91.0
1525	13.759 13.759
1526	155.0 155.0
1527	14.243 14.243
1528	336.0 336.0
1529	27.699 27.699
1530	28.0 28.0
1531	52.402 52.402
1532	222.0 222.0
1533	13.42 13.42
1534	334.0 334.0
1535	53.263 53.263
1536	90.0 90.0
1537	52.133 52.133
1538	98.0 98.0
1539	13.313 13.313
1540	99.0 99.0
1541	14.658 14.658
1542	270.0 270.0
1543	11.583 11.583
1544	62.0 62.0
1545	12.358 12.358
1546	103.0 103.0
1547	13.989 13.989
1548	222.0 222.0
1549	11.435 11.435
1550	33.0 33.0
1551	13.944 13.944
1552	52.0 52.0
1553	20.961 20.961
1554	279.0 279.0
1555	21.937 21.937
1556	278.0 278.0
1557	11.71 11.71
1558	177.0 177.0
1559	12.27 12.27
1560	53.0 53.0
1561	11.424 11.424
1562	132.0 132.0
1563	20.949 20.949
1564	88.0 88.0
1565	11.938 11.938
1566	38.0 38.0
1567	11.47 11.47
1568	42.0 42.0
1569	18.317 18.317
1570	51.0 51.0
1571	13.989 13.989
1572	272.0 272.0
1573	51.527 51.527
1574	294.0 294.0
1575	54.766 54.766
1576	144.0 144.0
1577	17.468 17.468
1578	84.0 84.0
1579	15.781 15.781
1580	61.0 61.0
1581	14.433 14.433
1582	311.0 311.0
1583	17.402 17.402
1584	229.0 229.0
1585	14.623 14.623
1586	320.0 320.0
1587	12.658 12.658
1588	236.0 236.0
1589	13.885 13.885
1590	227.0 227.0
1591	11.811 11.811
1592	239.0 239.0
1593	64.553 64.553
1594	235.0 235.0
1595	13.035 13.035
1596	342.0 342.0
1597	14.266 14.266
1598	24.0 24.0
1599	11.288 11.288
1600	153.0 153.0
1601	11.737 11.737
1602	31.0 31.0
1603	10.477 10.477
1604	34.0 34.0
1605	15.953 15.953
1606	43.0 43.0
1607	11.447 11.447
1608	67.0 67.0
1609	11.12 11.12
1610	338.0 338.0
1611	17.011 17.011
1612	40.0 40.0
1613	15.32 15.32
1614	268.0 268.0
1615	10.48 10.48
1616	235.0 235.0
1617	14.311 14.311
1618	300.0 300.0
1619	13.342 13.342
1620	218.0 218.0
1621	15.012 15.012
1622	155.0 155.0
1623	13.328 13.328
1624	239.0 239.0
1625	13.688 13.688
1626	205.0 205.0
1627	14.047 14.047
1628	252.0 252.0
1629	13.737 13.737
1630	178.0 178.0
1631	15.369 15.369
1632	135.0 135.0
1633	14.685 14.685
1634	246.0 246.0
1635	13.841 13.841
1636	276.0 276.0
1637	16.748 16.748
1638	225.0 225.0
1639	16.685 16.685
1640	102.0 102.0
1641	13.553 13.553
1642	185.0 185.0
1643	14.143 14.143
1644	82.0 82.0
1645	13.654 13.654
1646	324.0 324.0
1647	11.586 11.586
1648	297.0 297.0
1649	52.161 52.161
1650	278.0 278.0
1651	22.905 22.905
1652	329.0 329.0
1653	10.763 10.763
1654	313.0 313.0
1655	15.155 15.155
1656	77.0 77.0
1657	17.868 17.868
1658	205.0 205.0
1659	21.97 21.97
1660	331.0 331.0
1661	25.586 25.586
1662	266.0 266.0
1663	20.698 20.698
1664	76.0 76.0
1665	16.254 16.254
1666	175.0 175.0
1667	12.427 12.427
1668	329.0 329.0
1669	14.028 14.028
1670	261.0 261.0
1671	13.917 13.917
1672	340.0 340.0
1673	14.351 14.351
1674	113.0 113.0
1675	15.04 15.04
1676	261.0 261.0
1677	13.672 13.672
1678	68.0 68.0
1679	12.156 12.156
1680	108.0 108.0
1681	15.058 15.058
1682	260.0 260.0
1683	14.598 14.598
1684	57.0 57.0
1685	10.56 10.56
1686	161.0 161.0
1687	16.446 16.446
1688	162.0 162.0
1689	14.555 14.555
1690	72.0 72.0
1691	16.228 16.228
1692	122.0 122.0
1693	14.204 14.204
1694	142.0 142.0
1695	14.227 14.227
1696	255.0 255.0
1697	14.859 14.859
1698	179.0 179.0
1699	15.328 15.328
1700	166.0 166.0
1701	29.02 29.02
1702	61.0 61.0
1703	13.136 13.136
1704	328.0 328.0
1705	19.387 19.387
1706	152.0 152.0
1707	26.673 26.673
1708	329.0 329.0
1709	16.021 16.021
1710	165.0 165.0
1711	11.245 11.245
1712	134.0 134.0
1713	15.051 15.051
1714	139.0 139.0
1715	19.836 19.836
1716	45.0 45.0
1717	12.635 12.635
1718	336.0 336.0
1719	25.617 25.617
1720	320.0 320.0
1721	13.765 13.765
1722	224.0 224.0
1723	14.833 14.833
1724	254.0 254.0
1725	17.839 17.839
1726	28.0 28.0
1727	22.445 22.445
1728	54.0 54.0
1729	14.03 14.03
1730	88.0 88.0
1731	13.003 13.003
1732	109.0 109.0
1733	13.087 13.087
1734	336.0 336.0
1735	12.42 12.42
1736	113.0 113.0
1737	11.349 11.349
1738	308.0 308.0
1739	14.596 14.596
1740	192.0 192.0
1741	16.487 16.487
1742	313.0 313.0
1743	12.691 12.691
1744	236.0 236.0
1745	18.458 18.458
1746	227.0 227.0
1747	12.688 12.688
1748	58.0 58.0
1749	12.598 12.598
1750	249.0 249.0
1751	10.761 10.761
1752	56.0 56.0
1753	11.013 11.013
1754	321.0 321.0
1755	13.912 13.912
1756	125.0 125.0
1757	12.418 12.418
1758	106.0 106.0
1759	11.391 11.391
1760	242.0 242.0
1761	14.599 14.599
1762	273.0 273.0
1763	15.287 15.287
1764	181.0 181.0
1765	13.886 13.886
1766	132.0 132.0
1767	14.272 14.272
1768	97.0 97.0
1769	17.969 17.969
1770	193.0 193.0
1771	27.38 27.38
1772	304.0 304.0
1773	19.892 19.892
1774	293.0 293.0
1775	22.781 22.781
1776	36.0 36.0
1777	23.9 23.9
1778	35.0 35.0
1779	16.167 16.167
1780	175.0 175.0
1781	23.337 23.337
1782	96.0 96.0
1783	13.364 13.364
1784	61.0 61.0
1785	15.317 15.317
1786	331.0 331.0
1787	24.593 24.593
1788	132.0 132.0
1789	15.334 15.334
1790	58.0 58.0
1791	15.52 15.52
1792	51.0 51.0
1793	18.064 18.064
1794	156.0 156.0
1795	30.014 30.014
1796	321.0 321.0
1797	15.031 15.031
1798	235.0 235.0
1799	16.551 16.551
1800	299.0 299.0
1801	16.92 16.92
1802	265.0 265.0
1803	17.195 17.195
1804	301.0 301.0
1805	13.199 13.199
1806	202.0 202.0
1807	11.52 11.52
1808	144.0 144.0
1809	13.439 13.439
1810	227.0 227.0
1811	13.203 13.203
1812	141.0 141.0
1813	13.443 13.443
1814	179.0 179.0
1815	12.99 12.99
1816	254.0 254.0
1817	11.642 11.642
1818	275.0 275.0
1819	16.625 16.625
1820	95.0 95.0
1821	14.704 14.704
1822	269.0 269.0
1823	22.712 22.712
1824	44.0 44.0
1825	26.006 26.006
1826	327.0 327.0
1827	17.239 17.239
1828	328.0 328.0
1829	15.635 15.635
1830	213.0 213.0
1831	16.648 16.648
1832	314.0 314.0
1833	11.403 11.403
1834	103.0 103.0
1835	13.086 13.086
1836	95.0 95.0
1837	24.231 24.231
1838	284.0 284.0
1839	18.836 18.836
1840	99.0 99.0
1841	16.175 16.175
1842	241.0 241.0
1843	14.969 14.969
1844	192.0 192.0
1845	16.37 16.37
1846	148.0 148.0
1847	11.826 11.826
1848	63.0 63.0
1849	10.987 10.987
1850	81.0 81.0
1851	13.823 13.823
1852	223.0 223.0
1853	10.245 10.245
1854	281.0 281.0
1855	11.538 11.538
1856	201.0 201.0
1857	26.073 26.073
1858	268.0 268.0
1859	11.815 11.815
1860	109.0 109.0
1861	15.491 15.491
1862	134.0 134.0
1863	10.577 10.577
1864	140.0 140.0
1865	11.86 11.86
1866	231.0 231.0
1867	13.93 13.93
1868	71.0 71.0
1869	19.611 19.611
1870	114.0 114.0
1871	15.31 15.31
1872	312.0 312.0
1873	12.928 12.928
1874	246.0 246.0
1875	21.396 21.396
1876	39.0 39.0
1877	14.035 14.035
1878	44.0 44.0
1879	24.165 24.165
1880	158.0 158.0
1881	22.614 22.614
1882	233.0 233.0
1883	12.575 12.575
1884	24.0 24.0
1885	20.281 20.281
1886	242.0 242.0
1887	17.603 17.603
1888	287.0 287.0
1889	24.71 24.71
1890	301.0 301.0
1891	18.007 18.007
1892	299.0 299.0
1893	11.774 11.774
1894	229.0 229.0
1895	29.426 29.426
1896	54.0 54.0
1897	15.02 15.02
1898	192.0 192.0
1899	16.801 16.801
1900	303.0 303.0
1901	21.738 21.738
1902	38.0 38.0
1903	15.486 15.486
1904	189.0 189.0
1905	22.325 22.325
1906	230.0 230.0
1907	16.463 16.463
1908	268.0 268.0
1909	14.747 14.747
1910	61.0 61.0
1911	12.961 12.961
1912	232.0 232.0
1913	13.171 13.171
1914	139.0 139.0
1915	11.489 11.489
1916	217.0 217.0
1917	10.413 10.413
1918	28.0 28.0
1919	16.161 16.161
1920	281.0 281.0
1921	14.997 14.997
1922	25.0 25.0
1923	10.418 10.418
1924	60.0 60.0
1925	11.929 11.929
1926	161.0 161.0
1927	11.745 11.745
1928	242.0 242.0
1929	12.855 12.855
1930	97.0 97.0
1931	12.712 12.712
1932	122.0 122.0
1933	15.516 15.516
1934	175.0 175.0
1935	15.75 15.75
1936	47.0 47.0
1937	13.791 13.791
1938	283.0 283.0
1939	11.357 11.357
1940	63.0 63.0
1941	11.692 11.692
1942	305.0 305.0
1943	15.399 15.399
1944	139.0 139.0
1945	17.768 17.768
1946	50.0 50.0
1947	17.846 17.846
1948	157.0 157.0
1949	11.78 11.78
1950	50.0 50.0
1951	27.165 27.165
1952	293.0 293.0
1953	14.57 14.57
1954	131.0 131.0
1955	11.348 11.348
1956	301.0 301.0
1957	11.691 11.691
1958	43.0 43.0
1959	12.691 12.691
1960	151.0 151.0
1961	11.033 11.033
1962	200.0 200.0
1963	11.066 11.066
1964	249.0 249.0
1965	12.313 12.313
1966	304.0 304.0
1967	10.752 10.752
1968	306.0 306.0
1969	11.471 11.471
1970	242.0 242.0
1971	12.09 12.09
1972	45.0 45.0
1973	11.523 11.523
1974	89.0 89.0
1975	14.925 14.925
1976	327.0 327.0
1977	19.264 19.264
1978	204.0 204.0
1979	34.306 34.306
1980	142.0 142.0
1981	15.903 15.903
1982	62.0 62.0
1983	15.546 15.546
1984	33.0 33.0
1985	21.819 21.819
1986	271.0 271.0
1987	20.877 20.877
1988	291.0 291.0
1989	12.662 12.662
1990	325.0 325.0
1991	11.535 11.535
1992	296.0 296.0
1993	12.822 12.822
1994	210.0 210.0
1995	10.354 10.354
1996	263.0 263.0
1997	10.856 10.856
1998	178.0 178.0
1999	10.359 10.359
2000	38.0 38.0
2001	12.215 12.215
2002	252.0 252.0
2003	24.708 24.708
2004	64.0 64.0
2005	15.394 15.394
2006	218.0 218.0
2007	11.008 11.008
2008	164.0 164.0
2009	11.14 11.14
2010	112.0 112.0
2011	12.49 12.49
2012	293.0 293.0
2013	11.884 11.884
2014	276.0 276.0
2015	10.311 10.311
2016	340.0 340.0
2017	11.082 11.082
2018	271.0 271.0
2019	10.848 10.848
2020	260.0 260.0
2021	15.948 15.948
2022	68.0 68.0
2023	12.64 12.64
2024	41.0 41.0
2025	18.28 18.28
2026	183.0 183.0
2027	10.46 10.46
2028	123.0 123.0
2029	12.354 12.354
2030	323.0 323.0
2031	11.559 11.559
2032	316.0 316.0
2033	10.825 10.825
2034	122.0 122.0
2035	17.974 17.974
2036	306.0 306.0
2037	11.988 11.988
2038	319.0 319.0
2039	11.0 11.0
2040	175.0 175.0
2041	10.225 10.225
2042	255.0 255.0
2043	12.642 12.642
2044	157.0 157.0
2045	10.381 10.381
2046	229.0 229.0
2047	18.731 18.731
2048	40.0 40.0
2049	13.583 13.583
2050	178.0 178.0
2051	13.92 13.92
2052	257.0 257.0
2053	22.759 22.759
2054	67.0 67.0
2055	21.218 21.218
2056	149.0 149.0
2057	27.368 27.368
2058	221.0 221.0
2059	16.067 16.067
2060	318.0 318.0
2061	13.97 13.97
2062	217.0 217.0
2063	25.579 25.579
2064	257.0 257.0
2065	11.172 11.172
2066	168.0 168.0
2067	12.653 12.653
2068	288.0 288.0
2069	13.327 13.327
2070	160.0 160.0
2071	24.097 24.097
2072	58.0 58.0
2073	12.768 12.768
2074	288.0 288.0
2075	15.271 15.271
2076	35.0 35.0
2077	21.835 21.835
2078	124.0 124.0
2079	24.9 24.9
2080	236.0 236.0
2081	20.862 20.862
2082	243.0 243.0
2083	16.133 16.133
2084	249.0 249.0
2085	14.913 14.913
2086	252.0 252.0
2087	27.175 27.175
2088	181.0 181.0
2089	11.361 11.361
2090	54.0 54.0
2091	15.865 15.865
2092	250.0 250.0
2093	13.562 13.562
2094	88.0 88.0
2095	11.695 11.695
2096	96.0 96.0
2097	113.848 113.848
2098	216.0 216.0
2099	16.806 16.806
2100	238.0 238.0
2101	17.175 17.175
2102	188.0 188.0
2103	15.082 15.082
2104	233.0 233.0
2105	11.952 11.952
2106	283.0 283.0
2107	12.506 12.506
2108	289.0 289.0
2109	12.919 12.919
2110	306.0 306.0
2111	11.187 11.187
2112	134.0 134.0
2113	11.325 11.325
2114	281.0 281.0
2115	11.645 11.645
2116	78.0 78.0
2117	13.313 13.313
2118	91.0 91.0
2119	16.971 16.971
2120	159.0 159.0
2121	20.798 20.798
2122	294.0 294.0
2123	12.588 12.588
2124	84.0 84.0
2125	16.94 16.94
2126	158.0 158.0
2127	23.087 23.087
2128	261.0 261.0
2129	15.626 15.626
2130	175.0 175.0
2131	18.72 18.72
2132	43.0 43.0
2133	15.775 15.775
2134	78.0 78.0
2135	14.38 14.38
2136	28.0 28.0
2137	15.558 15.558
2138	30.0 30.0
2139	26.865 26.865
2140	153.0 153.0
2141	18.377 18.377
2142	273.0 273.0
2143	19.132 19.132
2144	225.0 225.0
2145	16.921 16.921
2146	100.0 100.0
2147	17.877 17.877
2148	44.0 44.0
2149	18.411 18.411
2150	26.0 26.0
2151	10.53 10.53
2152	204.0 204.0
2153	11.2 11.2
2154	148.0 148.0
2155	14.621 14.621
2156	76.0 76.0
2157	11.859 11.859
2158	342.0 342.0
2159	15.861 15.861
2160	95.0 95.0
2161	14.226 14.226
2162	303.0 303.0
2163	14.812 14.812
2164	305.0 305.0
2165	12.915 12.915
2166	67.0 67.0
2167	12.502 12.502
2168	249.0 249.0
2169	13.94 13.94
2170	121.0 121.0
2171	10.285 10.285
2172	228.0 228.0
2173	14.701 14.701
2174	90.0 90.0
2175	10.387 10.387
2176	28.0 28.0
2177	11.901 11.901
2178	239.0 239.0
2179	13.819 13.819
2180	318.0 318.0
2181	26.159 26.159
2182	76.0 76.0
2183	22.662 22.662
2184	287.0 287.0
2185	18.348 18.348
2186	219.0 219.0
2187	11.441 11.441
2188	93.0 93.0
2189	13.79 13.79
2190	118.0 118.0
2191	14.798 14.798
2192	157.0 157.0
2193	16.273 16.273
2194	153.0 153.0
2195	26.994 26.994
2196	280.0 280.0
2197	12.312 12.312
2198	341.0 341.0
2199	12.653 12.653
2200	52.0 52.0
2201	21.924 21.924
2202	110.0 110.0
2203	12.842 12.842
2204	261.0 261.0
2205	15.615 15.615
2206	258.0 258.0
2207	11.018 11.018
2208	282.0 282.0
2209	11.633 11.633
2210	138.0 138.0
2211	14.309 14.309
2212	231.0 231.0
2213	19.237 19.237
2214	310.0 310.0
2215	25.983 25.983
2216	45.0 45.0
2217	26.377 26.377
2218	31.0 31.0
2219	24.374 24.374
2220	45.0 45.0
2221	23.47 23.47
2222	100.0 100.0
2223	18.766 18.766
2224	308.0 308.0
2225	16.841 16.841
2226	103.0 103.0
2227	14.989 14.989
2228	161.0 161.0
2229	20.808 20.808
2230	313.0 313.0
2231	15.622 15.622
2232	312.0 312.0
2233	15.015 15.015
2234	101.0 101.0
2235	15.724 15.724
2236	247.0 247.0
2237	27.616 27.616
2238	304.0 304.0
2239	23.95 23.95
2240	144.0 144.0
2241	12.717 12.717
2242	49.0 49.0
2243	11.431 11.431
2244	163.0 163.0
2245	16.895 16.895
2246	215.0 215.0
2247	14.738 14.738
2248	42.0 42.0
2249	12.493 12.493
2250	72.0 72.0
2251	13.112 13.112
2252	262.0 262.0
2253	10.884 10.884
2254	255.0 255.0
2255	13.524 13.524
2256	242.0 242.0
2257	10.467 10.467
2258	302.0 302.0
2259	10.787 10.787
2260	79.0 79.0
2261	14.414 14.414
2262	214.0 214.0
2263	11.814 11.814
2264	268.0 268.0
2265	17.625 17.625
2266	75.0 75.0
2267	16.428 16.428
2268	164.0 164.0
2269	25.607 25.607
2270	150.0 150.0
2271	18.898 18.898
2272	158.0 158.0
2273	15.197 15.197
2274	163.0 163.0
2275	19.791 19.791
2276	102.0 102.0
2277	17.153 17.153
2278	263.0 263.0
2279	23.359 23.359
2280	159.0 159.0
2281	13.187 13.187
2282	139.0 139.0
2283	14.25 14.25
2284	164.0 164.0
2285	10.456 10.456
2286	106.0 106.0
2287	15.006 15.006
2288	286.0 286.0
2289	12.579 12.579
2290	91.0 91.0
2291	13.585 13.585
2292	42.0 42.0
2293	14.881 14.881
2294	216.0 216.0
2295	17.524 17.524
2296	258.0 258.0
2297	10.338 10.338
2298	234.0 234.0
2299	12.019 12.019
2300	203.0 203.0
2301	12.686 12.686
2302	51.0 51.0
2303	13.768 13.768
2304	29.0 29.0
2305	11.274 11.274
2306	323.0 323.0
2307	14.649 14.649
2308	306.0 306.0
2309	13.304 13.304
2310	69.0 69.0
2311	11.158 11.158
2312	27.0 27.0
2313	10.339 10.339
2314	68.0 68.0
2315	14.69 14.69
2316	337.0 337.0
2317	15.794 15.794
2318	85.0 85.0
2319	13.168 13.168
2320	77.0 77.0
2321	14.609 14.609
2322	303.0 303.0
2323	15.496 15.496
2324	98.0 98.0
2325	13.724 13.724
2326	146.0 146.0
2327	14.971 14.971
2328	241.0 241.0
2329	18.293 18.293
2330	258.0 258.0
2331	18.687 18.687
2332	204.0 204.0
2333	18.066 18.066
2334	149.0 149.0
2335	12.461 12.461
2336	235.0 235.0
2337	14.699 14.699
2338	161.0 161.0
2339	11.462 11.462
2340	254.0 254.0
2341	19.955 19.955
2342	133.0 133.0
2343	19.92 19.92
2344	323.0 323.0
2345	11.837 11.837
2346	82.0 82.0
2347	12.19 12.19
2348	290.0 290.0
2349	11.634 11.634
2350	227.0 227.0
2351	13.604 13.604
2352	171.0 171.0
2353	13.31 13.31
2354	211.0 211.0
2355	12.511 12.511
2356	195.0 195.0
2357	15.779 15.779
2358	167.0 167.0
2359	14.676 14.676
2360	213.0 213.0
2361	14.148 14.148
2362	207.0 207.0
2363	13.672 13.672
2364	154.0 154.0
2365	13.93 13.93
2366	195.0 195.0
2367	11.865 11.865
2368	148.0 148.0
2369	11.011 11.011
2370	106.0 106.0
2371	14.275 14.275
2372	110.0 110.0
2373	11.756 11.756
2374	47.0 47.0
2375	13.266 13.266
2376	36.0 36.0
2377	11.071 11.071
2378	24.0 24.0
2379	14.414 14.414
2380	62.0 62.0
2381	16.209 16.209
2382	130.0 130.0
2383	25.753 25.753
2384	164.0 164.0
2385	19.637 19.637
2386	287.0 287.0
2387	15.615 15.615
2388	202.0 202.0
2389	19.02 19.02
2390	328.0 328.0
2391	15.449 15.449
2392	199.0 199.0
2393	12.904 12.904
2394	319.0 319.0
2395	12.614 12.614
2396	53.0 53.0
2397	10.415 10.415
2398	195.0 195.0
2399	13.793 13.793
2400	76.0 76.0
2401	18.182 18.182
2402	187.0 187.0
2403	12.692 12.692
2404	107.0 107.0
2405	10.895 10.895
2406	92.0 92.0
2407	16.033 16.033
2408	309.0 309.0
2409	15.113 15.113
2410	189.0 189.0
2411	15.255 15.255
2412	158.0 158.0
2413	14.462 14.462
2414	98.0 98.0
2415	11.94 11.94
2416	274.0 274.0
2417	17.788 17.788
2418	226.0 226.0
2419	14.995 14.995
2420	235.0 235.0
2421	26.892 26.892
2422	312.0 312.0
2423	12.855 12.855
2424	330.0 330.0
2425	27.73 27.73
2426	26.0 26.0
2427	15.346 15.346
2428	175.0 175.0
2429	32.733 32.733
2430	153.0 153.0
2431	16.926 16.926
2432	46.0 46.0
2433	15.466 15.466
2434	74.0 74.0
2435	12.09 12.09
2436	338.0 338.0
2437	14.344 14.344
2438	65.0 65.0
2439	15.449 15.449
2440	159.0 159.0
2441	16.269 16.269
2442	305.0 305.0
2443	11.242 11.242
2444	151.0 151.0
2445	11.017 11.017
2446	327.0 327.0
2447	11.329 11.329
2448	96.0 96.0
2449	12.443 12.443
2450	288.0 288.0
2451	17.139 17.139
2452	120.0 120.0
2453	10.956 10.956
2454	192.0 192.0
2455	16.058 16.058
2456	85.0 85.0
2457	11.633 11.633
2458	111.0 111.0
2459	12.374 12.374
2460	55.0 55.0
2461	11.542 11.542
2462	56.0 56.0
2463	16.741 16.741
2464	113.0 113.0
2465	16.257 16.257
2466	196.0 196.0
2467	11.203 11.203
2468	25.0 25.0
2469	13.479 13.479
2470	217.0 217.0
2471	12.449 12.449
2472	229.0 229.0
2473	11.892 11.892
2474	300.0 300.0
2475	12.396 12.396
2476	173.0 173.0
2477	12.964 12.964
2478	123.0 123.0
2479	15.49 15.49
2480	311.0 311.0
2481	12.097 12.097
2482	92.0 92.0
2483	12.173 12.173
2484	45.0 45.0
2485	11.722 11.722
2486	92.0 92.0
2487	12.101 12.101
2488	276.0 276.0
2489	11.525 11.525
2490	268.0 268.0
2491	12.863 12.863
2492	90.0 90.0
2493	11.199 11.199
2494	303.0 303.0
2495	13.205 13.205
2496	198.0 198.0
2497	14.285 14.285
2498	290.0 290.0
2499	10.795 10.795
2500	202.0 202.0
2501	14.255 14.255
2502	125.0 125.0
2503	14.17 14.17
2504	84.0 84.0
2505	13.939 13.939
2506	105.0 105.0
2507	13.014 13.014
2508	195.0 195.0
2509	15.156 15.156
2510	33.0 33.0
2511	11.495 11.495
2512	270.0 270.0
2513	12.79 12.79
2514	264.0 264.0
2515	10.774 10.774
2516	56.0 56.0
2517	14.343 14.343
2518	215.0 215.0
2519	16.248 16.248
2520	294.0 294.0
2521	14.388 14.388
2522	201.0 201.0
2523	15.505 15.505
2524	144.0 144.0
2525	16.989 16.989
2526	284.0 284.0
2527	16.535 16.535
2528	317.0 317.0
2529	12.027 12.027
2530	121.0 121.0
2531	17.813 17.813
2532	35.0 35.0
2533	17.962 17.962
2534	309.0 309.0
2535	15.237 15.237
2536	290.0 290.0
2537	22.646 22.646
2538	96.0 96.0
2539	15.153 15.153
2540	67.0 67.0
2541	24.887 24.887
2542	197.0 197.0
2543	22.473 22.473
2544	94.0 94.0
2545	16.441 16.441
2546	232.0 232.0
2547	20.28 20.28
2548	203.0 203.0
2549	16.409 16.409
2550	49.0 49.0
2551	19.03 19.03
2552	306.0 306.0
2553	18.369 18.369
2554	318.0 318.0
2555	13.71 13.71
2556	224.0 224.0
2557	198.36 198.36
2558	238.0 238.0
2559	10.162 10.162
2560	275.0 275.0
2561	11.046 11.046
2562	245.0 245.0
2563	170.508 170.508
2564	59.0 59.0
2565	18.472 18.472
2566	24.0 24.0
2567	11.075 11.075
2568	75.0 75.0
2569	19.447 19.447
2570	287.0 287.0
2571	10.981 10.981
2572	280.0 280.0
2573	12.433 12.433
2574	286.0 286.0
2575	154.772 154.772
2576	338.0 338.0
2577	14.769 14.769
2578	339.0 339.0
2579	11.403 11.403
2580	286.0 286.0
2581	24.877 24.877
2582	287.0 287.0
2583	16.526 16.526
2584	57.0 57.0
2585	11.092 11.092
2586	191.0 191.0
2587	17.73 17.73
2588	321.0 321.0
2589	10.925 10.925
2590	275.0 275.0
2591	10.482 10.482
2592	141.0 141.0
2593	12.737 12.737
2594	247.0 247.0
2595	11.486 11.486
2596	114.0 114.0
2597	11.188 11.188
2598	36.0 36.0
2599	12.406 12.406
2600	206.0 206.0
2601	13.322 13.322
2602	163.0 163.0
2603	15.554 15.554
2604	280.0 280.0
2605	26.125 26.125
2606	108.0 108.0
2607	13.608 13.608
2608	146.0 146.0
2609	11.939 11.939
2610	277.0 277.0
2611	185.985 185.985
2612	188.0 188.0
2613	22.426 22.426
2614	292.0 292.0
2615	13.019 13.019
2616	174.0 174.0
2617	208.803 208.803
2618	336.0 336.0
2619	19.186 19.186
2620	243.0 243.0
2621	24.009 24.009
2622	257.0 257.0
2623	19.566 19.566
2624	298.0 298.0
2625	24.146 24.146
2626	55.0 55.0
2627	13.921 13.921
2628	161.0 161.0
2629	13.304 13.304
2630	186.0 186.0
2631	16.873 16.873
2632	259.0 259.0
2633	18.648 18.648
2634	337.0 337.0
2635	14.698 14.698
2636	264.0 264.0
2637	25.144 25.144
2638	232.0 232.0
2639	13.322 13.322
2640	46.0 46.0
2641	10.419 10.419
2642	177.0 177.0
2643	14.894 14.894
2644	334.0 334.0
2645	17.133 17.133
2646	135.0 135.0
2647	13.557 13.557
2648	273.0 273.0
2649	23.602 23.602
2650	46.0 46.0
2651	13.441 13.441
2652	205.0 205.0
2653	11.209 11.209
2654	79.0 79.0
2655	19.351 19.351
2656	35.0 35.0
2657	11.142 11.142
2658	270.0 270.0
2659	11.375 11.375
2660	173.0 173.0
2661	156.558 156.558
2662	100.0 100.0
2663	140.818 140.818
2664	199.0 199.0
2665	134.585 134.585
2666	229.0 229.0
2667	13.057 13.057
2668	222.0 222.0
2669	18.339 18.339
2670	73.0 73.0
2671	11.848 11.848
2672	106.0 106.0
2673	12.745 12.745
2674	210.0 210.0
2675	10.532 10.532
2676	190.0 190.0
2677	17.558 17.558
2678	296.0 296.0
2679	13.2 13.2
2680	313.0 313.0
2681	16.313 16.313
2682	160.0 160.0
2683	19.553 19.553
2684	318.0 318.0
2685	15.646 15.646
2686	174.0 174.0
2687	21.8 21.8
2688	191.0 191.0
2689	10.77 10.77
2690	155.0 155.0
2691	11.027 11.027
2692	132.0 132.0
2693	11.545 11.545
2694	167.0 167.0
2695	10.595 10.595
2696	148.0 148.0
2697	11.511 11.511
2698	82.0 82.0
2699	12.098 12.098
2700	236.0 236.0
2701	15.773 15.773
2702	304.0 304.0
2703	18.269 18.269
2704	277.0 277.0
2705	11.193 11.193
2706	261.0 261.0
2707	10.398 10.398
2708	252.0 252.0
2709	13.7 13.7
2710	171.0 171.0
2711	13.628 13.628
2712	162.0 162.0
2713	11.58 11.58
2714	123.0 123.0
2715	19.496 19.496
2716	311.0 311.0
2717	15.462 15.462
2718	234.0 234.0
2719	15.531 15.531
2720	196.0 196.0
2721	16.498 16.498
2722	315.0 315.0
2723	15.219 15.219
2724	151.0 151.0
2725	14.743 14.743
2726	119.0 119.0
2727	13.648 13.648
2728	288.0 288.0
2729	16.86 16.86
2730	140.0 140.0
2731	14.858 14.858
2732	175.0 175.0
2733	10.381 10.381
2734	70.0 70.0
2735	13.761 13.761
2736	260.0 260.0
2737	15.669 15.669
2738	249.0 249.0
2739	10.091 10.091
2740	338.0 338.0
2741	12.667 12.667
2742	289.0 289.0
2743	10.882 10.882
2744	321.0 321.0
2745	14.579 14.579
2746	129.0 129.0
2747	14.523 14.523
2748	160.0 160.0
2749	11.418 11.418
2750	193.0 193.0
2751	13.153 13.153
2752	305.0 305.0
2753	12.795 12.795
2754	230.0 230.0
2755	16.349 16.349
2756	260.0 260.0
2757	13.062 13.062
2758	147.0 147.0
2759	11.171 11.171
2760	336.0 336.0
2761	12.919 12.919
2762	301.0 301.0
2763	13.211 13.211
2764	110.0 110.0
2765	16.547 16.547
2766	282.0 282.0
2767	12.099 12.099
2768	335.0 335.0
2769	16.549 16.549
2770	266.0 266.0
2771	14.621 14.621
2772	147.0 147.0
2773	15.05 15.05
2774	109.0 109.0
2775	24.303 24.303
2776	213.0 213.0
2777	21.733 21.733
2778	191.0 191.0
2779	20.155 20.155
2780	143.0 143.0
2781	14.639 14.639
2782	28.0 28.0
2783	12.264 12.264
2784	76.0 76.0
2785	13.334 13.334
2786	95.0 95.0
2787	14.074 14.074
2788	162.0 162.0
2789	13.91 13.91
2790	138.0 138.0
2791	12.235 12.235
2792	128.0 128.0
2793	13.391 13.391
2794	274.0 274.0
2795	15.457 15.457
2796	68.0 68.0
2797	14.043 14.043
2798	213.0 213.0
2799	18.117 18.117
2800	138.0 138.0
2801	17.783 17.783
2802	110.0 110.0
2803	14.831 14.831
2804	88.0 88.0
2805	17.465 17.465
2806	97.0 97.0
2807	11.257 11.257
2808	90.0 90.0
2809	11.156 11.156
2810	308.0 308.0
2811	10.958 10.958
2812	110.0 110.0
2813	10.962 10.962
2814	328.0 328.0
2815	15.356 15.356
2816	31.0 31.0
2817	11.16 11.16
2818	75.0 75.0
2819	15.507 15.507
2820	149.0 149.0
2821	12.178 12.178
2822	291.0 291.0
2823	12.695 12.695
2824	152.0 152.0
2825	11.255 11.255
2826	27.0 27.0
2827	11.355 11.355
2828	245.0 245.0
2829	11.442 11.442
2830	249.0 249.0
2831	16.878 16.878
2832	143.0 143.0
2833	11.28 11.28
2834	211.0 211.0
2835	14.882 14.882
2836	194.0 194.0
2837	14.713 14.713
2838	120.0 120.0
2839	14.052 14.052
2840	195.0 195.0
2841	16.85 16.85
2842	292.0 292.0
2843	12.22 12.22
2844	273.0 273.0
2845	17.749 17.749
2846	299.0 299.0
2847	12.047 12.047
2848	189.0 189.0
2849	13.039 13.039
2850	214.0 214.0
2851	19.149 19.149
2852	141.0 141.0
2853	15.581 15.581
2854	46.0 46.0
2855	24.263 24.263
2856	240.0 240.0
2857	19.108 19.108
2858	162.0 162.0
2859	11.843 11.843
2860	54.0 54.0
2861	19.608 19.608
2862	64.0 64.0
2863	25.339 25.339
2864	249.0 249.0
2865	14.557 14.557
2866	80.0 80.0
2867	15.571 15.571
2868	53.0 53.0
2869	16.575 16.575
2870	131.0 131.0
2871	16.764 16.764
2872	231.0 231.0
2873	15.348 15.348
2874	105.0 105.0
2875	12.989 12.989
2876	159.0 159.0
2877	12.626 12.626
2878	228.0 228.0
2879	11.737 11.737
2880	85.0 85.0
2881	12.506 12.506
2882	178.0 178.0
2883	27.653 27.653
2884	273.0 273.0
2885	13.007 13.007
2886	87.0 87.0
2887	10.732 10.732
2888	225.0 225.0
2889	16.503 16.503
2890	188.0 188.0
2891	13.753 13.753
2892	326.0 326.0
2893	12.307 12.307
2894	195.0 195.0
2895	13.027 13.027
2896	94.0 94.0
2897	36.743 36.743
2898	103.0 103.0
2899	16.25 16.25
2900	89.0 89.0
2901	14.417 14.417
2902	66.0 66.0
2903	16.03 16.03
2904	80.0 80.0
2905	13.582 13.582
2906	257.0 257.0
2907	26.134 26.134
2908	112.0 112.0
2909	14.903 14.903
2910	113.0 113.0
2911	13.016 13.016
2912	41.0 41.0
2913	11.664 11.664
2914	243.0 243.0
2915	13.448 13.448
2916	218.0 218.0
2917	11.695 11.695
2918	80.0 80.0
2919	12.654 12.654
2920	152.0 152.0
2921	11.338 11.338
2922	131.0 131.0
2923	13.745 13.745
2924	31.0 31.0
2925	15.346 15.346
2926	327.0 327.0
2927	24.469 24.469
2928	209.0 209.0
2929	11.245 11.245
2930	140.0 140.0
2931	14.05 14.05
2932	215.0 215.0
2933	14.859 14.859
2934	94.0 94.0
2935	11.86 11.86
2936	250.0 250.0
2937	12.869 12.869
2938	63.0 63.0
2939	15.276 15.276
2940	107.0 107.0
2941	14.884 14.884
2942	282.0 282.0
2943	14.247 14.247
2944	214.0 214.0
2945	15.622 15.622
2946	34.0 34.0
2947	13.954 13.954
2948	81.0 81.0
2949	13.171 13.171
2950	227.0 227.0
2951	12.323 12.323
2952	129.0 129.0
2953	14.072 14.072
2954	129.0 129.0
2955	17.082 17.082
2956	325.0 325.0
2957	16.148 16.148
2958	35.0 35.0
2959	14.503 14.503
2960	129.0 129.0
2961	11.579 11.579
2962	31.0 31.0
2963	16.867 16.867
2964	237.0 237.0
2965	19.812 19.812
2966	235.0 235.0
2967	12.064 12.064
2968	328.0 328.0
2969	14.508 14.508
2970	182.0 182.0
2971	13.7 13.7
2972	325.0 325.0
2973	10.776 10.776
2974	245.0 245.0
2975	20.698 20.698
2976	319.0 319.0
2977	11.416 11.416
2978	182.0 182.0
2979	10.825 10.825
2980	43.0 43.0
2981	11.485 11.485
2982	153.0 153.0
2983	10.707 10.707
2984	285.0 285.0
2985	13.464 13.464
2986	101.0 101.0
2987	11.738 11.738
2988	125.0 125.0
2989	12.099 12.099
2990	60.0 60.0
2991	15.29 15.29
2992	243.0 243.0
2993	13.791 13.791
2994	145.0 145.0
2995	12.098 12.098
2996	222.0 222.0
2997	11.314 11.314
2998	338.0 338.0
2999	13.868 13.868
3000	296.0 296.0
3001	14.917 14.917
3002	150.0 150.0
3003	13.082 13.082
3004	199.0 199.0
3005	11.769 11.769
3006	35.0 35.0
3007	12.577 12.577
3008	231.0 231.0
3009	15.293 15.293
3010	183.0 183.0
3011	16.958 16.958
3012	297.0 297.0
3013	15.437 15.437
3014	85.0 85.0
3015	12.708 12.708
3016	39.0 39.0
3017	21.197 21.197
3018	267.0 267.0
3019	11.173 11.173
3020	303.0 303.0
3021	12.886 12.886
3022	268.0 268.0
3023	15.356 15.356
3024	98.0 98.0
3025	10.746 10.746
3026	215.0 215.0
3027	12.619 12.619
3028	69.0 69.0
3029	14.816 14.816
3030	321.0 321.0
3031	11.294 11.294
3032	111.0 111.0
3033	10.875 10.875
3034	101.0 101.0
3035	12.035 12.035
3036	259.0 259.0
3037	12.069 12.069
3038	123.0 123.0
3039	14.259 14.259
3040	152.0 152.0
3041	10.857 10.857
3042	113.0 113.0
3043	11.287 11.287
3044	49.0 49.0
3045	15.819 15.819
3046	113.0 113.0
3047	14.395 14.395
3048	155.0 155.0
3049	11.421 11.421
3050	167.0 167.0
3051	11.573 11.573
3052	124.0 124.0
3053	18.645 18.645
3054	231.0 231.0
3055	12.116 12.116
3056	191.0 191.0
3057	12.549 12.549
3058	107.0 107.0
3059	14.952 14.952
3060	104.0 104.0
3061	17.648 17.648
3062	200.0 200.0
3063	11.288 11.288
3064	235.0 235.0
3065	13.553 13.553
3066	119.0 119.0
3067	10.795 10.795
3068	151.0 151.0
3069	11.664 11.664
3070	290.0 290.0
3071	14.311 14.311
3072	85.0 85.0
3073	21.159 21.159
3074	50.0 50.0
3075	14.195 14.195
3076	108.0 108.0
3077	13.13 13.13
3078	52.0 52.0
3079	15.681 15.681
3080	145.0 145.0
3081	22.891 22.891
3082	311.0 311.0
3083	17.497 17.497
3084	192.0 192.0
3085	10.527 10.527
3086	256.0 256.0
3087	14.262 14.262
3088	330.0 330.0
3089	13.623 13.623
3090	303.0 303.0
3091	12.601 12.601
3092	305.0 305.0
3093	10.976 10.976
3094	204.0 204.0
3095	17.385 17.385
3096	44.0 44.0
3097	25.975 25.975
3098	54.0 54.0
3099	11.494 11.494
3100	30.0 30.0
3101	16.568 16.568
3102	260.0 260.0
3103	15.595 15.595
3104	120.0 120.0
3105	17.925 17.925
3106	319.0 319.0
3107	18.573 18.573
3108	76.0 76.0
3109	18.578 18.578
3110	107.0 107.0
3111	11.652 11.652
3112	236.0 236.0
3113	17.807 17.807
3114	262.0 262.0
3115	13.202 13.202
3116	132.0 132.0
3117	10.761 10.761
3118	317.0 317.0
3119	21.593 21.593
3120	279.0 279.0
3121	12.863 12.863
3122	45.0 45.0
3123	11.119 11.119
3124	275.0 275.0
3125	14.326 14.326
3126	240.0 240.0
3127	11.301 11.301
3128	310.0 310.0
3129	11.135 11.135
3130	122.0 122.0
3131	13.733 13.733
3132	81.0 81.0
3133	10.881 10.881
3134	100.0 100.0
3135	14.488 14.488
3136	335.0 335.0
3137	13.786 13.786
3138	262.0 262.0
3139	12.351 12.351
3140	320.0 320.0
3141	15.122 15.122
3142	272.0 272.0
3143	38.099 38.099
3144	166.0 166.0
3145	13.774 13.774
3146	325.0 325.0
3147	20.7 20.7
3148	138.0 138.0
3149	12.504 12.504
3150	144.0 144.0
3151	16.468 16.468
3152	264.0 264.0
3153	10.649 10.649
3154	338.0 338.0
3155	13.281 13.281
3156	216.0 216.0
3157	14.343 14.343
3158	175.0 175.0
3159	12.67 12.67
3160	269.0 269.0
3161	13.639 13.639
3162	125.0 125.0
3163	14.13 14.13
3164	116.0 116.0
3165	14.482 14.482
3166	167.0 167.0
3167	14.721 14.721
3168	200.0 200.0
3169	14.975 14.975
3170	311.0 311.0
3171	15.247 15.247
3172	131.0 131.0
3173	16.685 16.685
3174	252.0 252.0
3175	14.217 14.217
3176	295.0 295.0
3177	14.3 14.3
3178	66.0 66.0
3179	13.794 13.794
3180	111.0 111.0
3181	15.711 15.711
3182	332.0 332.0
3183	14.993 14.993
3184	277.0 277.0
3185	13.709 13.709
3186	44.0 44.0
3187	14.125 14.125
3188	83.0 83.0
3189	17.041 17.041
3190	178.0 178.0
3191	26.386 26.386
3192	140.0 140.0
3193	22.184 22.184
3194	56.0 56.0
3195	14.726 14.726
3196	271.0 271.0
3197	21.59 21.59
3198	125.0 125.0
3199	18.221 18.221
3200	201.0 201.0
3201	13.921 13.921
3202	325.0 325.0
3203	27.628 27.628
3204	179.0 179.0
3205	18.171 18.171
3206	202.0 202.0
3207	26.328 26.328
3208	264.0 264.0
3209	27.747 27.747
3210	253.0 253.0
3211	10.932 10.932
3212	305.0 305.0
3213	13.476 13.476
3214	199.0 199.0
3215	13.717 13.717
3216	337.0 337.0
3217	16.581 16.581
3218	198.0 198.0
3219	13.216 13.216
3220	86.0 86.0
3221	17.814 17.814
3222	326.0 326.0
3223	14.486 14.486
3224	93.0 93.0
3225	11.833 11.833
3226	298.0 298.0
3227	14.057 14.057
3228	232.0 232.0
3229	13.994 13.994
3230	121.0 121.0
3231	14.275 14.275
3232	143.0 143.0
3233	19.141 19.141
3234	231.0 231.0
3235	24.426 24.426
3236	77.0 77.0
3237	17.888 17.888
3238	254.0 254.0
3239	24.497 24.497
3240	242.0 242.0
3241	13.955 13.955
3242	110.0 110.0
3243	15.408 15.408
3244	200.0 200.0
3245	18.381 18.381
3246	50.0 50.0
3247	15.549 15.549
3248	79.0 79.0
3249	12.019 12.019
3250	226.0 226.0
3251	24.461 24.461
3252	67.0 67.0
3253	32.236 32.236
3254	46.0 46.0
3255	15.112 15.112
3256	321.0 321.0
3257	13.704 13.704
3258	250.0 250.0
3259	17.297 17.297
3260	235.0 235.0
3261	22.247 22.247
3262	111.0 111.0
3263	15.055 15.055
3264	247.0 247.0
3265	14.753 14.753
3266	305.0 305.0
3267	11.068 11.068
3268	25.0 25.0
3269	12.721 12.721
3270	36.0 36.0
3271	18.296 18.296
3272	126.0 126.0
3273	14.478 14.478
3274	271.0 271.0
3275	12.024 12.024
3276	293.0 293.0
3277	15.889 15.889
3278	225.0 225.0
3279	16.8 16.8
3280	189.0 189.0
3281	14.918 14.918
3282	141.0 141.0
3283	14.552 14.552
3284	63.0 63.0
3285	13.645 13.645
3286	73.0 73.0
3287	14.04 14.04
3288	217.0 217.0
3289	22.419 22.419
3290	213.0 213.0
3291	15.067 15.067
3292	33.0 33.0
3293	16.64 16.64
3294	285.0 285.0
3295	14.024 14.024
3296	334.0 334.0
3297	11.722 11.722
3298	84.0 84.0
3299	12.129 12.129
3300	173.0 173.0
3301	13.994 13.994
3302	70.0 70.0
3303	13.492 13.492
3304	242.0 242.0
3305	13.087 13.087
3306	243.0 243.0
3307	11.172 11.172
3308	269.0 269.0
3309	14.141 14.141
3310	324.0 324.0
3311	15.148 15.148
3312	83.0 83.0
3313	11.366 11.366
3314	266.0 266.0
3315	14.043 14.043
3316	296.0 296.0
3317	10.94 10.94
3318	102.0 102.0
3319	20.883 20.883
3320	66.0 66.0
3321	12.508 12.508
3322	291.0 291.0
3323	10.864 10.864
3324	151.0 151.0
3325	13.368 13.368
3326	87.0 87.0
3327	14.537 14.537
3328	231.0 231.0
3329	13.127 13.127
3330	326.0 326.0
3331	10.691 10.691
3332	235.0 235.0
3333	12.375 12.375
3334	201.0 201.0
3335	11.904 11.904
3336	178.0 178.0
3337	14.598 14.598
3338	301.0 301.0
3339	16.855 16.855
3340	242.0 242.0
3341	10.992 10.992
3342	210.0 210.0
3343	15.038 15.038
3344	220.0 220.0
3345	10.717 10.717
3346	104.0 104.0
3347	10.519 10.519
3348	249.0 249.0
3349	11.57 11.57
3350	173.0 173.0
3351	12.173 12.173
3352	245.0 245.0
3353	11.671 11.671
3354	222.0 222.0
3355	11.752 11.752
3356	294.0 294.0
3357	11.153 11.153
3358	94.0 94.0
3359	13.481 13.481
3360	154.0 154.0
3361	10.541 10.541
3362	180.0 180.0
3363	18.66 18.66
3364	114.0 114.0
3365	11.26 11.26
3366	264.0 264.0
3367	11.142 11.142
3368	205.0 205.0
3369	14.978 14.978
3370	185.0 185.0
3371	10.458 10.458
3372	209.0 209.0
3373	12.649 12.649
3374	31.0 31.0
3375	13.896 13.896
3376	134.0 134.0
3377	12.113 12.113
3378	112.0 112.0
3379	12.542 12.542
3380	166.0 166.0
3381	14.572 14.572
3382	61.0 61.0
3383	13.122 13.122
3384	290.0 290.0
3385	15.092 15.092
3386	96.0 96.0
3387	21.965 21.965
3388	306.0 306.0
3389	15.069 15.069
3390	228.0 228.0
3391	14.62 14.62
3392	99.0 99.0
3393	15.601 15.601
3394	34.0 34.0
3395	10.873 10.873
3396	337.0 337.0
3397	12.563 12.563
3398	67.0 67.0
3399	15.851 15.851
3400	208.0 208.0
3401	12.408 12.408
3402	148.0 148.0
3403	10.787 10.787
3404	286.0 286.0
3405	12.305 12.305
3406	228.0 228.0
3407	11.507 11.507
3408	186.0 186.0
3409	13.019 13.019
3410	111.0 111.0
3411	11.428 11.428
3412	231.0 231.0
3413	11.308 11.308
3414	124.0 124.0
3415	11.113 11.113
3416	35.0 35.0
3417	11.17 11.17
3418	280.0 280.0
3419	10.439 10.439
3420	265.0 265.0
3421	16.702 16.702
3422	39.0 39.0
3423	12.094 12.094
3424	214.0 214.0
3425	16.064 16.064
3426	124.0 124.0
3427	14.797 14.797
3428	209.0 209.0
3429	15.269 15.269
3430	106.0 106.0
3431	24.431 24.431
3432	162.0 162.0
3433	11.975 11.975
3434	140.0 140.0
3435	18.207 18.207
3436	214.0 214.0
3437	19.765 19.765
3438	258.0 258.0
3439	14.163 14.163
3440	287.0 287.0
3441	17.982 17.982
3442	332.0 332.0
3443	13.349 13.349
3444	290.0 290.0
3445	12.632 12.632
3446	326.0 326.0
3447	20.069 20.069
3448	104.0 104.0
3449	13.588 13.588
3450	72.0 72.0
3451	15.668 15.668
3452	176.0 176.0
3453	11.078 11.078
3454	78.0 78.0
3455	24.561 24.561
3456	130.0 130.0
3457	13.507 13.507
3458	177.0 177.0
3459	10.626 10.626
3460	185.0 185.0
3461	13.356 13.356
3462	153.0 153.0
3463	14.193 14.193
3464	295.0 295.0
3465	12.971 12.971
3466	54.0 54.0
3467	18.514 18.514
3468	301.0 301.0
3469	13.883 13.883
3470	109.0 109.0
3471	11.435 11.435
3472	311.0 311.0
3473	11.653 11.653
3474	221.0 221.0
3475	12.226 12.226
3476	153.0 153.0
3477	13.864 13.864
3478	39.0 39.0
3479	22.019 22.019
3480	74.0 74.0
3481	19.506 19.506
3482	152.0 152.0
3483	12.734 12.734
3484	314.0 314.0
3485	10.979 10.979
3486	125.0 125.0
3487	19.052 19.052
3488	190.0 190.0
3489	17.46 17.46
3490	97.0 97.0
3491	15.454 15.454
3492	210.0 210.0
3493	11.408 11.408
3494	250.0 250.0
3495	11.459 11.459
3496	257.0 257.0
3497	11.027 11.027
3498	99.0 99.0
3499	11.169 11.169
3500	67.0 67.0
3501	11.954 11.954
3502	154.0 154.0
3503	11.655 11.655
3504	61.0 61.0
3505	12.412 12.412
3506	133.0 133.0
3507	11.079 11.079
3508	121.0 121.0
3509	16.002 16.002
3510	259.0 259.0
3511	12.84 12.84
3512	329.0 329.0
3513	19.116 19.116
3514	273.0 273.0
3515	11.256 11.256
3516	27.0 27.0
3517	11.065 11.065
3518	83.0 83.0
3519	15.114 15.114
3520	342.0 342.0
3521	10.68 10.68
3522	36.0 36.0
3523	10.601 10.601
3524	107.0 107.0
3525	14.604 14.604
3526	247.0 247.0
3527	11.295 11.295
3528	243.0 243.0
3529	13.259 13.259
3530	110.0 110.0
3531	19.219 19.219
3532	92.0 92.0
3533	19.041 19.041
3534	324.0 324.0
3535	16.804 16.804
3536	32.0 32.0
3537	11.92 11.92
3538	288.0 288.0
3539	10.877 10.877
3540	80.0 80.0
3541	12.5 12.5
3542	104.0 104.0
3543	11.489 11.489
3544	106.0 106.0
3545	19.6 19.6
3546	77.0 77.0
3547	14.753 14.753
3548	256.0 256.0
3549	11.811 11.811
3550	263.0 263.0
3551	14.084 14.084
3552	328.0 328.0
3553	15.001 15.001
3554	113.0 113.0
3555	17.996 17.996
3556	163.0 163.0
3557	12.432 12.432
3558	257.0 257.0
3559	16.073 16.073
3560	241.0 241.0
3561	10.595 10.595
3562	315.0 315.0
3563	10.509 10.509
3564	120.0 120.0
3565	18.527 18.527
3566	145.0 145.0
3567	16.333 16.333
3568	188.0 188.0
3569	17.189 17.189
3570	63.0 63.0
3571	29.619 29.619
3572	243.0 243.0
3573	17.868 17.868
3574	313.0 313.0
3575	22.382 22.382
3576	333.0 333.0
3577	22.058 22.058
3578	141.0 141.0
3579	17.299 17.299
3580	261.0 261.0
3581	15.44 15.44
3582	240.0 240.0
3583	17.862 17.862
3584	236.0 236.0
3585	14.086 14.086
3586	136.0 136.0
3587	30.345 30.345
3588	295.0 295.0
3589	39.545 39.545
3590	303.0 303.0
3591	23.382 23.382
3592	145.0 145.0
3593	13.776 13.776
3594	167.0 167.0
3595	12.859 12.859
3596	117.0 117.0
3597	11.709 11.709
3598	278.0 278.0
3599	11.378 11.378
3600	179.0 179.0
3601	14.478 14.478
3602	225.0 225.0
3603	12.713 12.713
3604	143.0 143.0
3605	11.804 11.804
3606	168.0 168.0
3607	10.679 10.679
3608	123.0 123.0
3609	14.909 14.909
3610	43.0 43.0
3611	11.587 11.587
3612	78.0 78.0
3613	19.706 19.706
3614	49.0 49.0
3615	11.403 11.403
3616	52.0 52.0
3617	10.757 10.757
3618	143.0 143.0
3619	14.321 14.321
3620	45.0 45.0
3621	20.725 20.725
3622	52.0 52.0
3623	19.635 19.635
3624	148.0 148.0
3625	14.72 14.72
3626	135.0 135.0
3627	14.967 14.967
3628	336.0 336.0
3629	18.714 18.714
3630	121.0 121.0
3631	11.091 11.091
3632	227.0 227.0
3633	20.733 20.733
3634	151.0 151.0
3635	25.162 25.162
3636	279.0 279.0
3637	15.293 15.293
3638	126.0 126.0
3639	27.085 27.085
3640	109.0 109.0
3641	19.699 19.699
3642	289.0 289.0
3643	22.232 22.232
3644	105.0 105.0
3645	11.186 11.186
3646	24.0 24.0
3647	11.11 11.11
3648	241.0 241.0
3649	11.432 11.432
3650	137.0 137.0
3651	11.312 11.312
3652	228.0 228.0
3653	11.179 11.179
3654	254.0 254.0
3655	10.671 10.671
3656	318.0 318.0
3657	25.919 25.919
3658	197.0 197.0
3659	10.829 10.829
3660	163.0 163.0
3661	11.449 11.449
3662	153.0 153.0
3663	14.345 14.345
3664	96.0 96.0
3665	10.243 10.243
3666	312.0 312.0
3667	10.508 10.508
3668	152.0 152.0
3669	14.489 14.489
3670	274.0 274.0
3671	13.742 13.742
3672	301.0 301.0
3673	210.262 210.262
3674	91.0 91.0
3675	12.036 12.036
3676	300.0 300.0
3677	11.534 11.534
3678	308.0 308.0
3679	16.188 16.188
3680	299.0 299.0
3681	15.001 15.001
3682	92.0 92.0
3683	11.751 11.751
3684	74.0 74.0
3685	18.374 18.374
3686	50.0 50.0
3687	13.204 13.204
3688	120.0 120.0
3689	25.544 25.544
3690	45.0 45.0
3691	18.797 18.797
3692	131.0 131.0
3693	166.625 166.625
3694	320.0 320.0
3695	20.182 20.182
3696	316.0 316.0
3697	18.528 18.528
3698	169.0 169.0
3699	14.799 14.799
3700	300.0 300.0
3701	46.25 46.25
3702	285.0 285.0
3703	17.926 17.926
3704	25.0 25.0
3705	17.726 17.726
3706	162.0 162.0
3707	13.201 13.201
3708	290.0 290.0
3709	11.208 11.208
3710	305.0 305.0
3711	158.064 158.064
3712	242.0 242.0
3713	162.922 162.922
3714	322.0 322.0
3715	35.87 35.87
3716	159.0 159.0
3717	10.836 10.836
3718	86.0 86.0
3719	18.266 18.266
3720	141.0 141.0
3721	12.735 12.735
3722	69.0 69.0
3723	12.998 12.998
3724	305.0 305.0
3725	10.703 10.703
3726	342.0 342.0
3727	130.95 130.95
3728	320.0 320.0
3729	16.24 16.24
3730	116.0 116.0
3731	11.219 11.219
3732	34.0 34.0
3733	12.022 12.022
3734	159.0 159.0
3735	13.604 13.604
3736	53.0 53.0
3737	11.69 11.69
3738	176.0 176.0
3739	10.593 10.593
3740	215.0 215.0
3741	21.098 21.098
3742	211.0 211.0
3743	13.151 13.151
3744	139.0 139.0
3745	42.953 42.953
3746	202.0 202.0
3747	14.634 14.634
3748	55.0 55.0
3749	10.807 10.807
3750	269.0 269.0
3751	11.051 11.051
3752	134.0 134.0
3753	12.3 12.3
3754	321.0 321.0
3755	11.178 11.178
3756	111.0 111.0
3757	11.113 11.113
3758	234.0 234.0
3759	11.074 11.074
3760	105.0 105.0
3761	17.323 17.323
3762	198.0 198.0
3763	16.205 16.205
3764	137.0 137.0
3765	11.77 11.77
3766	249.0 249.0
3767	10.542 10.542
3768	62.0 62.0
3769	12.648 12.648
3770	292.0 292.0
3771	12.203 12.203
3772	193.0 193.0
3773	163.212 163.212
3774	139.0 139.0
3775	15.214 15.214
3776	174.0 174.0
3777	15.328 15.328
3778	324.0 324.0
3779	17.781 17.781
3780	301.0 301.0
3781	15.021 15.021
3782	211.0 211.0
3783	14.333 14.333
3784	50.0 50.0
3785	12.976 12.976
3786	75.0 75.0
3787	14.777 14.777
3788	220.0 220.0
3789	18.624 18.624
3790	157.0 157.0
3791	14.394 14.394
3792	90.0 90.0
3793	38.882 38.882
3794	183.0 183.0
3795	11.465 11.465
3796	97.0 97.0
3797	23.123 23.123
3798	43.0 43.0
3799	13.468 13.468
3800	297.0 297.0
3801	182.79 182.79
3802	281.0 281.0
3803	11.037 11.037
3804	36.0 36.0
3805	16.23 16.23
3806	79.0 79.0
3807	25.719 25.719
3808	197.0 197.0
3809	26.286 26.286
3810	275.0 275.0
3811	10.718 10.718
3812	326.0 326.0
3813	18.427 18.427
3814	131.0 131.0
3815	11.172 11.172
3816	41.0 41.0
3817	11.847 11.847
3818	70.0 70.0
3819	18.641 18.641
3820	93.0 93.0
3821	14.479 14.479
3822	63.0 63.0
3823	11.342 11.342
3824	196.0 196.0
3825	10.872 10.872
3826	90.0 90.0
3827	12.096 12.096
3828	138.0 138.0
3829	13.218 13.218
3830	337.0 337.0
3831	11.472 11.472
3832	138.0 138.0
3833	13.616 13.616
3834	133.0 133.0
3835	31.421 31.421
3836	144.0 144.0
3837	15.656 15.656
3838	115.0 115.0
3839	16.165 16.165
3840	205.0 205.0
3841	16.337 16.337
3842	32.0 32.0
3843	14.433 14.433
3844	57.0 57.0
3845	13.769 13.769
3846	83.0 83.0
3847	13.281 13.281
3848	306.0 306.0
3849	17.055 17.055
3850	273.0 273.0
3851	12.465 12.465
3852	48.0 48.0
3853	15.717 15.717
3854	129.0 129.0
3855	16.679 16.679
3856	106.0 106.0
3857	21.366 21.366
3858	273.0 273.0
3859	19.661 19.661
3860	319.0 319.0
3861	13.374 13.374
3862	99.0 99.0
3863	14.196 14.196
3864	315.0 315.0
3865	114.113 114.113
3866	176.0 176.0
3867	11.11 11.11
3868	84.0 84.0
3869	14.204 14.204
3870	203.0 203.0
3871	14.416 14.416
3872	149.0 149.0
3873	11.086 11.086
3874	285.0 285.0
3875	11.094 11.094
3876	37.0 37.0
3877	13.14 13.14
3878	30.0 30.0
3879	10.832 10.832
3880	241.0 241.0
3881	173.747 173.747
3882	185.0 185.0
3883	59.724 59.724
3884	59.0 59.0
3885	131.236 131.236
3886	142.0 142.0
3887	128.851 128.851
3888	74.0 74.0
3889	13.736 13.736
3890	98.0 98.0
3891	10.997 10.997
3892	232.0 232.0
3893	22.716 22.716
3894	130.0 130.0
3895	14.297 14.297
3896	256.0 256.0
3897	168.792 168.792
3898	182.0 182.0
3899	11.446 11.446
3900	149.0 149.0
3901	10.775 10.775
3902	267.0 267.0
3903	18.403 18.403
3904	212.0 212.0
3905	16.727 16.727
3906	177.0 177.0
3907	26.137 26.137
3908	31.0 31.0
3909	10.653 10.653
3910	174.0 174.0
3911	15.441 15.441
3912	246.0 246.0
3913	19.974 19.974
3914	45.0 45.0
3915	10.405 10.405
3916	192.0 192.0
3917	15.678 15.678
3918	104.0 104.0
3919	14.797 14.797
3920	208.0 208.0
3921	11.213 11.213
3922	114.0 114.0
3923	11.188 11.188
3924	310.0 310.0
3925	95.914 95.914
3926	296.0 296.0
3927	10.871 10.871
3928	40.0 40.0
3929	199.016 199.016
3930	131.0 131.0
3931	32.542 32.542
3932	290.0 290.0
3933	11.101 11.101
3934	235.0 235.0
3935	19.308 19.308
3936	83.0 83.0
3937	12.386 12.386
3938	27.0 27.0
3939	20.433 20.433
3940	81.0 81.0
3941	20.538 20.538
3942	267.0 267.0
3943	11.543 11.543
3944	59.0 59.0
3945	19.31 19.31
3946	322.0 322.0
3947	14.187 14.187
3948	106.0 106.0
3949	15.67 15.67
3950	299.0 299.0
3951	19.107 19.107
3952	28.0 28.0
3953	203.326 203.326
3954	265.0 265.0
3955	184.835 184.835
3956	49.0 49.0
3957	191.669 191.669
3958	201.0 201.0
3959	41.469 41.469
3960	97.0 97.0
3961	11.133 11.133
3962	111.0 111.0
3963	11.263 11.263
3964	75.0 75.0
3965	17.115 17.115
3966	251.0 251.0
3967	11.188 11.188
3968	84.0 84.0
3969	13.717 13.717
3970	142.0 142.0
3971	194.039 194.039
3972	112.0 112.0
3973	20.617 20.617
3974	257.0 257.0
3975	78.938 78.938
3976	38.0 38.0
3977	59.941 59.941
3978	204.0 204.0
3979	179.25 179.25
3980	259.0 259.0
3981	12.47 12.47
3982	167.0 167.0
3983	10.95 10.95
3984	326.0 326.0
3985	11.066 11.066
3986	87.0 87.0
3987	11.271 11.271
3988	225.0 225.0
3989	14.529 14.529
3990	221.0 221.0
3991	10.315 10.315
3992	261.0 261.0
3993	12.279 12.279
3994	131.0 131.0
3995	12.842 12.842
3996	273.0 273.0
3997	12.843 12.843
3998	134.0 134.0
3999	190.528 190.528
4000	212.0 212.0
4001	12.235 12.235
4002	68.0 68.0
4003	204.175 204.175
4004	72.0 72.0
4005	11.962 11.962
4006	125.0 125.0
4007	13.988 13.988
4008	170.0 170.0
4009	203.364 203.364
4010	110.0 110.0
4011	10.438 10.438
4012	130.0 130.0
4013	10.424 10.424
4014	132.0 132.0
4015	12.967 12.967
4016	157.0 157.0
4017	11.586 11.586
4018	205.0 205.0
4019	11.604 11.604
4020	327.0 327.0
4021	13.99 13.99
4022	82.0 82.0
4023	11.483 11.483
4024	313.0 313.0
4025	11.733 11.733
4026	45.0 45.0
4027	12.435 12.435
4028	186.0 186.0
4029	22.079 22.079
4030	234.0 234.0
4031	12.34 12.34
4032	281.0 281.0
4033	11.867 11.867
4034	195.0 195.0
4035	12.239 12.239
4036	43.0 43.0
4037	92.692 92.692
4038	196.0 196.0
4039	13.555 13.555
4040	213.0 213.0
4041	10.791 10.791
4042	212.0 212.0
4043	15.593 15.593
4044	120.0 120.0
4045	15.94 15.94
4046	104.0 104.0
4047	16.874 16.874
4048	255.0 255.0
4049	20.947 20.947
4050	128.0 128.0
4051	129.243 129.243
4052	79.0 79.0
4053	11.205 11.205
4054	35.0 35.0
4055	11.826 11.826
4056	137.0 137.0
4057	20.06 20.06
4058	105.0 105.0
4059	174.098 174.098
4060	170.0 170.0
4061	13.532 13.532
4062	77.0 77.0
4063	15.993 15.993
4064	44.0 44.0
4065	11.149 11.149
4066	211.0 211.0
4067	199.316 199.316
4068	231.0 231.0
4069	201.416 201.416
4070	157.0 157.0
4071	188.918 188.918
4072	338.0 338.0
4073	10.699 10.699
4074	113.0 113.0
4075	14.518 14.518
4076	302.0 302.0
4077	14.024 14.024
4078	124.0 124.0
4079	12.546 12.546
4080	77.0 77.0
4081	12.037 12.037
4082	136.0 136.0
4083	11.273 11.273
4084	151.0 151.0
4085	10.995 10.995
4086	144.0 144.0
4087	15.369 15.369
4088	41.0 41.0
4089	155.182 155.182
4090	321.0 321.0
4091	16.067 16.067
4092	236.0 236.0
4093	11.725 11.725
4094	145.0 145.0
4095	18.497 18.497
4096	199.0 199.0
4097	12.591 12.591
4098	164.0 164.0
4099	13.708 13.708
4100	307.0 307.0
4101	194.128 194.128
4102	293.0 293.0
4103	183.139 183.139
4104	245.0 245.0
4105	193.455 193.455
4106	143.0 143.0
4107	11.717 11.717
4108	250.0 250.0
4109	11.029 11.029
4110	326.0 326.0
4111	11.421 11.421
4112	332.0 332.0
4113	10.901 10.901
4114	256.0 256.0
4115	12.402 12.402
4116	192.0 192.0
4117	11.155 11.155
4118	63.0 63.0
4119	11.36 11.36
4120	45.0 45.0
4121	13.428 13.428
4122	186.0 186.0
4123	14.528 14.528
4124	253.0 253.0
4125	11.642 11.642
4126	100.0 100.0
4127	13.445 13.445
4128	32.0 32.0
4129	12.716 12.716
4130	100.0 100.0
4131	10.808 10.808
4132	169.0 169.0
4133	12.178 12.178
4134	332.0 332.0
4135	11.127 11.127
4136	96.0 96.0
4137	10.479 10.479
4138	159.0 159.0
4139	12.404 12.404
4140	322.0 322.0
4141	11.942 11.942
4142	151.0 151.0
4143	10.993 10.993
4144	115.0 115.0
4145	30.476 30.476
4146	183.0 183.0
4147	199.845 199.845
4148	298.0 298.0
4149	15.146 15.146
4150	286.0 286.0
4151	12.259 12.259
4152	175.0 175.0
4153	210.228 210.228
4154	302.0 302.0
4155	19.426 19.426
4156	158.0 158.0
4157	31.256 31.256
4158	127.0 127.0
4159	18.654 18.654
4160	191.0 191.0
4161	21.554 21.554
4162	102.0 102.0
4163	16.294 16.294
4164	223.0 223.0
4165	170.523 170.523
4166	224.0 224.0
4167	12.17 12.17
4168	124.0 124.0
4169	10.524 10.524
4170	267.0 267.0
4171	13.488 13.488
4172	301.0 301.0
4173	10.375 10.375
4174	172.0 172.0
4175	10.533 10.533
4176	37.0 37.0
4177	10.722 10.722
4178	45.0 45.0
4179	11.171 11.171
4180	184.0 184.0
4181	16.81 16.81
4182	101.0 101.0
4183	11.128 11.128
4184	137.0 137.0
4185	142.759 142.759
4186	274.0 274.0
4187	172.216 172.216
4188	237.0 237.0
4189	14.445 14.445
4190	241.0 241.0
4191	11.276 11.276
4192	236.0 236.0
4193	15.174 15.174
4194	166.0 166.0
4195	11.681 11.681
4196	226.0 226.0
4197	17.596 17.596
4198	291.0 291.0
4199	14.145 14.145
4200	29.0 29.0
4201	16.718 16.718
4202	55.0 55.0
4203	22.275 22.275
4204	303.0 303.0
4205	12.619 12.619
4206	270.0 270.0
4207	45.805 45.805
4208	168.0 168.0
4209	14.494 14.494
4210	276.0 276.0
4211	17.005 17.005
4212	121.0 121.0
4213	20.375 20.375
4214	111.0 111.0
4215	19.343 19.343
4216	176.0 176.0
4217	10.513 10.513
4218	147.0 147.0
4219	15.348 15.348
4220	342.0 342.0
4221	175.325 175.325
4222	302.0 302.0
4223	17.057 17.057
4224	109.0 109.0
4225	180.325 180.325
4226	196.0 196.0
4227	188.276 188.276
4228	99.0 99.0
4229	11.532 11.532
4230	148.0 148.0
4231	10.679 10.679
4232	50.0 50.0
4233	11.839 11.839
4234	324.0 324.0
4235	11.77 11.77
4236	24.0 24.0
4237	15.979 15.979
4238	60.0 60.0
4239	12.708 12.708
4240	267.0 267.0
4241	20.974 20.974
4242	141.0 141.0
4243	20.776 20.776
4244	326.0 326.0
4245	19.217 19.217
4246	301.0 301.0
4247	26.478 26.478
4248	295.0 295.0
4249	23.457 23.457
4250	290.0 290.0
4251	20.206 20.206
4252	176.0 176.0
4253	207.456 207.456
4254	296.0 296.0
4255	15.09 15.09
4256	107.0 107.0
4257	11.494 11.494
4258	294.0 294.0
4259	24.538 24.538
4260	30.0 30.0
4261	34.892 34.892
4262	38.0 38.0
4263	154.607 154.607
4264	143.0 143.0
4265	209.12 209.12
4266	289.0 289.0
4267	126.824 126.824
4268	156.0 156.0
4269	12.091 12.091
4270	157.0 157.0
4271	11.473 11.473
4272	154.0 154.0
4273	164.334 164.334
4274	54.0 54.0
4275	13.768 13.768
4276	322.0 322.0
4277	21.49 21.49
4278	184.0 184.0
4279	12.527 12.527
4280	302.0 302.0
4281	10.978 10.978
4282	322.0 322.0
4283	12.454 12.454
4284	291.0 291.0
4285	17.276 17.276
4286	289.0 289.0
4287	11.086 11.086
4288	292.0 292.0
4289	10.309 10.309
4290	266.0 266.0
4291	22.58 22.58
4292	303.0 303.0
4293	188.204 188.204
4294	306.0 306.0
4295	15.176 15.176
4296	303.0 303.0
4297	21.036 21.036
4298	334.0 334.0
4299	15.434 15.434
4300	33.0 33.0
4301	170.781 170.781
4302	171.0 171.0
4303	82.097 82.097
4304	196.0 196.0
4305	14.406 14.406
4306	75.0 75.0
4307	12.384 12.384
4308	298.0 298.0
4309	11.984 11.984
4310	231.0 231.0
4311	10.218 10.218
4312	97.0 97.0
4313	158.487 158.487
4314	71.0 71.0
4315	14.443 14.443
4316	93.0 93.0
4317	14.396 14.396
4318	261.0 261.0
4319	12.108 12.108
4320	198.0 198.0
4321	12.518 12.518
4322	31.0 31.0
4323	147.242 147.242
4324	107.0 107.0
4325	22.036 22.036
4326	28.0 28.0
4327	15.103 15.103
4328	219.0 219.0
4329	14.77 14.77
4330	241.0 241.0
4331	27.615 27.615
4332	58.0 58.0
4333	11.212 11.212
4334	38.0 38.0
4335	18.399 18.399
4336	138.0 138.0
4337	24.05 24.05
4338	98.0 98.0
4339	16.94 16.94
4340	184.0 184.0
4341	15.505 15.505
4342	247.0 247.0
4343	21.07 21.07
4344	314.0 314.0
4345	11.365 11.365
4346	152.0 152.0
4347	15.515 15.515
4348	144.0 144.0
4349	18.517 18.517
4350	41.0 41.0
4351	14.205 14.205
4352	285.0 285.0
4353	11.634 11.634
4354	298.0 298.0
4355	11.483 11.483
4356	182.0 182.0
4357	11.254 11.254
4358	327.0 327.0
4359	10.592 10.592
4360	83.0 83.0
4361	15.529 15.529
4362	79.0 79.0
4363	10.938 10.938
4364	200.0 200.0
4365	12.793 12.793
4366	93.0 93.0
4367	11.075 11.075
4368	219.0 219.0
4369	12.974 12.974
4370	132.0 132.0
4371	10.322 10.322
4372	163.0 163.0
4373	13.428 13.428
4374	166.0 166.0
4375	12.19 12.19
4376	202.0 202.0
4377	12.289 12.289
4378	53.0 53.0
4379	12.728 12.728
4380	126.0 126.0
4381	18.478 18.478
4382	197.0 197.0
4383	11.73 11.73
4384	321.0 321.0
4385	13.851 13.851
4386	190.0 190.0
4387	11.657 11.657
4388	287.0 287.0
4389	11.942 11.942
4390	210.0 210.0
4391	18.185 18.185
4392	104.0 104.0
4393	13.574 13.574
4394	238.0 238.0
4395	11.315 11.315
4396	329.0 329.0
4397	12.661 12.661
4398	158.0 158.0
4399	11.069 11.069
4400	267.0 267.0
4401	16.354 16.354
4402	143.0 143.0
4403	11.403 11.403
4404	100.0 100.0
4405	16.674 16.674
4406	77.0 77.0
4407	15.567 15.567
4408	317.0 317.0
4409	11.627 11.627
4410	262.0 262.0
4411	14.609 14.609
4412	274.0 274.0
4413	11.405 11.405
4414	53.0 53.0
4415	28.23 28.23
4416	253.0 253.0
4417	18.939 18.939
4418	309.0 309.0
4419	12.728 12.728
4420	297.0 297.0
4421	11.755 11.755
4422	341.0 341.0
4423	178.83 178.83
4424	121.0 121.0
4425	167.435 167.435
4426	308.0 308.0
4427	11.648 11.648
4428	72.0 72.0
4429	13.297 13.297
4430	171.0 171.0
4431	16.344 16.344
4432	70.0 70.0
4433	11.595 11.595
4434	106.0 106.0
4435	11.064 11.064
4436	292.0 292.0
4437	14.02 14.02
4438	228.0 228.0
4439	18.28 18.28
4440	324.0 324.0
4441	14.221 14.221
4442	93.0 93.0
4443	12.736 12.736
4444	336.0 336.0
4445	10.771 10.771
4446	280.0 280.0
4447	11.039 11.039
4448	262.0 262.0
4449	14.117 14.117
4450	334.0 334.0
4451	35.307 35.307
4452	265.0 265.0
4453	16.399 16.399
4454	335.0 335.0
4455	14.99 14.99
4456	258.0 258.0
4457	22.739 22.739
4458	120.0 120.0
4459	175.161 175.161
4460	199.0 199.0
4461	24.734 24.734
4462	246.0 246.0
4463	12.324 12.324
4464	103.0 103.0
4465	10.632 10.632
4466	215.0 215.0
4467	13.291 13.291
4468	324.0 324.0
4469	11.37 11.37
4470	223.0 223.0
4471	13.445 13.445
4472	321.0 321.0
4473	84.498 84.498
4474	142.0 142.0
4475	11.087 11.087
4476	243.0 243.0
4477	159.867 159.867
4478	203.0 203.0
4479	174.204 174.204
4480	319.0 319.0
4481	14.3 14.3
4482	159.0 159.0
4483	16.018 16.018
4484	135.0 135.0
4485	10.942 10.942
4486	96.0 96.0
4487	16.596 16.596
4488	329.0 329.0
4489	15.706 15.706
4490	43.0 43.0
4491	14.103 14.103
4492	91.0 91.0
4493	11.151 11.151
4494	339.0 339.0
4495	13.518 13.518
4496	333.0 333.0
4497	12.147 12.147
4498	322.0 322.0
4499	21.274 21.274
4500	183.0 183.0
4501	13.267 13.267
4502	160.0 160.0
4503	71.475 71.475
4504	142.0 142.0
4505	160.696 160.696
4506	150.0 150.0
4507	157.499 157.499
4508	309.0 309.0
4509	13.499 13.499
4510	328.0 328.0
4511	15.942 15.942
4512	280.0 280.0
4513	12.874 12.874
4514	72.0 72.0
4515	199.176 199.176
4516	85.0 85.0
4517	20.177 20.177
4518	297.0 297.0
4519	117.585 117.585
4520	125.0 125.0
4521	11.612 11.612
4522	78.0 78.0
4523	13.783 13.783
4524	145.0 145.0
4525	22.28 22.28
4526	140.0 140.0
4527	13.544 13.544
4528	149.0 149.0
4529	13.781 13.781
4530	208.0 208.0
4531	16.037 16.037
4532	91.0 91.0
4533	11.514 11.514
4534	166.0 166.0
4535	14.062 14.062
4536	291.0 291.0
4537	52.332 52.332
4538	103.0 103.0
4539	137.943 137.943
4540	87.0 87.0
4541	15.193 15.193
4542	266.0 266.0
4543	10.747 10.747
4544	228.0 228.0
4545	11.617 11.617
4546	57.0 57.0
4547	17.058 17.058
4548	170.0 170.0
4549	20.932 20.932
4550	277.0 277.0
4551	166.066 166.066
4552	98.0 98.0
4553	15.662 15.662
4554	244.0 244.0
4555	16.039 16.039
4556	115.0 115.0
4557	13.109 13.109
4558	233.0 233.0
4559	23.128 23.128
4560	200.0 200.0
4561	24.634 24.634
4562	308.0 308.0
4563	11.688 11.688
4564	299.0 299.0
4565	13.301 13.301
4566	307.0 307.0
4567	11.209 11.209
4568	159.0 159.0
4569	11.948 11.948
4570	197.0 197.0
4571	15.612 15.612
4572	92.0 92.0
4573	12.222 12.222
4574	192.0 192.0
4575	17.887 17.887
4576	240.0 240.0
4577	150.466 150.466
4578	222.0 222.0
4579	181.895 181.895
4580	51.0 51.0
4581	11.532 11.532
4582	304.0 304.0
4583	19.061 19.061
4584	337.0 337.0
4585	12.971 12.971
4586	243.0 243.0
4587	22.434 22.434
4588	100.0 100.0
4589	23.091 23.091
4590	245.0 245.0
4591	16.237 16.237
4592	126.0 126.0
4593	14.128 14.128
4594	95.0 95.0
4595	12.81 12.81
4596	285.0 285.0
4597	16.571 16.571
4598	61.0 61.0
4599	11.169 11.169
4600	114.0 114.0
4601	12.933 12.933
4602	171.0 171.0
4603	15.295 15.295
4604	104.0 104.0
4605	12.76 12.76
4606	53.0 53.0
4607	81.045 81.045
4608	138.0 138.0
4609	195.764 195.764
4610	146.0 146.0
4611	192.254 192.254
4612	39.0 39.0
4613	13.166 13.166
4614	176.0 176.0
4615	13.463 13.463
4616	295.0 295.0
4617	11.029 11.029
4618	93.0 93.0
4619	12.143 12.143
4620	215.0 215.0
4621	15.579 15.579
4622	256.0 256.0
4623	11.183 11.183
4624	203.0 203.0
4625	24.382 24.382
4626	207.0 207.0
4627	14.108 14.108
4628	296.0 296.0
4629	11.59 11.59
4630	50.0 50.0
4631	21.583 21.583
4632	26.0 26.0
4633	15.169 15.169
4634	270.0 270.0
4635	139.225 139.225
4636	283.0 283.0
4637	152.225 152.225
4638	306.0 306.0
4639	162.734 162.734
4640	99.0 99.0
4641	181.329 181.329
4642	37.0 37.0
4643	189.467 189.467
4644	79.0 79.0
4645	135.271 135.271
4646	45.0 45.0
4647	211.392 211.392
4648	47.0 47.0
4649	23.068 23.068
4650	241.0 241.0
4651	13.955 13.955
4652	34.0 34.0
4653	96.96 96.96
4654	95.0 95.0
4655	17.076 17.076
4656	224.0 224.0
4657	16.443 16.443
4658	61.0 61.0
4659	17.373 17.373
4660	113.0 113.0
4661	19.357 19.357
4662	288.0 288.0
4663	12.789 12.789
4664	68.0 68.0
4665	11.246 11.246
4666	112.0 112.0
4667	11.962 11.962
4668	151.0 151.0
4669	12.411 12.411
4670	277.0 277.0
4671	14.437 14.437
4672	44.0 44.0
4673	11.948 11.948
4674	83.0 83.0
4675	11.822 11.822
4676	338.0 338.0
4677	13.358 13.358
4678	262.0 262.0
4679	10.707 10.707
4680	256.0 256.0
4681	14.233 14.233
4682	114.0 114.0
4683	10.355 10.355
4684	34.0 34.0
4685	14.365 14.365
4686	171.0 171.0
4687	27.755 27.755
4688	121.0 121.0
4689	13.941 13.941
4690	74.0 74.0
4691	10.157 10.157
4692	215.0 215.0
4693	14.369 14.369
4694	334.0 334.0
4695	11.305 11.305
4696	167.0 167.0
4697	16.787 16.787
4698	236.0 236.0
4699	11.692 11.692
4700	228.0 228.0
4701	183.855 183.855
4702	333.0 333.0
4703	70.041 70.041
4704	205.0 205.0
4705	22.024 22.024
4706	207.0 207.0
4707	14.77 14.77
4708	286.0 286.0
4709	14.064 14.064
4710	150.0 150.0
4711	181.48 181.48
4712	36.0 36.0
4713	22.034 22.034
4714	119.0 119.0
4715	20.313 20.313
4716	106.0 106.0
4717	11.127 11.127
4718	239.0 239.0
4719	21.524 21.524
4720	323.0 323.0
4721	20.983 20.983
4722	63.0 63.0
4723	12.458 12.458
4724	220.0 220.0
4725	22.004 22.004
4726	51.0 51.0
4727	12.615 12.615
4728	104.0 104.0
4729	13.664 13.664
4730	319.0 319.0
4731	19.221 19.221
4732	117.0 117.0
4733	14.213 14.213
4734	213.0 213.0
4735	11.094 11.094
4736	338.0 338.0
4737	16.639 16.639
4738	329.0 329.0
4739	69.525 69.525
4740	34.0 34.0
4741	10.902 10.902
4742	132.0 132.0
4743	14.533 14.533
4744	166.0 166.0
4745	10.857 10.857
4746	171.0 171.0
4747	10.764 10.764
4748	186.0 186.0
4749	149.29 149.29
4750	247.0 247.0
4751	142.566 142.566
4752	82.0 82.0
4753	123.775 123.775
4754	74.0 74.0
4755	19.345 19.345
4756	209.0 209.0
4757	11.608 11.608
4758	291.0 291.0
4759	18.437 18.437
4760	69.0 69.0
4761	172.661 172.661
4762	87.0 87.0
4763	89.256 89.256
4764	41.0 41.0
4765	20.874 20.874
4766	179.0 179.0
4767	16.343 16.343
4768	121.0 121.0
4769	12.329 12.329
4770	99.0 99.0
4771	17.029 17.029
4772	38.0 38.0
4773	10.759 10.759
4774	42.0 42.0
4775	18.14 18.14
4776	191.0 191.0
4777	15.622 15.622
4778	161.0 161.0
4779	13.18 13.18
4780	223.0 223.0
4781	11.235 11.235
4782	44.0 44.0
4783	13.978 13.978
4784	171.0 171.0
4785	12.706 12.706
4786	220.0 220.0
4787	16.844 16.844
4788	24.0 24.0
4789	12.01 12.01
4790	144.0 144.0
4791	15.655 15.655
4792	144.0 144.0
4793	10.538 10.538
4794	178.0 178.0
4795	11.389 11.389
4796	315.0 315.0
4797	147.831 147.831
4798	130.0 130.0
4799	19.59 19.59
4800	56.0 56.0
4801	10.425 10.425
4802	113.0 113.0
4803	12.393 12.393
4804	214.0 214.0
4805	15.272 15.272
4806	142.0 142.0
4807	12.741 12.741
4808	165.0 165.0
4809	102.185 102.185
4810	183.0 183.0
4811	182.516 182.516
4812	34.0 34.0
4813	11.386 11.386
4814	116.0 116.0
4815	12.367 12.367
4816	139.0 139.0
4817	17.379 17.379
4818	88.0 88.0
4819	11.297 11.297
4820	200.0 200.0
4821	12.446 12.446
4822	254.0 254.0
4823	12.386 12.386
4824	107.0 107.0
4825	12.021 12.021
4826	117.0 117.0
4827	18.677 18.677
4828	84.0 84.0
4829	12.337 12.337
4830	207.0 207.0
4831	10.974 10.974
4832	118.0 118.0
4833	15.47 15.47
4834	129.0 129.0
4835	15.387 15.387
4836	142.0 142.0
4837	21.287 21.287
4838	309.0 309.0
4839	16.983 16.983
4840	135.0 135.0
4841	16.967 16.967
4842	254.0 254.0
4843	12.383 12.383
4844	165.0 165.0
4845	12.449 12.449
4846	58.0 58.0
4847	12.378 12.378
4848	176.0 176.0
4849	10.392 10.392
4850	332.0 332.0
4851	11.724 11.724
4852	335.0 335.0
4853	15.719 15.719
4854	52.0 52.0
4855	12.399 12.399
4856	204.0 204.0
4857	16.959 16.959
4858	300.0 300.0
4859	12.189 12.189
4860	104.0 104.0
4861	13.808 13.808
4862	275.0 275.0
4863	16.348 16.348
4864	37.0 37.0
4865	16.902 16.902
4866	33.0 33.0
4867	14.62 14.62
4868	280.0 280.0
4869	26.272 26.272
4870	35.0 35.0
4871	17.488 17.488
4872	261.0 261.0
4873	13.891 13.891
4874	53.0 53.0
4875	10.658 10.658
4876	141.0 141.0
4877	17.482 17.482
4878	51.0 51.0
4879	10.48 10.48
4880	129.0 129.0
4881	13.339 13.339
4882	310.0 310.0
4883	25.997 25.997
4884	296.0 296.0
4885	11.261 11.261
4886	248.0 248.0
4887	12.098 12.098
4888	329.0 329.0
4889	14.63 14.63
4890	110.0 110.0
4891	18.124 18.124
4892	218.0 218.0
4893	13.368 13.368
4894	179.0 179.0
4895	17.755 17.755
4896	232.0 232.0
4897	29.854 29.854
4898	37.0 37.0
4899	16.601 16.601
4900	112.0 112.0
4901	14.8 14.8
4902	282.0 282.0
4903	14.019 14.019
4904	220.0 220.0
4905	22.801 22.801
4906	221.0 221.0
4907	10.875 10.875
4908	142.0 142.0
4909	20.468 20.468
4910	339.0 339.0
4911	11.823 11.823
4912	254.0 254.0
4913	14.156 14.156
4914	122.0 122.0
4915	12.303 12.303
4916	271.0 271.0
4917	12.34 12.34
4918	146.0 146.0
4919	22.331 22.331
4920	97.0 97.0
4921	16.123 16.123
4922	220.0 220.0
4923	13.567 13.567
4924	101.0 101.0
4925	13.024 13.024
4926	313.0 313.0
4927	24.231 24.231
4928	142.0 142.0
4929	14.029 14.029
4930	25.0 25.0
4931	16.358 16.358
4932	102.0 102.0
4933	22.535 22.535
4934	313.0 313.0
4935	14.743 14.743
4936	155.0 155.0
4937	10.842 10.842
4938	129.0 129.0
4939	12.757 12.757
4940	164.0 164.0
4941	11.376 11.376
4942	96.0 96.0
4943	13.475 13.475
4944	155.0 155.0
4945	12.784 12.784
4946	54.0 54.0
4947	13.572 13.572
4948	335.0 335.0
4949	12.573 12.573
4950	285.0 285.0
4951	11.025 11.025
4952	85.0 85.0
4953	11.837 11.837
4954	233.0 233.0
4955	22.123 22.123
4956	265.0 265.0
4957	13.714 13.714
4958	125.0 125.0
4959	12.728 12.728
4960	266.0 266.0
4961	13.715 13.715
4962	245.0 245.0
4963	11.393 11.393
4964	45.0 45.0
4965	12.086 12.086
4966	291.0 291.0
4967	12.125 12.125
4968	325.0 325.0
4969	11.608 11.608
4970	146.0 146.0
4971	11.227 11.227
4972	65.0 65.0
4973	14.808 14.808
4974	277.0 277.0
4975	11.676 11.676
4976	149.0 149.0
4977	10.438 10.438
4978	334.0 334.0
4979	11.355 11.355
4980	48.0 48.0
4981	10.884 10.884
4982	104.0 104.0
4983	12.434 12.434
4984	219.0 219.0
4985	12.626 12.626
4986	135.0 135.0
4987	15.392 15.392
4988	249.0 249.0
4989	13.736 13.736
4990	263.0 263.0
4991	17.28 17.28
4992	137.0 137.0
4993	15.563 15.563
4994	285.0 285.0
4995	15.766 15.766
4996	75.0 75.0
4997	12.86 12.86
4998	108.0 108.0
4999	17.181 17.181
5000	81.0 81.0
5001	14.59 14.59
5002	223.0 223.0
5003	16.464 16.464
5004	226.0 226.0
5005	11.082 11.082
5006	313.0 313.0
5007	12.831 12.831
5008	281.0 281.0
5009	14.255 14.255
5010	142.0 142.0
5011	27.523 27.523
5012	318.0 318.0
5013	12.19 12.19
5014	270.0 270.0
5015	20.488 20.488
5016	263.0 263.0
5017	13.099 13.099
5018	133.0 133.0
5019	13.049 13.049
5020	99.0 99.0
5021	11.064 11.064
5022	291.0 291.0
5023	11.993 11.993
5024	275.0 275.0
5025	10.428 10.428
5026	190.0 190.0
5027	11.006 11.006
5028	311.0 311.0
5029	14.952 14.952
5030	220.0 220.0
5031	10.716 10.716
5032	129.0 129.0
5033	11.916 11.916
5034	301.0 301.0
5035	11.078 11.078
5036	202.0 202.0
5037	15.697 15.697
5038	114.0 114.0
5039	12.537 12.537
5040	320.0 320.0
5041	15.43 15.43
5042	201.0 201.0
5043	10.58 10.58
5044	210.0 210.0
5045	15.338 15.338
5046	183.0 183.0
5047	16.653 16.653
5048	129.0 129.0
5049	15.643 15.643
5050	141.0 141.0
5051	16.99 16.99
5052	327.0 327.0
5053	13.404 13.404
5054	53.0 53.0
5055	26.773 26.773
5056	123.0 123.0
5057	15.964 15.964
5058	265.0 265.0
5059	19.411 19.411
5060	234.0 234.0
5061	18.475 18.475
5062	297.0 297.0
5063	15.41 15.41
5064	97.0 97.0
5065	23.403 23.403
5066	255.0 255.0
5067	10.927 10.927
5068	313.0 313.0
5069	12.62 12.62
5070	190.0 190.0
5071	14.145 14.145
5072	189.0 189.0
5073	13.867 13.867
5074	72.0 72.0
5075	11.487 11.487
5076	110.0 110.0
5077	11.469 11.469
5078	142.0 142.0
5079	15.008 15.008
5080	138.0 138.0
5081	11.49 11.49
5082	285.0 285.0
5083	16.595 16.595
5084	257.0 257.0
5085	14.219 14.219
5086	303.0 303.0
5087	12.651 12.651
5088	339.0 339.0
5089	17.092 17.092
5090	145.0 145.0
5091	10.494 10.494
5092	141.0 141.0
5093	11.395 11.395
5094	104.0 104.0
5095	18.794 18.794
5096	330.0 330.0
5097	11.819 11.819
5098	74.0 74.0
5099	24.792 24.792
5100	319.0 319.0
5101	14.177 14.177
5102	27.0 27.0
5103	10.414 10.414
5104	82.0 82.0
5105	26.125 26.125
5106	93.0 93.0
5107	11.952 11.952
5108	279.0 279.0
5109	10.925 10.925
5110	258.0 258.0
5111	14.817 14.817
5112	230.0 230.0
5113	10.794 10.794
5114	167.0 167.0
5115	14.737 14.737
5116	78.0 78.0
5117	11.442 11.442
5118	259.0 259.0
5119	15.722 15.722
5120	47.0 47.0
5121	19.295 19.295
5122	149.0 149.0
5123	12.743 12.743
5124	290.0 290.0
5125	10.94 10.94
5126	193.0 193.0
5127	14.317 14.317
5128	154.0 154.0
5129	11.753 11.753
5130	252.0 252.0
5131	11.84 11.84
5132	150.0 150.0
5133	10.663 10.663
5134	320.0 320.0
5135	11.828 11.828
5136	45.0 45.0
5137	13.227 13.227
5138	49.0 49.0
5139	11.701 11.701
5140	283.0 283.0
5141	13.773 13.773
5142	295.0 295.0
5143	11.853 11.853
5144	214.0 214.0
5145	20.618 20.618
5146	149.0 149.0
5147	15.362 15.362
5148	274.0 274.0
5149	14.851 14.851
5150	42.0 42.0
5151	18.101 18.101
5152	267.0 267.0
5153	14.419 14.419
5154	102.0 102.0
5155	21.841 21.841
5156	286.0 286.0
5157	21.429 21.429
5158	89.0 89.0
5159	16.683 16.683
5160	334.0 334.0
5161	14.196 14.196
5162	146.0 146.0
5163	12.304 12.304
5164	277.0 277.0
5165	30.65 30.65
5166	260.0 260.0
5167	14.422 14.422
5168	238.0 238.0
5169	17.069 17.069
5170	152.0 152.0
5171	20.12 20.12
5172	40.0 40.0
5173	12.699 12.699
5174	190.0 190.0
5175	10.62 10.62
5176	31.0 31.0
5177	10.57 10.57
5178	80.0 80.0
5179	20.046 20.046
5180	108.0 108.0
5181	15.024 15.024
5182	329.0 329.0
5183	12.699 12.699
5184	334.0 334.0
5185	10.717 10.717
5186	49.0 49.0
5187	11.354 11.354
5188	204.0 204.0
5189	10.615 10.615
5190	312.0 312.0
5191	13.466 13.466
5192	181.0 181.0
5193	11.103 11.103
5194	117.0 117.0
5195	11.104 11.104
5196	44.0 44.0
5197	10.435 10.435
5198	64.0 64.0
5199	12.542 12.542
5200	172.0 172.0
5201	13.876 13.876
5202	31.0 31.0
5203	11.612 11.612
5204	203.0 203.0
5205	15.646 15.646
5206	190.0 190.0
5207	15.461 15.461
5208	293.0 293.0
5209	14.642 14.642
5210	108.0 108.0
5211	14.193 14.193
5212	189.0 189.0
5213	11.052 11.052
5214	143.0 143.0
5215	14.738 14.738
5216	151.0 151.0
5217	13.868 13.868
5218	306.0 306.0
5219	21.026 21.026
5220	314.0 314.0
5221	20.388 20.388
5222	84.0 84.0
5223	10.836 10.836
5224	148.0 148.0
5225	14.108 14.108
5226	254.0 254.0
5227	19.641 19.641
5228	148.0 148.0
5229	21.428 21.428
5230	277.0 277.0
5231	12.682 12.682
5232	68.0 68.0
5233	12.408 12.408
5234	114.0 114.0
5235	11.05 11.05
5236	152.0 152.0
5237	11.482 11.482
5238	213.0 213.0
5239	10.473 10.473
5240	330.0 330.0
5241	13.693 13.693
5242	78.0 78.0
5243	10.237 10.237
5244	137.0 137.0
5245	14.888 14.888
5246	54.0 54.0
5247	11.824 11.824
5248	333.0 333.0
5249	10.487 10.487
5250	50.0 50.0
5251	10.692 10.692
5252	110.0 110.0
5253	10.944 10.944
5254	83.0 83.0
5255	10.983 10.983
5256	332.0 332.0
5257	11.147 11.147
5258	245.0 245.0
5259	11.163 11.163
5260	315.0 315.0
5261	11.064 11.064
5262	281.0 281.0
5263	13.475 13.475
5264	140.0 140.0
5265	12.995 12.995
5266	136.0 136.0
5267	16.31 16.31
5268	299.0 299.0
5269	18.05 18.05
5270	33.0 33.0
5271	13.422 13.422
5272	81.0 81.0
5273	13.563 13.563
5274	326.0 326.0
5275	14.522 14.522
5276	214.0 214.0
5277	16.724 16.724
5278	266.0 266.0
5279	18.715 18.715
5280	190.0 190.0
5281	16.666 16.666
5282	85.0 85.0
5283	12.796 12.796
5284	233.0 233.0
5285	25.147 25.147
5286	83.0 83.0
5287	10.573 10.573
5288	97.0 97.0
5289	10.487 10.487
5290	311.0 311.0
5291	12.631 12.631
5292	62.0 62.0
5293	10.98 10.98
5294	169.0 169.0
5295	13.862 13.862
5296	47.0 47.0
5297	11.055 11.055
5298	25.0 25.0
5299	12.565 12.565
5300	167.0 167.0
5301	17.645 17.645
5302	77.0 77.0
5303	14.671 14.671
5304	207.0 207.0
5305	11.332 11.332
5306	85.0 85.0
5307	17.271 17.271
5308	211.0 211.0
5309	15.524 15.524
5310	226.0 226.0
5311	11.113 11.113
5312	124.0 124.0
5313	11.158 11.158
5314	43.0 43.0
5315	156.185 156.185
5316	87.0 87.0
5317	19.668 19.668
5318	150.0 150.0
5319	12.983 12.983
5320	121.0 121.0
5321	11.74 11.74
5322	230.0 230.0
5323	11.535 11.535
5324	109.0 109.0
5325	12.458 12.458
5326	305.0 305.0
5327	10.918 10.918
5328	265.0 265.0
5329	14.882 14.882
5330	84.0 84.0
5331	18.548 18.548
5332	278.0 278.0
5333	10.265 10.265
5334	32.0 32.0
5335	10.731 10.731
5336	28.0 28.0
5337	10.877 10.877
5338	181.0 181.0
5339	14.557 14.557
5340	283.0 283.0
5341	11.315 11.315
5342	182.0 182.0
5343	10.622 10.622
5344	293.0 293.0
5345	11.452 11.452
5346	304.0 304.0
5347	13.845 13.845
5348	136.0 136.0
5349	16.895 16.895
5350	307.0 307.0
5351	11.037 11.037
5352	135.0 135.0
5353	10.324 10.324
5354	288.0 288.0
5355	13.849 13.849
5356	89.0 89.0
5357	12.214 12.214
5358	46.0 46.0
5359	11.523 11.523
5360	327.0 327.0
5361	12.666 12.666
5362	184.0 184.0
5363	18.309 18.309
5364	342.0 342.0
5365	25.704 25.704
5366	146.0 146.0
5367	11.254 11.254
5368	303.0 303.0
5369	10.733 10.733
5370	47.0 47.0
5371	14.64 14.64
5372	277.0 277.0
5373	11.197 11.197
5374	108.0 108.0
5375	12.424 12.424
5376	232.0 232.0
5377	11.245 11.245
5378	209.0 209.0
5379	17.057 17.057
5380	58.0 58.0
5381	17.363 17.363
5382	270.0 270.0
5383	21.756 21.756
5384	325.0 325.0
5385	16.052 16.052
5386	176.0 176.0
5387	17.157 17.157
5388	236.0 236.0
5389	27.475 27.475
5390	271.0 271.0
5391	18.106 18.106
5392	162.0 162.0
5393	22.704 22.704
5394	303.0 303.0
5395	15.118 15.118
5396	101.0 101.0
5397	14.119 14.119
5398	29.0 29.0
5399	14.967 14.967
5400	304.0 304.0
5401	11.562 11.562
5402	26.0 26.0
5403	15.129 15.129
5404	156.0 156.0
5405	15.247 15.247
5406	327.0 327.0
5407	10.983 10.983
5408	78.0 78.0
5409	11.089 11.089
5410	244.0 244.0
5411	22.064 22.064
5412	315.0 315.0
5413	12.242 12.242
5414	142.0 142.0
5415	10.697 10.697
5416	148.0 148.0
5417	11.076 11.076
5418	164.0 164.0
5419	10.67 10.67
5420	339.0 339.0
5421	11.099 11.099
5422	306.0 306.0
5423	10.621 10.621
5424	98.0 98.0
5425	11.156 11.156
5426	285.0 285.0
5427	12.273 12.273
5428	79.0 79.0
5429	10.792 10.792
5430	178.0 178.0
5431	15.066 15.066
5432	193.0 193.0
5433	10.648 10.648
5434	248.0 248.0
5435	12.628 12.628
5436	61.0 61.0
5437	10.47 10.47
5438	42.0 42.0
5439	12.08 12.08
5440	237.0 237.0
5441	10.733 10.733
5442	164.0 164.0
5443	13.06 13.06
5444	91.0 91.0
5445	14.966 14.966
5446	285.0 285.0
5447	13.087 13.087
5448	117.0 117.0
5449	10.47 10.47
5450	240.0 240.0
5451	13.163 13.163
5452	38.0 38.0
5453	14.911 14.911
5454	163.0 163.0
5455	10.818 10.818
5456	44.0 44.0
5457	12.211 12.211
5458	304.0 304.0
5459	11.401 11.401
5460	317.0 317.0
5461	10.782 10.782
5462	274.0 274.0
5463	14.386 14.386
5464	227.0 227.0
5465	11.206 11.206
5466	72.0 72.0
5467	10.543 10.543
5468	52.0 52.0
5469	11.528 11.528
5470	193.0 193.0
5471	11.813 11.813
5472	301.0 301.0
