,Client,EE-Mean F1
0,dataset_00.csv,0.9625
1,dataset_01.csv,0.981203008
2,dataset_02.csv,0.875739645
3,dataset_03.csv,0.997811816
4,dataset_04.csv,0.981651376
5,dataset_05.csv,0.12749004
6,dataset_06.csv,0.972527473
7,dataset_07.csv,0.261363636
8,dataset_08.csv,0.977578475
9,dataset_09.csv,0.22745098
10,dataset_10.csv,0.871331828
11,dataset_11.csv,0.927835052
12,dataset_12.csv,0.992736077
13,dataset_13.csv,0.987212276
14,dataset_14.csv,0.242811502
15,dataset_15.csv,0.194552529
16,dataset_16.csv,0.208835341
17,dataset_17.csv,0.983263598
18,dataset_18.csv,0.993548387
19,dataset_19.csv,0.88966725
20,dataset_20.csv,0.984924623
21,dataset_21.csv,0.978902954
22,dataset_22.csv,0.970521542
23,dataset_23.csv,0.286486486
24,dataset_24.csv,0.989090909
25,dataset_25.csv,0.967409949
26,dataset_26.csv,0.169154229
27,dataset_27.csv,0.168421053