1	31.706 31.706
2	188.0 188.0
3	33.393 33.393
4	144.0 144.0
5	32.188 32.188
6	196.0 196.0
7	33.88 33.88
8	82.0 82.0
9	30.188 30.188
10	52.0 52.0
11	31.864 31.864
12	121.0 121.0
13	28.897 28.897
14	58.0 58.0
15	27.114 27.114
16	251.0 251.0
17	27.713 27.713
18	205.0 205.0
19	31.698 31.698
20	58.0 58.0
21	34.623 34.623
22	125.0 125.0
23	26.37 26.37
24	281.0 281.0
25	25.687 25.687
26	275.0 275.0
27	31.92 31.92
28	81.0 81.0
29	26.166 26.166
30	289.0 289.0
31	31.748 31.748
32	130.0 130.0
33	32.504 32.504
34	258.0 258.0
35	32.614 32.614
36	231.0 231.0
37	24.097 24.097
38	284.0 284.0
39	26.344 26.344
40	195.0 195.0
41	24.797 24.797
42	264.0 264.0
43	24.706 24.706
44	199.0 199.0
45	26.987 26.987
46	50.0 50.0
47	24.717 24.717
48	186.0 186.0
49	25.57 25.57
50	251.0 251.0
51	24.494 24.494
52	214.0 214.0
53	25.388 25.388
54	60.0 60.0
55	27.781 27.781
56	277.0 277.0
57	23.803 23.803
58	76.0 76.0
59	31.893 31.893
60	261.0 261.0
61	24.695 24.695
62	264.0 264.0
63	24.238 24.238
64	164.0 164.0
65	25.134 25.134
66	98.0 98.0
67	26.681 26.681
68	183.0 183.0
69	25.456 25.456
70	260.0 260.0
71	26.407 26.407
72	283.0 283.0
73	26.443 26.443
74	57.0 57.0
75	27.922 27.922
76	301.0 301.0
77	26.319 26.319
78	97.0 97.0
79	27.659 27.659
80	144.0 144.0
81	26.941 26.941
82	234.0 234.0
83	35.183 35.183
84	123.0 123.0
85	24.464 24.464
86	95.0 95.0
87	26.996 26.996
88	178.0 178.0
89	23.703 23.703
90	89.0 89.0
91	29.419 29.419
92	292.0 292.0
93	30.38 30.38
94	120.0 120.0
95	29.424 29.424
96	171.0 171.0
97	31.133 31.133
98	271.0 271.0
99	26.887 26.887
100	82.0 82.0
101	28.225 28.225
102	126.0 126.0
103	24.686 24.686
104	233.0 233.0
105	28.902 28.902
106	155.0 155.0
107	29.541 29.541
108	130.0 130.0
109	32.544 32.544
110	198.0 198.0
111	26.544 26.544
112	55.0 55.0
113	33.291 33.291
114	66.0 66.0
115	31.524 31.524
116	300.0 300.0
117	32.498 32.498
118	122.0 122.0
119	33.254 33.254
120	124.0 124.0
121	26.442 26.442
122	144.0 144.0
123	33.596 33.596
124	88.0 88.0
125	32.295 32.295
126	44.0 44.0
127	24.31 24.31
128	260.0 260.0
129	32.276 32.276
130	199.0 199.0
131	24.338 24.338
132	123.0 123.0
133	24.793 24.793
134	230.0 230.0
135	26.741 26.741
136	233.0 233.0
137	27.18 27.18
138	215.0 215.0
139	27.168 27.168
140	235.0 235.0
141	26.661 26.661
142	90.0 90.0
143	27.252 27.252
144	252.0 252.0
145	26.783 26.783
146	62.0 62.0
147	26.916 26.916
148	213.0 213.0
149	26.549 26.549
150	145.0 145.0
151	26.898 26.898
152	181.0 181.0
153	26.983 26.983
154	130.0 130.0
155	27.803 27.803
156	172.0 172.0
157	35.518 35.518
158	225.0 225.0
159	30.312 30.312
160	97.0 97.0
161	27.392 27.392
162	294.0 294.0
163	26.817 26.817
164	84.0 84.0
165	24.857 24.857
166	281.0 281.0
167	26.682 26.682
168	49.0 49.0
169	28.671 28.671
170	99.0 99.0
171	27.021 27.021
172	258.0 258.0
173	28.089 28.089
174	82.0 82.0
175	302.361 302.361
176	142.0 142.0
177	26.607 26.607
178	273.0 273.0
179	28.669 28.669
180	64.0 64.0
181	31.295 31.295
182	112.0 112.0
183	27.963 27.963
184	261.0 261.0
185	24.47 24.47
186	206.0 206.0
187	33.34 33.34
188	295.0 295.0
189	30.556 30.556
190	197.0 197.0
191	28.133 28.133
192	252.0 252.0
193	29.196 29.196
194	293.0 293.0
195	38.047 38.047
196	173.0 173.0
197	28.22 28.22
198	263.0 263.0
199	27.906 27.906
200	52.0 52.0
201	37.161 37.161
202	237.0 237.0
203	27.253 27.253
204	240.0 240.0
205	35.304 35.304
206	298.0 298.0
207	31.582 31.582
208	152.0 152.0
209	29.548 29.548
210	209.0 209.0
211	26.387 26.387
212	136.0 136.0
213	26.962 26.962
214	216.0 216.0
215	28.804 28.804
216	155.0 155.0
217	28.651 28.651
218	104.0 104.0
219	38.406 38.406
220	140.0 140.0
221	36.007 36.007
222	237.0 237.0
223	27.132 27.132
224	121.0 121.0
225	33.371 33.371
226	275.0 275.0
227	26.02 26.02
228	113.0 113.0
229	25.871 25.871
230	184.0 184.0
231	24.604 24.604
232	110.0 110.0
233	24.447 24.447
234	221.0 221.0
235	24.949 24.949
236	251.0 251.0
237	28.022 28.022
238	289.0 289.0
239	28.652 28.652
240	132.0 132.0
241	23.807 23.807
242	252.0 252.0
243	27.66 27.66
244	175.0 175.0
245	24.79 24.79
246	255.0 255.0
247	24.185 24.185
248	251.0 251.0
249	24.02 24.02
250	273.0 273.0
251	25.081 25.081
252	283.0 283.0
253	26.342 26.342
254	85.0 85.0
255	24.156 24.156
256	51.0 51.0
257	23.795 23.795
258	175.0 175.0
259	24.413 24.413
260	111.0 111.0
261	23.662 23.662
262	44.0 44.0
263	24.066 24.066
264	73.0 73.0
265	24.305 24.305
266	192.0 192.0
267	23.969 23.969
268	56.0 56.0
269	24.141 24.141
270	292.0 292.0
271	24.559 24.559
272	151.0 151.0
273	24.388 24.388
274	58.0 58.0
275	23.924 23.924
276	94.0 94.0
277	24.476 24.476
278	148.0 148.0
279	25.44 25.44
280	239.0 239.0
281	24.382 24.382
282	59.0 59.0
283	23.66 23.66
284	134.0 134.0
285	24.098 24.098
286	70.0 70.0
287	23.912 23.912
288	270.0 270.0
289	23.854 23.854
290	214.0 214.0
291	26.58 26.58
292	83.0 83.0
293	29.292 29.292
294	213.0 213.0
295	33.754 33.754
296	101.0 101.0
297	32.574 32.574
298	265.0 265.0
299	27.381 27.381
300	61.0 61.0
301	28.54 28.54
302	294.0 294.0
303	36.022 36.022
304	222.0 222.0
305	26.366 26.366
306	250.0 250.0
307	45.329 45.329
308	109.0 109.0
309	27.393 27.393
310	90.0 90.0
311	33.693 33.693
312	180.0 180.0
313	34.968 34.968
314	227.0 227.0
315	27.251 27.251
316	79.0 79.0
317	33.92 33.92
318	141.0 141.0
319	27.3 27.3
320	208.0 208.0
321	24.009 24.009
322	52.0 52.0
323	30.657 30.657
324	243.0 243.0
325	23.735 23.735
326	43.0 43.0
327	25.609 25.609
328	191.0 191.0
329	24.07 24.07
330	171.0 171.0
331	24.822 24.822
332	97.0 97.0
333	30.39 30.39
334	226.0 226.0
335	23.867 23.867
336	247.0 247.0
337	24.786 24.786
338	53.0 53.0
339	32.565 32.565
340	291.0 291.0
341	26.187 26.187
342	52.0 52.0
343	24.696 24.696
344	285.0 285.0
345	26.161 26.161
346	233.0 233.0
347	24.867 24.867
348	262.0 262.0
349	24.522 24.522
350	55.0 55.0
351	23.68 23.68
352	129.0 129.0
353	25.104 25.104
354	112.0 112.0
355	24.93 24.93
356	282.0 282.0
357	24.823 24.823
358	156.0 156.0
359	38.055 38.055
360	90.0 90.0
361	29.015 29.015
362	59.0 59.0
363	24.673 24.673
364	158.0 158.0
365	26.481 26.481
366	281.0 281.0
367	28.759 28.759
368	276.0 276.0
369	31.429 31.429
370	143.0 143.0
371	31.557 31.557
372	105.0 105.0
373	30.957 30.957
374	274.0 274.0
375	25.476 25.476
376	296.0 296.0
377	28.313 28.313
378	68.0 68.0
379	29.988 29.988
380	136.0 136.0
381	32.652 32.652
382	220.0 220.0
383	31.141 31.141
384	113.0 113.0
385	29.027 29.027
386	260.0 260.0
387	29.441 29.441
388	214.0 214.0
389	35.998 35.998
390	226.0 226.0
391	29.282 29.282
392	301.0 301.0
393	35.747 35.747
394	214.0 214.0
395	32.896 32.896
396	141.0 141.0
397	33.036 33.036
398	291.0 291.0
399	33.124 33.124
400	241.0 241.0
401	26.852 26.852
402	156.0 156.0
403	35.303 35.303
404	146.0 146.0
405	34.816 34.816
406	175.0 175.0
407	27.951 27.951
408	218.0 218.0
409	27.96 27.96
410	186.0 186.0
411	25.352 25.352
412	213.0 213.0
413	36.97 36.97
414	91.0 91.0
415	28.773 28.773
416	235.0 235.0
417	25.328 25.328
418	109.0 109.0
419	26.654 26.654
420	83.0 83.0
421	27.732 27.732
422	125.0 125.0
423	27.3 27.3
424	122.0 122.0
425	24.446 24.446
426	188.0 188.0
427	28.129 28.129
428	80.0 80.0
429	28.587 28.587
430	171.0 171.0
431	26.58 26.58
432	288.0 288.0
433	28.879 28.879
434	290.0 290.0
435	23.926 23.926
436	217.0 217.0
437	26.278 26.278
438	229.0 229.0
439	28.943 28.943
440	73.0 73.0
441	30.999 30.999
442	136.0 136.0
443	25.728 25.728
444	105.0 105.0
445	26.837 26.837
446	249.0 249.0
447	31.115 31.115
448	230.0 230.0
449	32.355 32.355
450	150.0 150.0
451	30.661 30.661
452	54.0 54.0
453	25.869 25.869
454	204.0 204.0
455	23.937 23.937
456	54.0 54.0
457	24.038 24.038
458	182.0 182.0
459	26.251 26.251
460	243.0 243.0
461	24.609 24.609
462	290.0 290.0
463	27.544 27.544
464	147.0 147.0
465	26.245 26.245
466	229.0 229.0
467	29.17 29.17
468	68.0 68.0
469	36.092 36.092
470	99.0 99.0
471	26.128 26.128
472	176.0 176.0
473	37.857 37.857
474	251.0 251.0
475	25.894 25.894
476	127.0 127.0
477	30.709 30.709
478	293.0 293.0
479	27.411 27.411
480	133.0 133.0
481	27.766 27.766
482	139.0 139.0
483	27.194 27.194
484	55.0 55.0
485	35.037 35.037
486	47.0 47.0
487	27.662 27.662
488	239.0 239.0
489	30.428 30.428
490	301.0 301.0
491	28.634 28.634
492	141.0 141.0
493	26.251 26.251
494	37.0 37.0
495	23.354 23.354
496	239.0 239.0
497	25.54 25.54
498	147.0 147.0
499	24.097 24.097
500	286.0 286.0
501	28.901 28.901
502	59.0 59.0
503	27.965 27.965
504	45.0 45.0
505	26.249 26.249
506	170.0 170.0
507	24.942 24.942
508	90.0 90.0
509	25.631 25.631
510	293.0 293.0
511	27.637 27.637
512	177.0 177.0
513	24.82 24.82
514	282.0 282.0
515	24.566 24.566
516	261.0 261.0
517	28.522 28.522
518	111.0 111.0
519	26.824 26.824
520	244.0 244.0
521	23.815 23.815
522	281.0 281.0
523	24.382 24.382
524	167.0 167.0
525	24.427 24.427
526	52.0 52.0
527	28.353 28.353
528	196.0 196.0
529	23.948 23.948
530	245.0 245.0
531	25.203 25.203
532	212.0 212.0
533	23.92 23.92
534	183.0 183.0
535	25.966 25.966
536	181.0 181.0
537	23.906 23.906
538	291.0 291.0
539	24.496 24.496
540	210.0 210.0
541	29.197 29.197
542	69.0 69.0
543	33.369 33.369
544	243.0 243.0
545	27.836 27.836
546	193.0 193.0
547	25.894 25.894
548	231.0 231.0
549	36.433 36.433
550	263.0 263.0
551	37.626 37.626
552	222.0 222.0
553	29.174 29.174
554	280.0 280.0
555	46.535 46.535
556	139.0 139.0
557	35.583 35.583
558	263.0 263.0
559	24.314 24.314
560	136.0 136.0
561	24.509 24.509
562	131.0 131.0
563	24.82 24.82
564	260.0 260.0
565	31.041 31.041
566	99.0 99.0
567	26.203 26.203
568	246.0 246.0
569	29.534 29.534
570	272.0 272.0
571	27.41 27.41
572	123.0 123.0
573	28.47 28.47
574	279.0 279.0
575	28.477 28.477
576	262.0 262.0
577	26.562 26.562
578	80.0 80.0
579	24.426 24.426
580	85.0 85.0
581	28.555 28.555
582	116.0 116.0
583	29.796 29.796
584	93.0 93.0
585	25.228 25.228
586	152.0 152.0
587	29.44 29.44
588	125.0 125.0
589	31.41 31.41
590	265.0 265.0
591	25.866 25.866
592	212.0 212.0
593	25.159 25.159
594	281.0 281.0
595	28.739 28.739
596	158.0 158.0
597	29.3 29.3
598	163.0 163.0
599	27.312 27.312
600	132.0 132.0
601	29.492 29.492
602	287.0 287.0
603	29.619 29.619
604	150.0 150.0
605	29.658 29.658
606	137.0 137.0
607	36.874 36.874
608	223.0 223.0
609	28.828 28.828
610	139.0 139.0
611	31.013 31.013
612	179.0 179.0
613	31.643 31.643
614	220.0 220.0
615	29.246 29.246
616	115.0 115.0
617	29.251 29.251
618	96.0 96.0
619	28.341 28.341
620	193.0 193.0
621	34.988 34.988
622	226.0 226.0
623	33.34 33.34
624	154.0 154.0
625	25.183 25.183
626	191.0 191.0
627	32.751 32.751
628	263.0 263.0
629	32.907 32.907
630	285.0 285.0
631	25.129 25.129
632	261.0 261.0
633	27.0 27.0
634	146.0 146.0
635	25.992 25.992
636	233.0 233.0
637	33.707 33.707
638	84.0 84.0
639	35.175 35.175
640	222.0 222.0
641	27.337 27.337
642	146.0 146.0
643	26.986 26.986
644	268.0 268.0
645	25.052 25.052
646	266.0 266.0
647	31.883 31.883
648	205.0 205.0
649	33.144 33.144
650	66.0 66.0
651	26.476 26.476
652	249.0 249.0
653	29.176 29.176
654	204.0 204.0
655	26.234 26.234
656	133.0 133.0
657	26.415 26.415
658	126.0 126.0
659	33.599 33.599
660	37.0 37.0
661	26.06 26.06
662	224.0 224.0
663	28.399 28.399
664	38.0 38.0
665	24.023 24.023
666	209.0 209.0
667	24.066 24.066
668	116.0 116.0
669	33.692 33.692
670	173.0 173.0
671	25.866 25.866
672	203.0 203.0
673	28.806 28.806
674	91.0 91.0
675	26.359 26.359
676	115.0 115.0
677	26.862 26.862
678	296.0 296.0
679	27.826 27.826
680	269.0 269.0
681	26.435 26.435
682	159.0 159.0
683	29.411 29.411
684	47.0 47.0
685	27.211 27.211
686	58.0 58.0
687	28.618 28.618
688	229.0 229.0
689	34.296 34.296
690	90.0 90.0
691	30.557 30.557
692	39.0 39.0
693	31.942 31.942
694	250.0 250.0
695	33.96 33.96
696	221.0 221.0
697	26.457 26.457
698	48.0 48.0
699	26.853 26.853
700	160.0 160.0
701	25.992 25.992
702	230.0 230.0
703	25.243 25.243
704	44.0 44.0
705	25.143 25.143
706	117.0 117.0
707	28.519 28.519
708	229.0 229.0
709	31.973 31.973
710	157.0 157.0
711	36.894 36.894
712	71.0 71.0
713	37.494 37.494
714	159.0 159.0
715	33.498 33.498
716	162.0 162.0
717	27.783 27.783
718	54.0 54.0
719	35.641 35.641
720	106.0 106.0
721	29.58 29.58
722	70.0 70.0
723	24.491 24.491
724	48.0 48.0
725	24.31 24.31
726	96.0 96.0
727	24.602 24.602
728	164.0 164.0
729	24.688 24.688
730	52.0 52.0
731	24.582 24.582
732	243.0 243.0
733	25.249 25.249
734	270.0 270.0
735	28.199 28.199
736	97.0 97.0
737	24.152 24.152
738	52.0 52.0
739	24.541 24.541
740	222.0 222.0
741	26.98 26.98
742	47.0 47.0
743	25.69 25.69
744	248.0 248.0
745	28.396 28.396
746	197.0 197.0
747	24.025 24.025
748	122.0 122.0
749	24.008 24.008
750	197.0 197.0
751	24.419 24.419
752	137.0 137.0
753	30.079 30.079
754	134.0 134.0
755	24.427 24.427
756	179.0 179.0
757	32.893 32.893
758	152.0 152.0
759	28.504 28.504
760	256.0 256.0
761	33.052 33.052
762	68.0 68.0
763	28.688 28.688
764	136.0 136.0
765	23.704 23.704
766	124.0 124.0
767	28.95 28.95
768	167.0 167.0
769	23.919 23.919
770	178.0 178.0
771	28.287 28.287
772	283.0 283.0
773	24.575 24.575
774	131.0 131.0
775	28.072 28.072
776	70.0 70.0
777	23.836 23.836
778	259.0 259.0
779	30.153 30.153
780	72.0 72.0
781	27.366 27.366
782	199.0 199.0
783	29.319 29.319
784	68.0 68.0
785	28.188 28.188
786	37.0 37.0
787	28.307 28.307
788	268.0 268.0
789	29.387 29.387
790	111.0 111.0
791	24.635 24.635
792	189.0 189.0
793	24.708 24.708
794	161.0 161.0
795	25.461 25.461
796	227.0 227.0
797	32.789 32.789
798	249.0 249.0
799	24.142 24.142
800	112.0 112.0
801	28.404 28.404
802	88.0 88.0
803	25.531 25.531
804	241.0 241.0
805	30.786 30.786
806	231.0 231.0
807	34.921 34.921
808	203.0 203.0
809	26.61 26.61
810	88.0 88.0
811	27.584 27.584
812	86.0 86.0
813	27.903 27.903
814	104.0 104.0
815	31.096 31.096
816	77.0 77.0
817	39.382 39.382
818	290.0 290.0
819	25.703 25.703
820	107.0 107.0
821	29.077 29.077
822	103.0 103.0
823	27.639 27.639
824	82.0 82.0
825	25.012 25.012
826	77.0 77.0
827	24.706 24.706
828	241.0 241.0
829	23.754 23.754
830	205.0 205.0
831	24.842 24.842
832	210.0 210.0
833	27.029 27.029
834	295.0 295.0
835	24.195 24.195
836	66.0 66.0
837	27.74 27.74
838	139.0 139.0
839	23.961 23.961
840	294.0 294.0
841	26.664 26.664
842	301.0 301.0
843	24.239 24.239
844	94.0 94.0
845	28.186 28.186
846	40.0 40.0
847	27.112 27.112
848	121.0 121.0
849	27.359 27.359
850	50.0 50.0
851	25.772 25.772
852	247.0 247.0
853	29.291 29.291
854	244.0 244.0
855	30.384 30.384
856	110.0 110.0
857	28.385 28.385
858	102.0 102.0
859	31.691 31.691
860	101.0 101.0
861	34.699 34.699
862	301.0 301.0
863	24.563 24.563
864	75.0 75.0
865	29.331 29.331
866	100.0 100.0
867	25.72 25.72
868	159.0 159.0
869	25.935 25.935
870	270.0 270.0
871	27.431 27.431
872	246.0 246.0
873	24.337 24.337
874	142.0 142.0
875	32.734 32.734
876	275.0 275.0
877	31.544 31.544
878	213.0 213.0
879	28.025 28.025
880	109.0 109.0
881	28.184 28.184
882	241.0 241.0
883	38.701 38.701
884	96.0 96.0
885	27.544 27.544
886	97.0 97.0
887	28.685 28.685
888	80.0 80.0
889	27.304 27.304
890	215.0 215.0
891	35.772 35.772
892	69.0 69.0
893	24.09 24.09
894	174.0 174.0
895	24.986 24.986
896	282.0 282.0
897	28.373 28.373
898	296.0 296.0
899	27.747 27.747
900	200.0 200.0
901	27.072 27.072
902	46.0 46.0
903	24.941 24.941
904	249.0 249.0
905	24.803 24.803
906	202.0 202.0
907	26.295 26.295
908	210.0 210.0
909	27.839 27.839
910	231.0 231.0
911	24.875 24.875
912	65.0 65.0
913	25.22 25.22
914	137.0 137.0
915	27.11 27.11
916	224.0 224.0
917	23.875 23.875
918	223.0 223.0
919	23.789 23.789
920	169.0 169.0
921	24.962 24.962
922	39.0 39.0
923	34.09 34.09
924	76.0 76.0
925	26.102 26.102
926	280.0 280.0
927	37.771 37.771
928	44.0 44.0
929	27.491 27.491
930	144.0 144.0
931	26.965 26.965
932	220.0 220.0
933	27.493 27.493
934	120.0 120.0
935	28.946 28.946
936	282.0 282.0
937	28.443 28.443
938	298.0 298.0
939	25.885 25.885
940	110.0 110.0
941	35.504 35.504
942	89.0 89.0
943	28.802 28.802
944	97.0 97.0
945	28.855 28.855
946	232.0 232.0
947	24.095 24.095
948	49.0 49.0
949	25.127 25.127
950	231.0 231.0
951	28.604 28.604
952	255.0 255.0
953	29.17 29.17
954	209.0 209.0
955	27.982 27.982
956	92.0 92.0
957	28.018 28.018
958	59.0 59.0
959	25.574 25.574
960	75.0 75.0
961	25.639 25.639
962	133.0 133.0
963	27.765 27.765
964	178.0 178.0
965	28.622 28.622
966	272.0 272.0
967	25.308 25.308
968	152.0 152.0
969	29.393 29.393
970	129.0 129.0
971	26.22 26.22
972	158.0 158.0
973	28.583 28.583
974	235.0 235.0
975	27.303 27.303
976	278.0 278.0
977	28.007 28.007
978	129.0 129.0
979	27.527 27.527
980	116.0 116.0
981	26.873 26.873
982	56.0 56.0
983	34.555 34.555
984	158.0 158.0
985	26.872 26.872
986	183.0 183.0
987	31.448 31.448
988	98.0 98.0
989	23.558 23.558
990	40.0 40.0
991	27.764 27.764
992	88.0 88.0
993	27.997 27.997
994	134.0 134.0
995	35.033 35.033
996	66.0 66.0
997	30.082 30.082
998	273.0 273.0
999	28.386 28.386
1000	223.0 223.0
1001	25.653 25.653
1002	202.0 202.0
1003	24.624 24.624
1004	259.0 259.0
1005	28.505 28.505
1006	262.0 262.0
1007	30.687 30.687
1008	246.0 246.0
1009	33.313 33.313
1010	170.0 170.0
1011	28.023 28.023
1012	279.0 279.0
1013	29.139 29.139
1014	295.0 295.0
1015	27.324 27.324
1016	151.0 151.0
1017	26.832 26.832
1018	215.0 215.0
1019	26.526 26.526
1020	62.0 62.0
1021	24.055 24.055
1022	242.0 242.0
1023	26.983 26.983
1024	224.0 224.0
1025	29.818 29.818
1026	124.0 124.0
1027	26.485 26.485
1028	185.0 185.0
1029	29.088 29.088
1030	132.0 132.0
1031	26.429 26.429
1032	292.0 292.0
1033	27.322 27.322
1034	117.0 117.0
1035	31.054 31.054
1036	98.0 98.0
1037	27.22 27.22
1038	183.0 183.0
1039	26.478 26.478
1040	267.0 267.0
1041	26.463 26.463
1042	147.0 147.0
1043	30.518 30.518
1044	169.0 169.0
1045	26.31 26.31
1046	230.0 230.0
1047	24.911 24.911
1048	45.0 45.0
1049	26.671 26.671
1050	205.0 205.0
1051	27.175 27.175
1052	189.0 189.0
1053	28.399 28.399
1054	152.0 152.0
1055	26.12 26.12
1056	120.0 120.0
1057	26.414 26.414
1058	91.0 91.0
1059	36.336 36.336
1060	79.0 79.0
1061	27.911 27.911
1062	89.0 89.0
1063	36.839 36.839
1064	70.0 70.0
1065	35.07 35.07
1066	268.0 268.0
1067	28.603 28.603
1068	84.0 84.0
1069	28.623 28.623
1070	57.0 57.0
1071	27.867 27.867
1072	280.0 280.0
1073	27.253 27.253
1074	103.0 103.0
1075	27.226 27.226
1076	262.0 262.0
1077	26.566 26.566
1078	104.0 104.0
1079	29.05 29.05
1080	109.0 109.0
1081	26.654 26.654
1082	74.0 74.0
1083	25.732 25.732
1084	179.0 179.0
1085	28.555 28.555
1086	46.0 46.0
1087	24.244 24.244
1088	280.0 280.0
1089	31.482 31.482
1090	175.0 175.0
1091	24.429 24.429
1092	131.0 131.0
1093	25.566 25.566
1094	151.0 151.0
1095	31.793 31.793
1096	93.0 93.0
1097	29.925 29.925
1098	232.0 232.0
1099	29.836 29.836
1100	143.0 143.0
1101	24.776 24.776
1102	281.0 281.0
1103	31.275 31.275
1104	76.0 76.0
1105	32.224 32.224
1106	43.0 43.0
1107	30.289 30.289
1108	183.0 183.0
1109	26.695 26.695
1110	300.0 300.0
1111	23.618 23.618
1112	238.0 238.0
1113	26.644 26.644
1114	200.0 200.0
1115	29.252 29.252
1116	205.0 205.0
1117	29.365 29.365
1118	79.0 79.0
1119	25.268 25.268
1120	90.0 90.0
1121	35.56 35.56
1122	257.0 257.0
1123	28.659 28.659
1124	283.0 283.0
1125	31.346 31.346
1126	250.0 250.0
1127	28.49 28.49
1128	186.0 186.0
1129	33.431 33.431
1130	252.0 252.0
1131	27.816 27.816
1132	189.0 189.0
1133	24.485 24.485
1134	66.0 66.0
1135	27.86 27.86
1136	235.0 235.0
1137	25.954 25.954
1138	167.0 167.0
1139	37.66 37.66
1140	116.0 116.0
1141	32.219 32.219
1142	299.0 299.0
1143	27.71 27.71
1144	65.0 65.0
1145	29.289 29.289
1146	38.0 38.0
1147	28.134 28.134
1148	252.0 252.0
1149	31.782 31.782
1150	45.0 45.0
1151	67.44 67.44
1152	266.0 266.0
1153	31.243 31.243
1154	136.0 136.0
1155	24.825 24.825
1156	106.0 106.0
1157	29.782 29.782
1158	90.0 90.0
1159	30.451 30.451
1160	242.0 242.0
1161	27.152 27.152
1162	242.0 242.0
1163	27.618 27.618
1164	118.0 118.0
1165	31.659 31.659
1166	132.0 132.0
1167	31.254 31.254
1168	126.0 126.0
1169	39.483 39.483
1170	67.0 67.0
1171	27.788 27.788
1172	257.0 257.0
1173	27.108 27.108
1174	114.0 114.0
1175	29.138 29.138
1176	100.0 100.0
1177	72.845 72.845
1178	196.0 196.0
1179	25.152 25.152
1180	227.0 227.0
1181	89.983 89.983
1182	276.0 276.0
1183	29.468 29.468
1184	216.0 216.0
1185	35.758 35.758
1186	203.0 203.0
1187	25.669 25.669
1188	112.0 112.0
1189	31.595 31.595
1190	84.0 84.0
1191	34.299 34.299
1192	167.0 167.0
1193	25.494 25.494
1194	279.0 279.0
1195	38.053 38.053
1196	62.0 62.0
1197	25.952 25.952
1198	251.0 251.0
1199	29.463 29.463
1200	40.0 40.0
1201	29.892 29.892
1202	265.0 265.0
1203	27.761 27.761
1204	217.0 217.0
1205	30.315 30.315
1206	277.0 277.0
1207	28.977 28.977
1208	190.0 190.0
1209	30.855 30.855
1210	258.0 258.0
1211	27.035 27.035
1212	151.0 151.0
1213	31.313 31.313
1214	193.0 193.0
1215	27.163 27.163
1216	132.0 132.0
1217	26.632 26.632
1218	97.0 97.0
1219	27.484 27.484
1220	178.0 178.0
1221	27.124 27.124
1222	257.0 257.0
1223	62.344 62.344
1224	217.0 217.0
1225	24.533 24.533
1226	194.0 194.0
1227	24.726 24.726
1228	58.0 58.0
1229	25.846 25.846
1230	130.0 130.0
1231	26.142 26.142
1232	170.0 170.0
1233	25.69 25.69
1234	297.0 297.0
1235	25.631 25.631
1236	77.0 77.0
1237	28.998 28.998
1238	289.0 289.0
1239	25.657 25.657
1240	136.0 136.0
1241	26.443 26.443
1242	122.0 122.0
1243	29.279 29.279
1244	266.0 266.0
1245	26.085 26.085
1246	217.0 217.0
1247	26.834 26.834
1248	204.0 204.0
1249	34.643 34.643
1250	50.0 50.0
1251	30.888 30.888
1252	275.0 275.0
1253	31.393 31.393
1254	117.0 117.0
1255	31.033 31.033
1256	231.0 231.0
1257	32.729 32.729
1258	237.0 237.0
1259	31.254 31.254
1260	43.0 43.0
1261	27.758 27.758
1262	278.0 278.0
1263	26.774 26.774
1264	294.0 294.0
1265	27.526 27.526
1266	144.0 144.0
1267	24.974 24.974
1268	201.0 201.0
1269	30.48 30.48
1270	272.0 272.0
1271	26.616 26.616
1272	241.0 241.0
1273	25.395 25.395
1274	241.0 241.0
1275	23.971 23.971
1276	184.0 184.0
1277	40.51 40.51
1278	285.0 285.0
1279	30.59 30.59
1280	77.0 77.0
1281	26.722 26.722
1282	155.0 155.0
1283	29.321 29.321
1284	109.0 109.0
1285	29.143 29.143
1286	40.0 40.0
1287	30.666 30.666
1288	79.0 79.0
1289	26.457 26.457
1290	243.0 243.0
1291	28.865 28.865
1292	264.0 264.0
1293	28.474 28.474
1294	67.0 67.0
1295	32.039 32.039
1296	48.0 48.0
1297	28.713 28.713
1298	121.0 121.0
1299	28.035 28.035
1300	208.0 208.0
1301	26.811 26.811
1302	72.0 72.0
1303	30.02 30.02
1304	61.0 61.0
1305	85.966 85.966
1306	72.0 72.0
1307	26.868 26.868
1308	138.0 138.0
1309	27.837 27.837
1310	167.0 167.0
1311	27.484 27.484
1312	114.0 114.0
1313	27.787 27.787
1314	63.0 63.0
1315	27.038 27.038
1316	43.0 43.0
1317	27.607 27.607
1318	80.0 80.0
1319	27.93 27.93
1320	108.0 108.0
1321	27.441 27.441
1322	140.0 140.0
1323	28.114 28.114
1324	216.0 216.0
1325	28.313 28.313
1326	168.0 168.0
1327	64.303 64.303
1328	279.0 279.0
1329	26.121 26.121
1330	166.0 166.0
1331	24.513 24.513
1332	280.0 280.0
1333	32.072 32.072
1334	281.0 281.0
1335	60.611 60.611
1336	249.0 249.0
1337	26.707 26.707
1338	264.0 264.0
1339	27.219 27.219
1340	248.0 248.0
1341	30.254 30.254
1342	194.0 194.0
1343	27.539 27.539
1344	166.0 166.0
1345	27.28 27.28
1346	140.0 140.0
1347	24.821 24.821
1348	253.0 253.0
1349	27.513 27.513
1350	129.0 129.0
1351	24.412 24.412
1352	270.0 270.0
1353	24.944 24.944
1354	84.0 84.0
1355	33.455 33.455
1356	47.0 47.0
1357	32.941 32.941
1358	273.0 273.0
1359	33.366 33.366
1360	55.0 55.0
1361	33.313 33.313
1362	269.0 269.0
1363	42.956 42.956
1364	278.0 278.0
1365	29.803 29.803
1366	43.0 43.0
1367	33.621 33.621
1368	40.0 40.0
1369	30.649 30.649
1370	185.0 185.0
1371	26.053 26.053
1372	164.0 164.0
1373	29.621 29.621
1374	77.0 77.0
1375	26.366 26.366
1376	113.0 113.0
1377	28.15 28.15
1378	255.0 255.0
1379	40.315 40.315
1380	182.0 182.0
1381	32.152 32.152
1382	210.0 210.0
1383	29.591 29.591
1384	121.0 121.0
1385	29.734 29.734
1386	81.0 81.0
1387	29.454 29.454
1388	79.0 79.0
1389	33.738 33.738
1390	244.0 244.0
1391	35.503 35.503
1392	86.0 86.0
1393	27.336 27.336
1394	267.0 267.0
1395	36.786 36.786
1396	164.0 164.0
1397	33.943 33.943
1398	256.0 256.0
1399	36.605 36.605
1400	66.0 66.0
1401	29.075 29.075
1402	233.0 233.0
1403	26.55 26.55
1404	69.0 69.0
1405	26.945 26.945
1406	111.0 111.0
1407	24.82 24.82
1408	285.0 285.0
1409	26.436 26.436
1410	131.0 131.0
1411	30.846 30.846
1412	249.0 249.0
1413	30.561 30.561
1414	125.0 125.0
1415	28.626 28.626
1416	182.0 182.0
1417	27.341 27.341
1418	242.0 242.0
1419	26.469 26.469
1420	120.0 120.0
1421	25.747 25.747
1422	294.0 294.0
1423	23.985 23.985
1424	96.0 96.0
1425	31.022 31.022
1426	215.0 215.0
1427	26.066 26.066
1428	137.0 137.0
1429	25.527 25.527
1430	103.0 103.0
1431	31.53 31.53
1432	168.0 168.0
1433	26.901 26.901
1434	272.0 272.0
1435	28.397 28.397
1436	162.0 162.0
1437	34.638 34.638
1438	61.0 61.0
1439	27.823 27.823
1440	225.0 225.0
1441	26.761 26.761
1442	105.0 105.0
1443	27.53 27.53
1444	83.0 83.0
1445	25.898 25.898
1446	161.0 161.0
1447	28.066 28.066
1448	226.0 226.0
1449	28.057 28.057
1450	107.0 107.0
1451	28.077 28.077
1452	85.0 85.0
1453	26.241 26.241
1454	229.0 229.0
1455	30.43 30.43
1456	279.0 279.0
1457	24.555 24.555
1458	291.0 291.0
1459	32.473 32.473
1460	291.0 291.0
1461	34.682 34.682
1462	129.0 129.0
1463	25.998 25.998
1464	95.0 95.0
1465	33.907 33.907
1466	183.0 183.0
1467	29.708 29.708
1468	301.0 301.0
1469	25.407 25.407
1470	132.0 132.0
1471	24.751 24.751
1472	233.0 233.0
1473	25.648 25.648
1474	219.0 219.0
1475	28.386 28.386
1476	121.0 121.0
1477	38.002 38.002
1478	177.0 177.0
1479	24.203 24.203
1480	93.0 93.0
1481	24.2 24.2
1482	211.0 211.0
1483	23.665 23.665
1484	241.0 241.0
1485	25.879 25.879
1486	198.0 198.0
1487	27.631 27.631
1488	152.0 152.0
1489	26.849 26.849
1490	217.0 217.0
1491	24.902 24.902
1492	99.0 99.0
1493	24.56 24.56
1494	194.0 194.0
1495	32.098 32.098
1496	232.0 232.0
1497	31.91 31.91
1498	283.0 283.0
1499	23.846 23.846
1500	40.0 40.0
1501	27.009 27.009
1502	201.0 201.0
1503	30.885 30.885
1504	75.0 75.0
1505	31.031 31.031
1506	72.0 72.0
1507	24.984 24.984
1508	179.0 179.0
1509	28.92 28.92
1510	200.0 200.0
1511	28.497 28.497
1512	52.0 52.0
1513	37.546 37.546
1514	271.0 271.0
1515	33.515 33.515
1516	271.0 271.0
1517	26.138 26.138
1518	284.0 284.0
1519	27.769 27.769
1520	276.0 276.0
1521	24.957 24.957
1522	145.0 145.0
1523	24.042 24.042
1524	158.0 158.0
1525	29.472 29.472
1526	151.0 151.0
1527	24.84 24.84
1528	248.0 248.0
1529	31.3 31.3
1530	280.0 280.0
1531	28.601 28.601
1532	288.0 288.0
1533	25.159 25.159
1534	268.0 268.0
1535	32.089 32.089
1536	170.0 170.0
1537	26.464 26.464
1538	183.0 183.0
1539	27.686 27.686
1540	281.0 281.0
1541	24.021 24.021
1542	143.0 143.0
1543	28.816 28.816
1544	298.0 298.0
1545	28.607 28.607
1546	271.0 271.0
1547	29.412 29.412
1548	41.0 41.0
1549	30.275 30.275
1550	230.0 230.0
1551	28.991 28.991
1552	84.0 84.0
1553	37.418 37.418
1554	234.0 234.0
1555	24.503 24.503
1556	178.0 178.0
1557	25.834 25.834
1558	114.0 114.0
1559	24.885 24.885
1560	204.0 204.0
1561	25.69 25.69
1562	252.0 252.0
1563	23.859 23.859
1564	194.0 194.0
1565	24.182 24.182
1566	111.0 111.0
1567	26.067 26.067
1568	114.0 114.0
1569	26.302 26.302
1570	84.0 84.0
1571	26.084 26.084
1572	274.0 274.0
1573	27.062 27.062
1574	44.0 44.0
1575	33.295 33.295
1576	213.0 213.0
1577	45.615 45.615
1578	171.0 171.0
1579	30.809 30.809
1580	291.0 291.0
1581	26.355 26.355
1582	120.0 120.0
1583	32.471 32.471
1584	100.0 100.0
1585	26.645 26.645
1586	169.0 169.0
1587	24.989 24.989
1588	213.0 213.0
1589	25.215 25.215
1590	234.0 234.0
1591	24.838 24.838
1592	51.0 51.0
1593	27.679 27.679
1594	95.0 95.0
1595	23.48 23.48
1596	126.0 126.0
1597	24.314 24.314
1598	145.0 145.0
1599	28.946 28.946
1600	57.0 57.0
1601	24.405 24.405
1602	45.0 45.0
1603	26.159 26.159
1604	92.0 92.0
1605	24.606 24.606
1606	238.0 238.0
1607	27.527 27.527
1608	121.0 121.0
1609	29.184 29.184
1610	262.0 262.0
1611	26.016 26.016
1612	195.0 195.0
1613	32.746 32.746
1614	230.0 230.0
1615	28.087 28.087
1616	142.0 142.0
1617	26.746 26.746
1618	180.0 180.0
1619	26.219 26.219
1620	199.0 199.0
1621	24.669 24.669
1622	213.0 213.0
1623	28.331 28.331
1624	278.0 278.0
1625	23.883 23.883
1626	195.0 195.0
1627	28.039 28.039
1628	112.0 112.0
1629	26.878 26.878
1630	59.0 59.0
1631	24.602 24.602
1632	270.0 270.0
1633	23.828 23.828
1634	138.0 138.0
1635	26.48 26.48
1636	53.0 53.0
1637	25.439 25.439
1638	50.0 50.0
1639	25.331 25.331
1640	133.0 133.0
1641	26.531 26.531
1642	212.0 212.0
1643	25.301 25.301
1644	42.0 42.0
1645	34.261 34.261
1646	213.0 213.0
1647	27.056 27.056
1648	195.0 195.0
1649	26.436 26.436
1650	169.0 169.0
1651	34.173 34.173
1652	202.0 202.0
1653	36.003 36.003
1654	281.0 281.0
1655	35.464 35.464
1656	67.0 67.0
1657	27.776 27.776
1658	222.0 222.0
1659	39.476 39.476
1660	218.0 218.0
1661	26.769 26.769
1662	53.0 53.0
1663	48.841 48.841
1664	228.0 228.0
1665	36.414 36.414
1666	277.0 277.0
1667	36.949 36.949
1668	211.0 211.0
1669	29.974 29.974
1670	42.0 42.0
1671	39.033 39.033
1672	46.0 46.0
1673	27.979 27.979
1674	94.0 94.0
1675	24.171 24.171
1676	76.0 76.0
1677	29.382 29.382
1678	50.0 50.0
1679	28.184 28.184
1680	187.0 187.0
1681	27.191 27.191
1682	252.0 252.0
1683	28.445 28.445
1684	179.0 179.0
1685	26.277 26.277
1686	164.0 164.0
1687	28.626 28.626
1688	277.0 277.0
1689	36.489 36.489
1690	191.0 191.0
1691	26.845 26.845
1692	87.0 87.0
1693	27.172 27.172
1694	146.0 146.0
1695	35.455 35.455
1696	96.0 96.0
1697	26.129 26.129
1698	259.0 259.0
1699	29.49 29.49
1700	42.0 42.0
1701	24.841 24.841
1702	148.0 148.0
1703	25.41 25.41
1704	241.0 241.0
1705	25.821 25.821
1706	180.0 180.0
1707	25.998 25.998
1708	53.0 53.0
1709	26.885 26.885
1710	210.0 210.0
1711	27.098 27.098
1712	285.0 285.0
1713	27.488 27.488
1714	46.0 46.0
1715	24.241 24.241
1716	195.0 195.0
1717	24.794 24.794
1718	95.0 95.0
1719	26.464 26.464
1720	270.0 270.0
1721	25.006 25.006
1722	170.0 170.0
1723	25.258 25.258
1724	213.0 213.0
1725	32.567 32.567
1726	185.0 185.0
1727	32.542 32.542
1728	189.0 189.0
1729	33.937 33.937
1730	72.0 72.0
1731	35.786 35.786
1732	143.0 143.0
1733	33.769 33.769
1734	198.0 198.0
1735	44.815 44.815
1736	50.0 50.0
1737	34.004 34.004
1738	85.0 85.0
1739	28.391 28.391
1740	112.0 112.0
1741	35.795 35.795
1742	120.0 120.0
1743	36.003 36.003
1744	96.0 96.0
1745	35.713 35.713
1746	197.0 197.0
1747	27.549 27.549
1748	198.0 198.0
1749	35.017 35.017
1750	286.0 286.0
1751	28.393 28.393
1752	270.0 270.0
1753	29.293 29.293
1754	162.0 162.0
1755	26.39 26.39
1756	277.0 277.0
1757	27.817 27.817
1758	235.0 235.0
1759	33.589 33.589
1760	178.0 178.0
1761	35.755 35.755
1762	43.0 43.0
1763	29.252 29.252
1764	197.0 197.0
1765	42.757 42.757
1766	58.0 58.0
1767	28.905 28.905
1768	165.0 165.0
1769	32.341 32.341
1770	77.0 77.0
1771	34.054 34.054
1772	65.0 65.0
1773	38.448 38.448
1774	81.0 81.0
1775	25.267 25.267
1776	172.0 172.0
1777	32.263 32.263
1778	170.0 170.0
1779	26.473 26.473
1780	272.0 272.0
1781	24.992 24.992
1782	96.0 96.0
1783	29.44 29.44
1784	50.0 50.0
1785	25.661 25.661
1786	231.0 231.0
1787	28.031 28.031
1788	176.0 176.0
1789	26.807 26.807
1790	143.0 143.0
1791	28.011 28.011
1792	204.0 204.0
1793	28.48 28.48
1794	101.0 101.0
1795	27.343 27.343
1796	53.0 53.0
1797	26.161 26.161
1798	159.0 159.0
1799	27.382 27.382
1800	182.0 182.0
1801	24.849 24.849
1802	46.0 46.0
1803	27.572 27.572
1804	186.0 186.0
1805	27.82 27.82
1806	77.0 77.0
1807	28.267 28.267
1808	300.0 300.0
1809	28.622 28.622
1810	287.0 287.0
1811	29.294 29.294
1812	79.0 79.0
1813	27.169 27.169
1814	159.0 159.0
1815	25.587 25.587
1816	78.0 78.0
1817	29.862 29.862
1818	75.0 75.0
1819	30.041 30.041
1820	102.0 102.0
1821	27.448 27.448
1822	100.0 100.0
1823	27.769 27.769
1824	225.0 225.0
1825	27.631 27.631
1826	202.0 202.0
1827	29.553 29.553
1828	295.0 295.0
1829	27.817 27.817
1830	173.0 173.0
1831	25.189 25.189
1832	145.0 145.0
1833	29.232 29.232
1834	79.0 79.0
1835	24.679 24.679
1836	145.0 145.0
1837	25.188 25.188
1838	68.0 68.0
1839	28.02 28.02
1840	104.0 104.0
1841	25.806 25.806
1842	139.0 139.0
1843	24.156 24.156
1844	171.0 171.0
1845	27.285 27.285
1846	209.0 209.0
1847	27.006 27.006
1848	100.0 100.0
1849	24.618 24.618
1850	237.0 237.0
1851	23.939 23.939
1852	283.0 283.0
1853	26.439 26.439
1854	210.0 210.0
1855	27.981 27.981
1856	39.0 39.0
1857	29.977 29.977
1858	128.0 128.0
1859	33.111 33.111
1860	248.0 248.0
1861	30.911 30.911
1862	206.0 206.0
1863	29.064 29.064
1864	66.0 66.0
1865	33.405 33.405
1866	205.0 205.0
1867	31.463 31.463
1868	58.0 58.0
1869	25.686 25.686
1870	109.0 109.0
1871	26.79 26.79
1872	45.0 45.0
1873	29.863 29.863
1874	195.0 195.0
1875	25.516 25.516
1876	180.0 180.0
1877	27.549 27.549
1878	274.0 274.0
1879	25.377 25.377
1880	154.0 154.0
1881	27.006 27.006
1882	216.0 216.0
1883	25.327 25.327
1884	223.0 223.0
1885	26.776 26.776
1886	177.0 177.0
1887	26.807 26.807
1888	256.0 256.0
1889	30.449 30.449
1890	215.0 215.0
1891	24.782 24.782
1892	95.0 95.0
1893	24.86 24.86
1894	164.0 164.0
1895	27.622 27.622
1896	107.0 107.0
1897	30.598 30.598
1898	253.0 253.0
1899	41.865 41.865
1900	101.0 101.0
1901	26.191 26.191
1902	86.0 86.0
1903	29.599 29.599
1904	67.0 67.0
1905	24.631 24.631
1906	96.0 96.0
1907	28.044 28.044
1908	61.0 61.0
1909	27.616 27.616
1910	64.0 64.0
1911	24.411 24.411
1912	134.0 134.0
1913	23.821 23.821
1914	277.0 277.0
1915	29.392 29.392
1916	89.0 89.0
1917	30.271 30.271
1918	109.0 109.0
1919	25.451 25.451
1920	180.0 180.0
1921	27.828 27.828
1922	279.0 279.0
1923	28.888 28.888
1924	50.0 50.0
1925	28.306 28.306
1926	231.0 231.0
1927	28.174 28.174
1928	66.0 66.0
1929	41.727 41.727
1930	81.0 81.0
1931	28.148 28.148
1932	151.0 151.0
1933	28.17 28.17
1934	167.0 167.0
1935	41.114 41.114
1936	245.0 245.0
1937	28.081 28.081
1938	241.0 241.0
1939	36.288 36.288
1940	97.0 97.0
1941	28.024 28.024
1942	300.0 300.0
1943	29.623 29.623
1944	93.0 93.0
1945	36.188 36.188
1946	106.0 106.0
1947	25.618 25.618
1948	112.0 112.0
1949	27.395 27.395
1950	184.0 184.0
1951	25.899 25.899
1952	145.0 145.0
1953	25.522 25.522
1954	209.0 209.0
1955	25.131 25.131
1956	172.0 172.0
1957	26.012 26.012
1958	44.0 44.0
1959	23.832 23.832
1960	148.0 148.0
1961	25.643 25.643
1962	102.0 102.0
1963	26.235 26.235
1964	180.0 180.0
1965	26.078 26.078
1966	150.0 150.0
1967	26.034 26.034
1968	143.0 143.0
1969	25.727 25.727
1970	265.0 265.0
1971	30.094 30.094
1972	175.0 175.0
1973	29.743 29.743
1974	144.0 144.0
1975	26.939 26.939
1976	282.0 282.0
1977	26.556 26.556
1978	80.0 80.0
1979	26.563 26.563
1980	172.0 172.0
1981	23.605 23.605
1982	106.0 106.0
1983	27.797 27.797
1984	160.0 160.0
1985	29.005 29.005
1986	159.0 159.0
1987	26.103 26.103
1988	251.0 251.0
1989	27.786 27.786
1990	241.0 241.0
1991	26.948 26.948
1992	56.0 56.0
1993	25.387 25.387
1994	85.0 85.0
1995	24.159 24.159
1996	179.0 179.0
1997	31.692 31.692
1998	297.0 297.0
1999	26.506 26.506
2000	121.0 121.0
2001	26.227 26.227
2002	85.0 85.0
2003	34.425 34.425
2004	274.0 274.0
2005	27.426 27.426
2006	239.0 239.0
2007	28.521 28.521
2008	235.0 235.0
2009	34.008 34.008
2010	62.0 62.0
2011	29.33 29.33
2012	224.0 224.0
2013	35.893 35.893
2014	289.0 289.0
2015	30.217 30.217
2016	102.0 102.0
2017	29.086 29.086
2018	251.0 251.0
2019	25.087 25.087
2020	59.0 59.0
2021	27.207 27.207
2022	215.0 215.0
2023	28.1 28.1
2024	91.0 91.0
2025	34.91 34.91
2026	130.0 130.0
2027	25.941 25.941
2028	209.0 209.0
2029	26.368 26.368
2030	120.0 120.0
2031	173.696 173.696
2032	149.0 149.0
2033	30.668 30.668
2034	259.0 259.0
2035	29.805 29.805
2036	252.0 252.0
2037	25.674 25.674
2038	94.0 94.0
2039	164.529 164.529
2040	115.0 115.0
2041	28.429 28.429
2042	282.0 282.0
2043	30.902 30.902
2044	273.0 273.0
2045	33.638 33.638
2046	137.0 137.0
2047	28.226 28.226
2048	58.0 58.0
2049	29.502 29.502
2050	213.0 213.0
2051	30.403 30.403
2052	298.0 298.0
2053	29.487 29.487
2054	58.0 58.0
2055	24.577 24.577
2056	74.0 74.0
2057	103.727 103.727
2058	59.0 59.0
2059	173.211 173.211
2060	100.0 100.0
2061	24.473 24.473
2062	231.0 231.0
2063	23.827 23.827
2064	56.0 56.0
2065	24.704 24.704
2066	197.0 197.0
2067	156.871 156.871
2068	288.0 288.0
2069	166.872 166.872
2070	276.0 276.0
2071	25.004 25.004
2072	56.0 56.0
2073	26.872 26.872
2074	234.0 234.0
2075	25.505 25.505
2076	164.0 164.0
2077	23.74 23.74
2078	247.0 247.0
2079	23.93 23.93
2080	148.0 148.0
2081	34.532 34.532
2082	61.0 61.0
2083	33.055 33.055
2084	287.0 287.0
2085	32.762 32.762
2086	277.0 277.0
2087	134.08 134.08
2088	246.0 246.0
2089	32.663 32.663
2090	138.0 138.0
2091	27.108 27.108
2092	286.0 286.0
2093	34.352 34.352
2094	252.0 252.0
2095	27.463 27.463
2096	143.0 143.0
2097	26.345 26.345
2098	46.0 46.0
2099	27.286 27.286
2100	267.0 267.0
2101	29.612 29.612
2102	91.0 91.0
2103	29.42 29.42
2104	124.0 124.0
2105	25.561 25.561
2106	68.0 68.0
2107	151.594 151.594
2108	84.0 84.0
2109	106.736 106.736
2110	112.0 112.0
2111	27.398 27.398
2112	68.0 68.0
2113	147.856 147.856
2114	139.0 139.0
2115	25.487 25.487
2116	219.0 219.0
2117	28.115 28.115
2118	144.0 144.0
2119	25.516 25.516
2120	214.0 214.0
2121	26.43 26.43
2122	259.0 259.0
2123	29.382 29.382
2124	182.0 182.0
2125	26.031 26.031
2126	193.0 193.0
2127	31.084 31.084
2128	167.0 167.0
2129	33.849 33.849
2130	257.0 257.0
2131	38.896 38.896
2132	206.0 206.0
2133	28.903 28.903
2134	164.0 164.0
2135	27.663 27.663
2136	190.0 190.0
2137	30.193 30.193
2138	282.0 282.0
2139	25.22 25.22
2140	196.0 196.0
2141	25.312 25.312
2142	291.0 291.0
2143	27.818 27.818
2144	191.0 191.0
2145	24.905 24.905
2146	154.0 154.0
2147	24.043 24.043
2148	159.0 159.0
2149	23.77 23.77
2150	141.0 141.0
2151	28.765 28.765
2152	234.0 234.0
2153	24.287 24.287
2154	259.0 259.0
2155	48.976 48.976
2156	300.0 300.0
2157	25.308 25.308
2158	144.0 144.0
2159	25.458 25.458
2160	124.0 124.0
2161	25.368 25.368
2162	237.0 237.0
2163	25.116 25.116
2164	58.0 58.0
2165	27.158 27.158
2166	227.0 227.0
2167	212.466 212.466
2168	86.0 86.0
2169	32.557 32.557
2170	110.0 110.0
2171	26.331 26.331
2172	171.0 171.0
2173	29.418 29.418
2174	191.0 191.0
2175	28.008 28.008
2176	51.0 51.0
2177	26.241 26.241
2178	123.0 123.0
2179	25.439 25.439
2180	249.0 249.0
2181	32.562 32.562
2182	113.0 113.0
2183	35.11 35.11
2184	196.0 196.0
2185	24.002 24.002
2186	120.0 120.0
2187	27.533 27.533
2188	148.0 148.0
2189	25.534 25.534
2190	269.0 269.0
2191	24.426 24.426
2192	157.0 157.0
2193	32.205 32.205
2194	192.0 192.0
2195	30.217 30.217
2196	112.0 112.0
2197	26.196 26.196
2198	234.0 234.0
2199	29.389 29.389
2200	254.0 254.0
2201	25.047 25.047
2202	226.0 226.0
2203	24.304 24.304
2204	126.0 126.0
2205	29.14 29.14
2206	260.0 260.0
2207	26.62 26.62
2208	244.0 244.0
2209	23.998 23.998
2210	160.0 160.0
2211	29.507 29.507
2212	229.0 229.0
2213	32.105 32.105
2214	116.0 116.0
2215	32.199 32.199
2216	250.0 250.0
2217	31.537 31.537
2218	214.0 214.0
2219	33.44 33.44
2220	187.0 187.0
2221	33.239 33.239
2222	292.0 292.0
2223	33.241 33.241
2224	166.0 166.0
2225	28.094 28.094
2226	151.0 151.0
2227	28.649 28.649
2228	80.0 80.0
2229	31.587 31.587
2230	208.0 208.0
2231	28.243 28.243
2232	99.0 99.0
2233	25.91 25.91
2234	142.0 142.0
2235	36.232 36.232
2236	201.0 201.0
2237	26.878 26.878
2238	297.0 297.0
2239	24.31 24.31
2240	59.0 59.0
2241	28.387 28.387
2242	234.0 234.0
2243	24.216 24.216
2244	212.0 212.0
2245	25.285 25.285
2246	69.0 69.0
2247	28.342 28.342
2248	269.0 269.0
2249	26.684 26.684
2250	166.0 166.0
2251	27.379 27.379
2252	190.0 190.0
2253	27.144 27.144
2254	166.0 166.0
2255	25.957 25.957
2256	133.0 133.0
2257	25.901 25.901
2258	110.0 110.0
2259	29.021 29.021
2260	51.0 51.0
2261	24.922 24.922
2262	118.0 118.0
2263	25.556 25.556
2264	137.0 137.0
2265	24.028 24.028
2266	67.0 67.0
2267	25.596 25.596
2268	109.0 109.0
2269	25.642 25.642
2270	82.0 82.0
2271	26.444 26.444
2272	223.0 223.0
2273	25.84 25.84
2274	127.0 127.0
2275	24.52 24.52
2276	52.0 52.0
2277	24.877 24.877
2278	245.0 245.0
2279	32.77 32.77
2280	260.0 260.0
2281	25.183 25.183
2282	99.0 99.0
2283	31.472 31.472
2284	164.0 164.0
2285	31.386 31.386
2286	77.0 77.0
2287	26.189 26.189
2288	39.0 39.0
2289	27.547 27.547
2290	191.0 191.0
2291	24.643 24.643
2292	178.0 178.0
2293	26.613 26.613
2294	69.0 69.0
2295	43.016 43.016
2296	174.0 174.0
2297	35.546 35.546
2298	217.0 217.0
2299	30.921 30.921
2300	204.0 204.0
2301	31.565 31.565
2302	174.0 174.0
2303	33.164 33.164
2304	192.0 192.0
2305	27.267 27.267
2306	197.0 197.0
2307	33.872 33.872
2308	208.0 208.0
2309	27.489 27.489
2310	129.0 129.0
2311	28.353 28.353
2312	111.0 111.0
2313	29.507 29.507
2314	272.0 272.0
2315	33.546 33.546
2316	249.0 249.0
2317	25.389 25.389
2318	171.0 171.0
2319	25.799 25.799
2320	243.0 243.0
2321	25.548 25.548
2322	236.0 236.0
2323	27.522 27.522
2324	75.0 75.0
2325	27.582 27.582
2326	61.0 61.0
2327	26.794 26.794
2328	116.0 116.0
2329	25.126 25.126
2330	221.0 221.0
2331	25.452 25.452
2332	179.0 179.0
2333	26.062 26.062
2334	263.0 263.0
2335	26.397 26.397
2336	161.0 161.0
2337	33.349 33.349
2338	294.0 294.0
2339	26.443 26.443
2340	114.0 114.0
2341	32.463 32.463
2342	151.0 151.0
2343	31.351 31.351
2344	291.0 291.0
2345	32.459 32.459
2346	278.0 278.0
2347	35.779 35.779
2348	102.0 102.0
2349	43.605 43.605
2350	297.0 297.0
2351	28.648 28.648
2352	52.0 52.0
2353	28.225 28.225
2354	270.0 270.0
2355	26.764 26.764
2356	135.0 135.0
2357	28.069 28.069
2358	208.0 208.0
2359	27.874 27.874
2360	297.0 297.0
2361	27.828 27.828
2362	156.0 156.0
2363	27.205 27.205
2364	210.0 210.0
2365	27.292 27.292
2366	210.0 210.0
2367	25.643 25.643
2368	280.0 280.0
2369	28.558 28.558
2370	241.0 241.0
2371	30.712 30.712
2372	283.0 283.0
2373	31.79 31.79
2374	38.0 38.0
2375	24.097 24.097
2376	117.0 117.0
2377	30.601 30.601
2378	200.0 200.0
2379	30.62 30.62
2380	202.0 202.0
2381	31.754 31.754
2382	278.0 278.0
2383	25.734 25.734
2384	124.0 124.0
2385	24.442 24.442
2386	300.0 300.0
2387	45.202 45.202
2388	64.0 64.0
2389	27.582 27.582
2390	118.0 118.0
2391	24.996 24.996
2392	275.0 275.0
2393	28.161 28.161
2394	224.0 224.0
2395	26.47 26.47
2396	73.0 73.0
2397	27.509 27.509
2398	227.0 227.0
2399	30.184 30.184
2400	160.0 160.0
2401	27.404 27.404
2402	216.0 216.0
2403	29.433 29.433
2404	221.0 221.0
2405	28.299 28.299
2406	147.0 147.0
2407	27.104 27.104
2408	223.0 223.0
2409	28.283 28.283
2410	190.0 190.0
2411	24.228 24.228
2412	219.0 219.0
2413	25.629 25.629
2414	234.0 234.0
2415	32.549 32.549
2416	62.0 62.0
2417	28.112 28.112
2418	112.0 112.0
2419	25.642 25.642
2420	150.0 150.0
2421	26.695 26.695
2422	110.0 110.0
2423	24.62 24.62
2424	191.0 191.0
2425	23.671 23.671
2426	201.0 201.0
2427	25.831 25.831
2428	290.0 290.0
2429	26.676 26.676
2430	76.0 76.0
2431	25.713 25.713
2432	101.0 101.0
2433	24.422 24.422
2434	148.0 148.0
2435	24.046 24.046
2436	217.0 217.0
2437	24.862 24.862
2438	196.0 196.0
2439	24.832 24.832
2440	260.0 260.0
2441	23.909 23.909
2442	247.0 247.0
2443	24.84 24.84
2444	85.0 85.0
2445	24.246 24.246
2446	178.0 178.0
2447	27.577 27.577
2448	223.0 223.0
2449	26.152 26.152
2450	169.0 169.0
2451	25.854 25.854
2452	131.0 131.0
2453	25.017 25.017
2454	68.0 68.0
2455	26.529 26.529
2456	252.0 252.0
2457	26.2 26.2
2458	97.0 97.0
2459	26.341 26.341
2460	69.0 69.0
2461	27.147 27.147
2462	212.0 212.0
2463	28.657 28.657
2464	179.0 179.0
2465	27.815 27.815
2466	295.0 295.0
2467	28.577 28.577
2468	258.0 258.0
2469	33.246 33.246
2470	221.0 221.0
2471	27.138 27.138
2472	98.0 98.0
2473	28.814 28.814
2474	119.0 119.0
2475	29.818 29.818
2476	212.0 212.0
2477	28.918 28.918
2478	178.0 178.0
2479	34.836 34.836
2480	224.0 224.0
2481	30.066 30.066
2482	99.0 99.0
2483	28.687 28.687
2484	101.0 101.0
2485	29.233 29.233
2486	196.0 196.0
2487	26.263 26.263
2488	255.0 255.0
2489	38.79 38.79
2490	54.0 54.0
2491	26.494 26.494
2492	54.0 54.0
2493	26.303 26.303
2494	157.0 157.0
2495	31.615 31.615
2496	111.0 111.0
2497	26.748 26.748
2498	106.0 106.0
2499	26.73 26.73
2500	215.0 215.0
2501	24.388 24.388
2502	257.0 257.0
2503	26.025 26.025
2504	72.0 72.0
2505	34.501 34.501
2506	147.0 147.0
2507	28.445 28.445
2508	70.0 70.0
2509	26.634 26.634
2510	158.0 158.0
2511	27.467 27.467
2512	173.0 173.0
2513	28.385 28.385
2514	137.0 137.0
2515	25.458 25.458
2516	227.0 227.0
2517	27.241 27.241
2518	205.0 205.0
2519	29.263 29.263
2520	225.0 225.0
2521	29.602 29.602
2522	194.0 194.0
2523	30.89 30.89
2524	239.0 239.0
2525	30.825 30.825
2526	277.0 277.0
2527	36.111 36.111
2528	171.0 171.0
2529	26.253 26.253
2530	286.0 286.0
2531	28.247 28.247
2532	151.0 151.0
2533	29.188 29.188
2534	121.0 121.0
2535	26.029 26.029
2536	260.0 260.0
2537	28.912 28.912
2538	296.0 296.0
2539	30.171 30.171
2540	243.0 243.0
2541	28.958 28.958
2542	203.0 203.0
2543	23.964 23.964
2544	265.0 265.0
2545	28.066 28.066
2546	77.0 77.0
2547	35.381 35.381
2548	192.0 192.0
2549	28.247 28.247
2550	207.0 207.0
2551	27.408 27.408
2552	164.0 164.0
2553	29.852 29.852
2554	170.0 170.0
2555	31.917 31.917
2556	151.0 151.0
2557	34.341 34.341
2558	301.0 301.0
2559	27.948 27.948
2560	293.0 293.0
2561	27.412 27.412
2562	51.0 51.0
2563	34.12 34.12
2564	187.0 187.0
2565	27.579 27.579
2566	140.0 140.0
2567	44.067 44.067
2568	231.0 231.0
2569	33.14 33.14
2570	134.0 134.0
2571	30.301 30.301
2572	119.0 119.0
2573	33.754 33.754
2574	206.0 206.0
2575	25.31 25.31
2576	288.0 288.0
2577	29.609 29.609
2578	267.0 267.0
2579	27.343 27.343
2580	147.0 147.0
2581	26.174 26.174
2582	246.0 246.0
2583	25.726 25.726
2584	263.0 263.0
2585	27.99 27.99
2586	237.0 237.0
2587	35.904 35.904
2588	101.0 101.0
2589	28.938 28.938
2590	174.0 174.0
2591	28.232 28.232
2592	290.0 290.0
2593	29.148 29.148
2594	50.0 50.0
2595	26.135 26.135
2596	147.0 147.0
2597	29.667 29.667
2598	72.0 72.0
2599	28.207 28.207
2600	64.0 64.0
2601	27.913 27.913
2602	296.0 296.0
2603	28.946 28.946
2604	158.0 158.0
2605	28.316 28.316
2606	105.0 105.0
2607	28.494 28.494
2608	181.0 181.0
2609	28.716 28.716
2610	134.0 134.0
2611	27.146 27.146
2612	150.0 150.0
2613	42.845 42.845
2614	195.0 195.0
2615	29.978 29.978
2616	256.0 256.0
2617	28.059 28.059
2618	289.0 289.0
2619	26.89 26.89
2620	217.0 217.0
2621	27.002 27.002
2622	190.0 190.0
2623	28.023 28.023
2624	122.0 122.0
2625	28.764 28.764
2626	263.0 263.0
2627	25.916 25.916
2628	64.0 64.0
2629	29.315 29.315
2630	144.0 144.0
2631	29.952 29.952
2632	58.0 58.0
2633	24.021 24.021
2634	105.0 105.0
2635	26.508 26.508
2636	289.0 289.0
2637	23.734 23.734
2638	47.0 47.0
2639	29.926 29.926
2640	252.0 252.0
2641	32.08 32.08
2642	209.0 209.0
2643	25.783 25.783
2644	52.0 52.0
2645	26.898 26.898
2646	160.0 160.0
2647	32.295 32.295
2648	218.0 218.0
2649	24.676 24.676
2650	199.0 199.0
2651	31.381 31.381
2652	176.0 176.0
2653	30.992 30.992
2654	284.0 284.0
2655	27.47 27.47
2656	227.0 227.0
2657	26.824 26.824
2658	40.0 40.0
2659	27.914 27.914
2660	72.0 72.0
2661	27.087 27.087
2662	238.0 238.0
2663	28.752 28.752
2664	217.0 217.0
2665	24.157 24.157
2666	44.0 44.0
2667	25.268 25.268
2668	287.0 287.0
2669	24.591 24.591
2670	156.0 156.0
2671	24.87 24.87
2672	292.0 292.0
2673	25.177 25.177
2674	277.0 277.0
2675	26.564 26.564
2676	208.0 208.0
2677	24.675 24.675
2678	295.0 295.0
2679	24.876 24.876
2680	123.0 123.0
2681	25.344 25.344
2682	275.0 275.0
2683	23.59 23.59
2684	294.0 294.0
2685	24.31 24.31
2686	224.0 224.0
2687	30.287 30.287
2688	51.0 51.0
2689	24.848 24.848
2690	135.0 135.0
2691	24.37 24.37
2692	159.0 159.0
2693	24.635 24.635
2694	299.0 299.0
2695	25.645 25.645
2696	225.0 225.0
2697	25.377 25.377
2698	105.0 105.0
2699	24.444 24.444
2700	213.0 213.0
2701	26.255 26.255
2702	38.0 38.0
2703	25.028 25.028
2704	198.0 198.0
2705	24.851 24.851
2706	146.0 146.0
2707	26.026 26.026
2708	228.0 228.0
2709	28.378 28.378
2710	71.0 71.0
2711	30.198 30.198
2712	134.0 134.0
2713	31.297 31.297
2714	265.0 265.0
2715	34.92 34.92
2716	270.0 270.0
2717	25.008 25.008
2718	171.0 171.0
2719	37.822 37.822
2720	243.0 243.0
2721	32.112 32.112
2722	279.0 279.0
2723	27.363 27.363
2724	134.0 134.0
2725	28.392 28.392
2726	296.0 296.0
2727	32.872 32.872
2728	120.0 120.0
2729	25.526 25.526
2730	55.0 55.0
2731	25.157 25.157
2732	157.0 157.0
2733	28.11 28.11
2734	247.0 247.0
2735	26.542 26.542
2736	283.0 283.0
2737	25.428 25.428
2738	79.0 79.0
2739	24.033 24.033
2740	100.0 100.0
2741	25.625 25.625
2742	290.0 290.0
2743	24.219 24.219
2744	294.0 294.0
2745	28.752 28.752
2746	124.0 124.0
2747	24.812 24.812
2748	268.0 268.0
2749	24.757 24.757
2750	248.0 248.0
2751	29.011 29.011
2752	79.0 79.0
2753	32.088 32.088
2754	110.0 110.0
2755	35.256 35.256
2756	163.0 163.0
2757	26.516 26.516
2758	56.0 56.0
2759	35.608 35.608
2760	59.0 59.0
2761	39.391 39.391
2762	139.0 139.0
2763	25.925 25.925
2764	98.0 98.0
2765	26.001 26.001
2766	98.0 98.0
2767	23.732 23.732
2768	89.0 89.0
2769	25.137 25.137
2770	167.0 167.0
2771	27.691 27.691
2772	160.0 160.0
2773	24.039 24.039
2774	56.0 56.0
2775	27.828 27.828
2776	61.0 61.0
2777	26.657 26.657
2778	64.0 64.0
2779	34.924 34.924
2780	52.0 52.0
2781	24.425 24.425
2782	204.0 204.0
2783	24.725 24.725
2784	107.0 107.0
2785	29.288 29.288
2786	263.0 263.0
2787	24.889 24.889
2788	246.0 246.0
2789	38.808 38.808
2790	196.0 196.0
2791	24.664 24.664
2792	287.0 287.0
2793	25.206 25.206
2794	133.0 133.0
2795	26.767 26.767
2796	261.0 261.0
2797	28.622 28.622
2798	250.0 250.0
2799	25.22 25.22
2800	170.0 170.0
2801	23.97 23.97
2802	223.0 223.0
2803	31.652 31.652
2804	298.0 298.0
2805	29.2 29.2
2806	138.0 138.0
2807	27.469 27.469
2808	284.0 284.0
2809	28.158 28.158
2810	257.0 257.0
2811	25.196 25.196
2812	120.0 120.0
2813	27.572 27.572
2814	141.0 141.0
2815	30.765 30.765
2816	248.0 248.0
2817	34.684 34.684
2818	300.0 300.0
2819	35.556 35.556
2820	214.0 214.0
2821	29.672 29.672
2822	181.0 181.0
2823	35.086 35.086
2824	132.0 132.0
2825	34.286 34.286
2826	63.0 63.0
2827	35.858 35.858
2828	94.0 94.0
2829	29.81 29.81
2830	137.0 137.0
2831	40.195 40.195
2832	211.0 211.0
2833	38.946 38.946
2834	93.0 93.0
2835	25.991 25.991
2836	195.0 195.0
2837	25.883 25.883
2838	259.0 259.0
2839	28.022 28.022
2840	227.0 227.0
2841	33.035 33.035
2842	113.0 113.0
2843	26.637 26.637
2844	300.0 300.0
2845	23.973 23.973
2846	165.0 165.0
2847	26.291 26.291
2848	286.0 286.0
2849	28.251 28.251
2850	227.0 227.0
2851	32.37 32.37
2852	63.0 63.0
2853	28.442 28.442
2854	205.0 205.0
2855	28.043 28.043
2856	63.0 63.0
2857	26.037 26.037
2858	82.0 82.0
2859	31.777 31.777
2860	273.0 273.0
2861	23.882 23.882
2862	223.0 223.0
2863	28.23 28.23
2864	239.0 239.0
2865	26.697 26.697
2866	98.0 98.0
2867	24.55 24.55
2868	296.0 296.0
2869	29.017 29.017
2870	95.0 95.0
2871	29.269 29.269
2872	68.0 68.0
2873	24.928 24.928
2874	128.0 128.0
2875	27.893 27.893
2876	102.0 102.0
2877	28.876 28.876
2878	300.0 300.0
2879	32.661 32.661
2880	93.0 93.0
2881	26.312 26.312
2882	200.0 200.0
2883	29.094 29.094
2884	189.0 189.0
2885	26.187 26.187
2886	227.0 227.0
2887	33.766 33.766
2888	278.0 278.0
2889	25.243 25.243
2890	100.0 100.0
2891	24.182 24.182
2892	254.0 254.0
2893	25.808 25.808
2894	201.0 201.0
2895	24.114 24.114
2896	121.0 121.0
2897	23.788 23.788
2898	188.0 188.0
2899	27.653 27.653
2900	230.0 230.0
2901	25.644 25.644
2902	254.0 254.0
2903	27.502 27.502
2904	237.0 237.0
2905	33.496 33.496
2906	84.0 84.0
2907	30.76 30.76
2908	281.0 281.0
2909	34.068 34.068
2910	285.0 285.0
2911	25.499 25.499
2912	136.0 136.0
2913	86.509 86.509
2914	227.0 227.0
2915	76.837 76.837
2916	260.0 260.0
2917	31.108 31.108
2918	93.0 93.0
2919	34.374 34.374
2920	39.0 39.0
2921	27.931 27.931
2922	168.0 168.0
2923	33.072 33.072
2924	291.0 291.0
2925	24.879 24.879
2926	125.0 125.0
2927	25.346 25.346
2928	213.0 213.0
2929	173.423 173.423
2930	127.0 127.0
2931	26.647 26.647
2932	59.0 59.0
2933	24.157 24.157
2934	275.0 275.0
2935	24.31 24.31
2936	62.0 62.0
2937	25.622 25.622
2938	243.0 243.0
2939	27.287 27.287
2940	151.0 151.0
2941	24.341 24.341
2942	239.0 239.0
2943	24.186 24.186
2944	80.0 80.0
2945	27.985 27.985
2946	37.0 37.0
2947	26.119 26.119
2948	200.0 200.0
2949	24.152 24.152
2950	136.0 136.0
2951	28.483 28.483
2952	153.0 153.0
2953	31.53 31.53
2954	259.0 259.0
2955	28.133 28.133
2956	185.0 185.0
2957	29.357 29.357
2958	89.0 89.0
2959	26.18 26.18
2960	224.0 224.0
2961	25.453 25.453
2962	97.0 97.0
2963	24.845 24.845
2964	78.0 78.0
2965	25.716 25.716
2966	164.0 164.0
2967	53.902 53.902
2968	212.0 212.0
2969	34.361 34.361
2970	121.0 121.0
2971	26.211 26.211
2972	235.0 235.0
2973	24.608 24.608
2974	259.0 259.0
2975	25.347 25.347
2976	239.0 239.0
2977	24.653 24.653
2978	229.0 229.0
2979	25.967 25.967
2980	242.0 242.0
2981	27.295 27.295
2982	76.0 76.0
2983	196.843 196.843
2984	105.0 105.0
2985	26.969 26.969
2986	102.0 102.0
2987	65.256 65.256
2988	202.0 202.0
2989	31.939 31.939
2990	106.0 106.0
2991	34.811 34.811
2992	169.0 169.0
2993	36.75 36.75
2994	264.0 264.0
2995	28.6 28.6
2996	274.0 274.0
2997	37.793 37.793
2998	112.0 112.0
2999	34.867 34.867
3000	76.0 76.0
3001	28.475 28.475
3002	54.0 54.0
3003	34.683 34.683
3004	158.0 158.0
3005	31.061 31.061
3006	111.0 111.0
3007	23.992 23.992
3008	274.0 274.0
3009	23.983 23.983
3010	253.0 253.0
3011	32.037 32.037
3012	279.0 279.0
3013	26.27 26.27
3014	289.0 289.0
3015	24.154 24.154
3016	299.0 299.0
3017	24.262 24.262
3018	148.0 148.0
3019	24.977 24.977
3020	230.0 230.0
3021	25.024 25.024
3022	200.0 200.0
3023	46.209 46.209
3024	95.0 95.0
3025	30.884 30.884
3026	107.0 107.0
3027	31.0 31.0
3028	57.0 57.0
3029	29.179 29.179
3030	48.0 48.0
3031	33.161 33.161
3032	44.0 44.0
3033	32.115 32.115
3034	121.0 121.0
3035	28.327 28.327
3036	60.0 60.0
3037	42.517 42.517
3038	294.0 294.0
3039	30.98 30.98
3040	49.0 49.0
3041	33.637 33.637
3042	125.0 125.0
3043	33.414 33.414
3044	43.0 43.0
3045	24.751 24.751
3046	275.0 275.0
3047	27.017 27.017
3048	95.0 95.0
3049	32.482 32.482
3050	53.0 53.0
3051	27.679 27.679
3052	177.0 177.0
3053	31.439 31.439
3054	45.0 45.0
3055	24.369 24.369
3056	206.0 206.0
3057	25.175 25.175
3058	57.0 57.0
3059	85.266 85.266
3060	191.0 191.0
3061	24.219 24.219
3062	91.0 91.0
3063	24.578 24.578
3064	71.0 71.0
3065	87.96 87.96
3066	255.0 255.0
3067	28.207 28.207
3068	125.0 125.0
3069	26.326 26.326
3070	236.0 236.0
3071	24.191 24.191
3072	169.0 169.0
3073	26.855 26.855
3074	266.0 266.0
3075	24.99 24.99
3076	210.0 210.0
3077	24.893 24.893
3078	209.0 209.0
3079	24.163 24.163
3080	75.0 75.0
3081	23.967 23.967
3082	223.0 223.0
3083	163.733 163.733
3084	123.0 123.0
3085	24.966 24.966
3086	194.0 194.0
3087	25.987 25.987
3088	289.0 289.0
3089	26.598 26.598
3090	205.0 205.0
3091	28.002 28.002
3092	249.0 249.0
3093	31.434 31.434
3094	81.0 81.0
3095	28.48 28.48
3096	53.0 53.0
3097	28.716 28.716
3098	127.0 127.0
3099	27.692 27.692
3100	238.0 238.0
3101	33.732 33.732
3102	187.0 187.0
3103	27.03 27.03
3104	228.0 228.0
3105	27.538 27.538
3106	139.0 139.0
3107	26.519 26.519
3108	265.0 265.0
3109	25.115 25.115
3110	96.0 96.0
3111	30.549 30.549
3112	43.0 43.0
3113	29.926 29.926
3114	168.0 168.0
3115	30.286 30.286
3116	192.0 192.0
3117	205.394 205.394
3118	55.0 55.0
3119	25.62 25.62
3120	170.0 170.0
3121	30.315 30.315
3122	62.0 62.0
3123	33.234 33.234
3124	129.0 129.0
3125	25.36 25.36
3126	277.0 277.0
3127	24.048 24.048
3128	185.0 185.0
3129	31.409 31.409
3130	41.0 41.0
3131	201.019 201.019
3132	152.0 152.0
3133	27.071 27.071
3134	204.0 204.0
3135	29.356 29.356
3136	299.0 299.0
3137	30.246 30.246
3138	191.0 191.0
3139	32.303 32.303
3140	154.0 154.0
3141	24.21 24.21
3142	195.0 195.0
3143	187.684 187.684
3144	226.0 226.0
3145	27.439 27.439
3146	62.0 62.0
3147	24.461 24.461
3148	67.0 67.0
3149	24.523 24.523
3150	48.0 48.0
3151	24.369 24.369
3152	290.0 290.0
3153	24.697 24.697
3154	95.0 95.0
3155	25.157 25.157
3156	254.0 254.0
3157	24.748 24.748
3158	73.0 73.0
3159	23.562 23.562
3160	298.0 298.0
3161	25.536 25.536
3162	60.0 60.0
3163	28.474 28.474
3164	83.0 83.0
3165	210.466 210.466
3166	158.0 158.0
3167	28.236 28.236
3168	72.0 72.0
3169	191.662 191.662
3170	119.0 119.0
3171	24.391 24.391
3172	266.0 266.0
3173	29.698 29.698
3174	116.0 116.0
3175	31.975 31.975
3176	53.0 53.0
3177	165.083 165.083
3178	47.0 47.0
3179	24.391 24.391
3180	296.0 296.0
3181	180.57 180.57
3182	116.0 116.0
3183	25.363 25.363
3184	110.0 110.0
3185	24.073 24.073
3186	254.0 254.0
3187	28.7 28.7
3188	145.0 145.0
3189	24.732 24.732
3190	203.0 203.0
3191	28.821 28.821
3192	117.0 117.0
3193	175.289 175.289
3194	146.0 146.0
3195	184.785 184.785
3196	64.0 64.0
3197	24.658 24.658
3198	72.0 72.0
3199	23.484 23.484
3200	86.0 86.0
3201	171.177 171.177
3202	258.0 258.0
3203	141.758 141.758
3204	164.0 164.0
3205	30.646 30.646
3206	164.0 164.0
3207	24.38 24.38
3208	214.0 214.0
3209	232.672 232.672
3210	187.0 187.0
3211	29.813 29.813
3212	217.0 217.0
3213	30.662 30.662
3214	247.0 247.0
3215	211.647 211.647
3216	174.0 174.0
3217	211.827 211.827
3218	241.0 241.0
3219	27.547 27.547
3220	58.0 58.0
3221	24.632 24.632
3222	126.0 126.0
3223	24.91 24.91
3224	297.0 297.0
3225	24.176 24.176
3226	258.0 258.0
3227	29.303 29.303
3228	122.0 122.0
3229	50.223 50.223
3230	296.0 296.0
3231	115.197 115.197
3232	133.0 133.0
3233	24.276 24.276
3234	299.0 299.0
3235	24.815 24.815
3236	225.0 225.0
3237	24.472 24.472
3238	104.0 104.0
3239	25.85 25.85
3240	62.0 62.0
3241	26.382 26.382
3242	95.0 95.0
3243	185.761 185.761
3244	113.0 113.0
3245	28.058 28.058
3246	239.0 239.0
3247	24.666 24.666
3248	70.0 70.0
3249	145.858 145.858
3250	61.0 61.0
3251	24.52 24.52
3252	159.0 159.0
3253	239.408 239.408
3254	121.0 121.0
3255	136.688 136.688
3256	230.0 230.0
3257	198.494 198.494
3258	253.0 253.0
3259	24.141 24.141
3260	181.0 181.0
3261	24.664 24.664
3262	294.0 294.0
3263	24.28 24.28
3264	55.0 55.0
3265	26.488 26.488
3266	180.0 180.0
3267	212.216 212.216
3268	70.0 70.0
3269	149.991 149.991
3270	257.0 257.0
3271	152.213 152.213
3272	236.0 236.0
3273	188.23 188.23
3274	238.0 238.0
3275	190.037 190.037
3276	262.0 262.0
3277	28.197 28.197
3278	213.0 213.0
3279	28.017 28.017
3280	166.0 166.0
3281	24.55 24.55
3282	261.0 261.0
3283	40.968 40.968
3284	218.0 218.0
3285	27.993 27.993
3286	184.0 184.0
3287	29.843 29.843
3288	113.0 113.0
3289	24.179 24.179
3290	182.0 182.0
3291	23.467 23.467
3292	163.0 163.0
3293	23.841 23.841
3294	126.0 126.0
3295	160.057 160.057
3296	112.0 112.0
3297	173.97 173.97
3298	225.0 225.0
3299	26.78 26.78
3300	202.0 202.0
3301	25.588 25.588
3302	170.0 170.0
3303	29.419 29.419
3304	266.0 266.0
3305	24.902 24.902
3306	285.0 285.0
3307	26.643 26.643
3308	272.0 272.0
3309	29.273 29.273
3310	208.0 208.0
3311	111.41 111.41
3312	131.0 131.0
3313	24.155 24.155
3314	260.0 260.0
3315	213.948 213.948
3316	296.0 296.0
3317	210.161 210.161
3318	64.0 64.0
3319	29.238 29.238
3320	171.0 171.0
3321	31.836 31.836
3322	173.0 173.0
3323	29.69 29.69
3324	261.0 261.0
3325	31.54 31.54
3326	55.0 55.0
3327	24.242 24.242
3328	180.0 180.0
3329	24.91 24.91
3330	167.0 167.0
3331	24.265 24.265
3332	298.0 298.0
3333	25.096 25.096
3334	138.0 138.0
3335	24.025 24.025
3336	134.0 134.0
3337	27.532 27.532
3338	70.0 70.0
3339	34.266 34.266
3340	301.0 301.0
3341	35.903 35.903
3342	219.0 219.0
3343	26.122 26.122
3344	42.0 42.0
3345	24.751 24.751
3346	93.0 93.0
3347	30.659 30.659
3348	145.0 145.0
3349	84.358 84.358
3350	173.0 173.0
3351	146.436 146.436
3352	285.0 285.0
3353	27.329 27.329
3354	160.0 160.0
3355	27.428 27.428
3356	147.0 147.0
3357	29.329 29.329
3358	60.0 60.0
3359	206.279 206.279
3360	49.0 49.0
3361	37.85 37.85
3362	95.0 95.0
3363	218.681 218.681
3364	291.0 291.0
3365	211.833 211.833
3366	229.0 229.0
3367	97.312 97.312
3368	74.0 74.0
3369	33.112 33.112
3370	181.0 181.0
3371	28.79 28.79
3372	178.0 178.0
3373	27.569 27.569
3374	180.0 180.0
3375	27.621 27.621
3376	107.0 107.0
3377	48.697 48.697
3378	112.0 112.0
3379	29.155 29.155
3380	59.0 59.0
3381	29.945 29.945
3382	148.0 148.0
3383	28.497 28.497
3384	271.0 271.0
3385	25.498 25.498
3386	286.0 286.0
3387	31.466 31.466
3388	66.0 66.0
3389	27.534 27.534
3390	58.0 58.0
3391	28.413 28.413
3392	37.0 37.0
3393	143.553 143.553
3394	160.0 160.0
3395	50.648 50.648
3396	140.0 140.0
3397	35.395 35.395
3398	76.0 76.0
3399	26.807 26.807
3400	293.0 293.0
3401	29.599 29.599
3402	136.0 136.0
3403	24.493 24.493
3404	138.0 138.0
3405	24.673 24.673
3406	213.0 213.0
3407	25.779 25.779
3408	148.0 148.0
3409	24.548 24.548
3410	218.0 218.0
3411	24.89 24.89
3412	260.0 260.0
3413	25.856 25.856
3414	55.0 55.0
3415	117.706 117.706
3416	111.0 111.0
3417	24.504 24.504
3418	55.0 55.0
3419	27.312 27.312
3420	192.0 192.0
3421	47.579 47.579
3422	179.0 179.0
3423	29.598 29.598
3424	297.0 297.0
3425	27.203 27.203
3426	48.0 48.0
3427	24.01 24.01
3428	59.0 59.0
3429	31.204 31.204
3430	287.0 287.0
3431	24.611 24.611
3432	47.0 47.0
3433	24.563 24.563
3434	131.0 131.0
3435	24.347 24.347
3436	94.0 94.0
3437	28.957 28.957
3438	148.0 148.0
3439	24.078 24.078
3440	132.0 132.0
3441	23.92 23.92
3442	138.0 138.0
3443	24.302 24.302
3444	215.0 215.0
3445	23.851 23.851
3446	81.0 81.0
3447	27.291 27.291
3448	106.0 106.0
3449	25.23 25.23
3450	263.0 263.0
3451	26.781 26.781
3452	261.0 261.0
3453	27.144 27.144
3454	77.0 77.0
3455	24.423 24.423
3456	241.0 241.0
3457	25.96 25.96
3458	139.0 139.0
3459	27.57 27.57
3460	233.0 233.0
3461	26.618 26.618
3462	217.0 217.0
3463	23.93 23.93
3464	82.0 82.0
3465	28.611 28.611
3466	83.0 83.0
3467	31.328 31.328
3468	283.0 283.0
3469	29.312 29.312
3470	142.0 142.0
3471	27.499 27.499
3472	121.0 121.0
3473	31.71 31.71
3474	94.0 94.0
3475	27.04 27.04
3476	269.0 269.0
3477	30.87 30.87
3478	265.0 265.0
3479	33.792 33.792
3480	207.0 207.0
3481	24.45 24.45
3482	237.0 237.0
3483	29.358 29.358
3484	85.0 85.0
3485	24.392 24.392
3486	213.0 213.0
3487	27.704 27.704
3488	107.0 107.0
3489	24.165 24.165
3490	191.0 191.0
3491	28.846 28.846
3492	291.0 291.0
3493	28.135 28.135
3494	214.0 214.0
3495	24.894 24.894
3496	250.0 250.0
3497	27.028 27.028
3498	157.0 157.0
3499	23.785 23.785
3500	130.0 130.0
3501	29.815 29.815
3502	187.0 187.0
3503	24.498 24.498
3504	240.0 240.0
3505	25.301 25.301
3506	102.0 102.0
3507	28.258 28.258
3508	257.0 257.0
3509	25.075 25.075
3510	145.0 145.0
3511	25.855 25.855
3512	270.0 270.0
3513	24.033 24.033
3514	169.0 169.0
3515	128.152 128.152
3516	250.0 250.0
3517	28.037 28.037
3518	223.0 223.0
3519	27.613 27.613
3520	113.0 113.0
3521	103.991 103.991
3522	182.0 182.0
3523	28.624 28.624
3524	107.0 107.0
3525	29.246 29.246
3526	225.0 225.0
3527	24.575 24.575
3528	256.0 256.0
3529	24.403 24.403
3530	281.0 281.0
3531	24.048 24.048
3532	167.0 167.0
3533	24.807 24.807
3534	154.0 154.0
3535	25.067 25.067
3536	192.0 192.0
3537	24.496 24.496
3538	143.0 143.0
3539	25.712 25.712
3540	177.0 177.0
3541	24.232 24.232
3542	287.0 287.0
3543	26.101 26.101
3544	273.0 273.0
3545	24.128 24.128
3546	169.0 169.0
3547	27.721 27.721
3548	264.0 264.0
3549	28.88 28.88
3550	268.0 268.0
3551	28.417 28.417
3552	44.0 44.0
3553	29.033 29.033
3554	168.0 168.0
3555	23.847 23.847
3556	55.0 55.0
3557	24.606 24.606
3558	198.0 198.0
3559	25.331 25.331
3560	226.0 226.0
3561	30.37 30.37
3562	117.0 117.0
3563	33.219 33.219
3564	169.0 169.0
3565	29.339 29.339
3566	152.0 152.0
3567	29.17 29.17
3568	175.0 175.0
3569	31.619 31.619
3570	94.0 94.0
3571	27.035 27.035
3572	116.0 116.0
3573	211.306 211.306
3574	266.0 266.0
3575	29.332 29.332
3576	267.0 267.0
3577	186.001 186.001
3578	283.0 283.0
3579	24.094 24.094
3580	118.0 118.0
3581	24.537 24.537
3582	274.0 274.0
3583	25.324 25.324
3584	154.0 154.0
3585	30.16 30.16
3586	39.0 39.0
3587	24.432 24.432
3588	152.0 152.0
3589	31.296 31.296
3590	146.0 146.0
3591	24.057 24.057
3592	171.0 171.0
3593	147.752 147.752
3594	239.0 239.0
3595	39.082 39.082
3596	179.0 179.0
3597	24.28 24.28
3598	98.0 98.0
3599	193.909 193.909
3600	114.0 114.0
3601	40.785 40.785
3602	59.0 59.0
3603	25.306 25.306
3604	200.0 200.0
3605	24.783 24.783
3606	181.0 181.0
3607	123.04 123.04
3608	191.0 191.0
3609	68.677 68.677
3610	53.0 53.0
3611	125.755 125.755
3612	187.0 187.0
3613	124.983 124.983
3614	164.0 164.0
3615	27.881 27.881
3616	161.0 161.0
3617	25.159 25.159
3618	214.0 214.0
3619	23.585 23.585
3620	127.0 127.0
3621	26.761 26.761
3622	163.0 163.0
3623	24.507 24.507
3624	280.0 280.0
3625	31.565 31.565
3626	146.0 146.0
3627	25.77 25.77
3628	92.0 92.0
3629	27.935 27.935
3630	79.0 79.0
3631	26.969 26.969
3632	122.0 122.0
3633	167.067 167.067
3634	184.0 184.0
3635	33.118 33.118
3636	250.0 250.0
3637	27.176 27.176
3638	263.0 263.0
3639	28.51 28.51
3640	254.0 254.0
3641	28.534 28.534
3642	272.0 272.0
3643	158.247 158.247
3644	248.0 248.0
3645	109.942 109.942
3646	136.0 136.0
3647	31.052 31.052
3648	112.0 112.0
3649	25.379 25.379
3650	291.0 291.0
3651	32.013 32.013
3652	225.0 225.0
3653	31.8 31.8
3654	45.0 45.0
3655	34.468 34.468
3656	161.0 161.0
3657	33.148 33.148
3658	252.0 252.0
3659	24.603 24.603
3660	258.0 258.0
3661	172.311 172.311
3662	233.0 233.0
3663	29.86 29.86
3664	115.0 115.0
3665	31.975 31.975
3666	283.0 283.0
3667	25.047 25.047
3668	250.0 250.0
3669	25.218 25.218
3670	260.0 260.0
3671	24.507 24.507
3672	106.0 106.0
3673	33.77 33.77
3674	175.0 175.0
3675	183.142 183.142
3676	167.0 167.0
3677	25.45 25.45
3678	103.0 103.0
3679	24.283 24.283
3680	193.0 193.0
3681	24.223 24.223
3682	47.0 47.0
3683	26.727 26.727
3684	288.0 288.0
3685	25.825 25.825
3686	219.0 219.0
3687	183.327 183.327
3688	143.0 143.0
3689	188.038 188.038
3690	86.0 86.0
3691	205.677 205.677
3692	179.0 179.0
3693	32.28 32.28
3694	168.0 168.0
3695	24.93 24.93
3696	271.0 271.0
3697	34.408 34.408
3698	238.0 238.0
3699	34.949 34.949
3700	130.0 130.0
3701	28.101 28.101
3702	77.0 77.0
3703	35.462 35.462
3704	246.0 246.0
3705	24.47 24.47
3706	169.0 169.0
3707	29.385 29.385
3708	268.0 268.0
3709	24.69 24.69
3710	274.0 274.0
3711	208.385 208.385
3712	117.0 117.0
3713	175.509 175.509
3714	75.0 75.0
3715	152.078 152.078
3716	270.0 270.0
3717	213.697 213.697
3718	214.0 214.0
3719	24.808 24.808
3720	124.0 124.0
3721	24.088 24.088
3722	181.0 181.0
3723	24.646 24.646
3724	281.0 281.0
3725	24.808 24.808
3726	160.0 160.0
3727	29.155 29.155
3728	172.0 172.0
3729	30.577 30.577
3730	287.0 287.0
3731	31.643 31.643
3732	80.0 80.0
3733	24.14 24.14
3734	144.0 144.0
3735	30.592 30.592
3736	119.0 119.0
3737	27.685 27.685
3738	197.0 197.0
3739	27.961 27.961
3740	298.0 298.0
3741	24.236 24.236
3742	133.0 133.0
3743	24.392 24.392
3744	97.0 97.0
3745	30.348 30.348
3746	86.0 86.0
3747	23.842 23.842
3748	112.0 112.0
3749	24.304 24.304
3750	201.0 201.0
3751	28.761 28.761
3752	264.0 264.0
3753	155.902 155.902
3754	231.0 231.0
3755	27.21 27.21
3756	267.0 267.0
3757	23.575 23.575
3758	97.0 97.0
3759	108.364 108.364
3760	103.0 103.0
3761	23.566 23.566
3762	94.0 94.0
3763	29.841 29.841
3764	120.0 120.0
3765	25.027 25.027
3766	232.0 232.0
3767	28.51 28.51
3768	248.0 248.0
3769	27.493 27.493
3770	65.0 65.0
3771	27.961 27.961
3772	178.0 178.0
3773	25.769 25.769
3774	245.0 245.0
3775	26.505 26.505
3776	152.0 152.0
3777	24.632 24.632
3778	125.0 125.0
3779	27.002 27.002
3780	156.0 156.0
3781	29.136 29.136
3782	60.0 60.0
3783	24.327 24.327
3784	226.0 226.0
3785	28.101 28.101
3786	83.0 83.0
3787	24.693 24.693
3788	61.0 61.0
3789	26.677 26.677
3790	141.0 141.0
3791	24.452 24.452
3792	101.0 101.0
3793	24.451 24.451
3794	65.0 65.0
3795	23.854 23.854
3796	205.0 205.0
3797	27.992 27.992
3798	58.0 58.0
3799	28.871 28.871
3800	112.0 112.0
3801	25.345 25.345
3802	165.0 165.0
3803	29.6 29.6
3804	52.0 52.0
3805	29.951 29.951
3806	267.0 267.0
3807	25.567 25.567
3808	167.0 167.0
3809	24.886 24.886
3810	264.0 264.0
3811	28.312 28.312
3812	130.0 130.0
3813	212.887 212.887
3814	289.0 289.0
3815	25.502 25.502
3816	288.0 288.0
3817	28.471 28.471
3818	39.0 39.0
3819	98.383 98.383
3820	263.0 263.0
3821	26.608 26.608
3822	71.0 71.0
3823	29.383 29.383
3824	154.0 154.0
3825	30.566 30.566
3826	240.0 240.0
3827	31.21 31.21
3828	59.0 59.0
3829	192.183 192.183
3830	117.0 117.0
3831	28.993 28.993
3832	268.0 268.0
3833	32.56 32.56
3834	101.0 101.0
3835	28.627 28.627
3836	245.0 245.0
3837	31.53 31.53
3838	271.0 271.0
3839	74.445 74.445
3840	145.0 145.0
3841	23.798 23.798
3842	291.0 291.0
3843	35.935 35.935
3844	99.0 99.0
3845	28.826 28.826
3846	182.0 182.0
3847	27.595 27.595
3848	46.0 46.0
3849	33.802 33.802
3850	83.0 83.0
3851	29.605 29.605
3852	159.0 159.0
3853	28.706 28.706
3854	69.0 69.0
3855	28.422 28.422
3856	42.0 42.0
3857	29.138 29.138
3858	57.0 57.0
3859	29.664 29.664
3860	289.0 289.0
3861	28.972 28.972
3862	57.0 57.0
3863	27.076 27.076
3864	147.0 147.0
3865	25.061 25.061
3866	209.0 209.0
3867	35.229 35.229
3868	133.0 133.0
3869	26.661 26.661
3870	112.0 112.0
3871	25.61 25.61
3872	69.0 69.0
3873	34.527 34.527
3874	107.0 107.0
3875	25.959 25.959
3876	94.0 94.0
3877	23.845 23.845
3878	108.0 108.0
3879	28.361 28.361
3880	218.0 218.0
3881	25.065 25.065
3882	99.0 99.0
3883	24.82 24.82
3884	43.0 43.0
3885	26.317 26.317
3886	296.0 296.0
3887	30.526 30.526
3888	250.0 250.0
3889	27.997 27.997
3890	285.0 285.0
3891	27.795 27.795
3892	239.0 239.0
3893	30.111 30.111
3894	45.0 45.0
3895	27.511 27.511
3896	142.0 142.0
3897	28.793 28.793
3898	179.0 179.0
3899	28.323 28.323
3900	128.0 128.0
3901	27.777 27.777
3902	247.0 247.0
3903	27.49 27.49
3904	93.0 93.0
3905	28.07 28.07
3906	264.0 264.0
3907	29.274 29.274
3908	235.0 235.0
3909	34.011 34.011
3910	288.0 288.0
3911	24.593 24.593
3912	143.0 143.0
3913	31.612 31.612
3914	209.0 209.0
3915	29.824 29.824
3916	85.0 85.0
3917	31.682 31.682
3918	51.0 51.0
3919	26.391 26.391
3920	211.0 211.0
3921	26.109 26.109
3922	277.0 277.0
3923	31.374 31.374
3924	158.0 158.0
3925	32.177 32.177
3926	169.0 169.0
3927	35.122 35.122
3928	141.0 141.0
3929	32.504 32.504
3930	136.0 136.0
3931	25.309 25.309
3932	171.0 171.0
3933	40.322 40.322
3934	229.0 229.0
3935	25.713 25.713
3936	123.0 123.0
3937	36.328 36.328
3938	130.0 130.0
3939	25.82 25.82
3940	93.0 93.0
3941	24.687 24.687
3942	116.0 116.0
3943	34.04 34.04
3944	188.0 188.0
3945	29.54 29.54
3946	52.0 52.0
3947	26.406 26.406
3948	39.0 39.0
3949	24.468 24.468
3950	295.0 295.0
3951	25.26 25.26
3952	176.0 176.0
3953	27.403 27.403
3954	202.0 202.0
3955	28.345 28.345
3956	210.0 210.0
3957	27.75 27.75
3958	169.0 169.0
3959	27.704 27.704
3960	63.0 63.0
3961	28.471 28.471
3962	54.0 54.0
3963	24.643 24.643
3964	211.0 211.0
3965	24.85 24.85
3966	206.0 206.0
3967	26.762 26.762
3968	73.0 73.0
3969	35.277 35.277
3970	63.0 63.0
3971	28.09 28.09
3972	234.0 234.0
3973	24.299 24.299
3974	142.0 142.0
3975	30.373 30.373
3976	114.0 114.0
3977	27.98 27.98
3978	191.0 191.0
3979	30.67 30.67
3980	53.0 53.0
3981	23.741 23.741
3982	271.0 271.0
3983	25.471 25.471
3984	159.0 159.0
3985	23.532 23.532
3986	298.0 298.0
3987	24.567 24.567
3988	119.0 119.0
3989	27.579 27.579
3990	174.0 174.0
3991	32.056 32.056
3992	156.0 156.0
3993	26.924 26.924
3994	209.0 209.0
3995	29.271 29.271
3996	292.0 292.0
3997	34.016 34.016
3998	289.0 289.0
3999	38.039 38.039
4000	255.0 255.0
4001	24.949 24.949
4002	39.0 39.0
4003	26.08 26.08
4004	211.0 211.0
4005	25.826 25.826
4006	128.0 128.0
4007	24.756 24.756
4008	175.0 175.0
4009	26.078 26.078
4010	239.0 239.0
4011	28.954 28.954
4012	279.0 279.0
4013	30.984 30.984
4014	67.0 67.0
4015	24.209 24.209
4016	114.0 114.0
4017	28.05 28.05
4018	207.0 207.0
4019	24.076 24.076
4020	92.0 92.0
4021	29.354 29.354
4022	298.0 298.0
4023	24.051 24.051
4024	165.0 165.0
4025	25.606 25.606
4026	38.0 38.0
4027	25.418 25.418
4028	200.0 200.0
4029	24.863 24.863
4030	229.0 229.0
4031	25.199 25.199
4032	161.0 161.0
4033	25.639 25.639
4034	102.0 102.0
4035	26.124 26.124
4036	163.0 163.0
4037	25.999 25.999
4038	142.0 142.0
4039	24.388 24.388
4040	300.0 300.0
4041	32.216 32.216
4042	256.0 256.0
4043	24.985 24.985
4044	175.0 175.0
4045	24.409 24.409
4046	293.0 293.0
4047	24.697 24.697
4048	234.0 234.0
4049	27.543 27.543
4050	206.0 206.0
4051	25.077 25.077
4052	70.0 70.0
4053	24.815 24.815
4054	143.0 143.0
4055	24.207 24.207
4056	68.0 68.0
4057	26.153 26.153
4058	257.0 257.0
4059	31.3 31.3
4060	298.0 298.0
4061	24.845 24.845
4062	133.0 133.0
4063	29.304 29.304
4064	274.0 274.0
4065	30.795 30.795
4066	81.0 81.0
4067	24.041 24.041
4068	62.0 62.0
4069	25.45 25.45
4070	276.0 276.0
4071	24.278 24.278
4072	198.0 198.0
4073	23.531 23.531
4074	115.0 115.0
4075	30.54 30.54
4076	290.0 290.0
4077	24.059 24.059
4078	128.0 128.0
4079	25.134 25.134
4080	131.0 131.0
4081	26.221 26.221
4082	102.0 102.0
4083	24.802 24.802
4084	186.0 186.0
4085	32.458 32.458
4086	263.0 263.0
4087	29.521 29.521
4088	272.0 272.0
4089	28.778 28.778
4090	196.0 196.0
4091	28.405 28.405
4092	147.0 147.0
4093	29.103 29.103
4094	106.0 106.0
4095	28.377 28.377
4096	278.0 278.0
4097	23.753 23.753
4098	44.0 44.0
4099	30.967 30.967
4100	58.0 58.0
4101	28.909 28.909
4102	178.0 178.0
4103	25.055 25.055
4104	237.0 237.0
4105	25.222 25.222
4106	69.0 69.0
4107	24.198 24.198
4108	54.0 54.0
4109	23.983 23.983
4110	180.0 180.0
4111	27.039 27.039
4112	66.0 66.0
4113	24.296 24.296
4114	144.0 144.0
4115	24.692 24.692
4116	50.0 50.0
4117	25.204 25.204
4118	140.0 140.0
4119	26.584 26.584
4120	137.0 137.0
4121	24.062 24.062
4122	258.0 258.0
4123	25.319 25.319
4124	249.0 249.0
4125	27.566 27.566
4126	291.0 291.0
4127	26.701 26.701
4128	170.0 170.0
4129	27.23 27.23
4130	49.0 49.0
4131	28.716 28.716
4132	216.0 216.0
4133	26.259 26.259
4134	256.0 256.0
4135	27.98 27.98
4136	117.0 117.0
4137	36.393 36.393
4138	241.0 241.0
4139	24.077 24.077
4140	261.0 261.0
4141	27.714 27.714
4142	137.0 137.0
4143	25.053 25.053
4144	288.0 288.0
4145	26.238 26.238
4146	134.0 134.0
4147	27.136 27.136
4148	279.0 279.0
4149	26.319 26.319
4150	163.0 163.0
4151	24.916 24.916
4152	249.0 249.0
4153	24.386 24.386
4154	242.0 242.0
4155	25.576 25.576
4156	127.0 127.0
4157	24.491 24.491
4158	266.0 266.0
4159	25.504 25.504
4160	284.0 284.0
4161	27.744 27.744
4162	156.0 156.0
4163	24.101 24.101
4164	209.0 209.0
4165	24.089 24.089
4166	39.0 39.0
4167	26.589 26.589
4168	275.0 275.0
4169	24.568 24.568
4170	165.0 165.0
4171	24.046 24.046
4172	88.0 88.0
4173	25.253 25.253
4174	202.0 202.0
4175	26.006 26.006
4176	284.0 284.0
4177	24.202 24.202
4178	46.0 46.0
4179	25.282 25.282
4180	124.0 124.0
4181	24.14 24.14
4182	282.0 282.0
4183	28.992 28.992
4184	275.0 275.0
4185	27.793 27.793
4186	300.0 300.0
4187	24.709 24.709
4188	94.0 94.0
4189	25.567 25.567
4190	213.0 213.0
4191	31.068 31.068
4192	286.0 286.0
4193	28.917 28.917
4194	281.0 281.0
4195	24.065 24.065
4196	266.0 266.0
4197	27.9 27.9
4198	242.0 242.0
4199	26.051 26.051
4200	151.0 151.0
4201	24.933 24.933
4202	162.0 162.0
4203	27.775 27.775
4204	231.0 231.0
4205	29.34 29.34
4206	295.0 295.0
4207	35.695 35.695
4208	212.0 212.0
4209	25.8 25.8
4210	290.0 290.0
4211	27.396 27.396
4212	217.0 217.0
4213	24.083 24.083
4214	211.0 211.0
4215	25.396 25.396
4216	97.0 97.0
4217	24.24 24.24
4218	152.0 152.0
4219	26.717 26.717
4220	63.0 63.0
4221	33.586 33.586
4222	56.0 56.0
4223	32.603 32.603
4224	64.0 64.0
4225	27.581 27.581
4226	216.0 216.0
4227	26.651 26.651
4228	166.0 166.0
4229	25.983 25.983
4230	202.0 202.0
4231	34.092 34.092
4232	165.0 165.0
4233	25.261 25.261
4234	222.0 222.0
4235	26.513 26.513
4236	228.0 228.0
4237	24.071 24.071
4238	105.0 105.0
4239	24.337 24.337
4240	154.0 154.0
4241	26.408 26.408
4242	44.0 44.0
4243	36.377 36.377
4244	112.0 112.0
4245	24.255 24.255
4246	178.0 178.0
4247	27.716 27.716
4248	256.0 256.0
4249	24.462 24.462
4250	79.0 79.0
4251	23.895 23.895
4252	78.0 78.0
4253	26.384 26.384
4254	211.0 211.0
4255	30.329 30.329
4256	147.0 147.0
4257	27.694 27.694
4258	294.0 294.0
4259	31.057 31.057
4260	138.0 138.0
4261	24.714 24.714
4262	269.0 269.0
4263	24.421 24.421
4264	69.0 69.0
4265	24.332 24.332
4266	208.0 208.0
4267	24.536 24.536
4268	124.0 124.0
4269	24.925 24.925
4270	261.0 261.0
4271	27.185 27.185
4272	149.0 149.0
4273	25.18 25.18
4274	125.0 125.0
4275	24.773 24.773
4276	201.0 201.0
4277	24.263 24.263
4278	216.0 216.0
4279	24.347 24.347
4280	217.0 217.0
4281	30.737 30.737
4282	149.0 149.0
4283	29.551 29.551
4284	113.0 113.0
4285	28.686 28.686
4286	184.0 184.0
4287	24.264 24.264
4288	139.0 139.0
4289	24.642 24.642
4290	69.0 69.0
4291	24.563 24.563
4292	48.0 48.0
4293	27.623 27.623
4294	81.0 81.0
4295	27.464 27.464
4296	241.0 241.0
4297	28.455 28.455
4298	137.0 137.0
4299	25.916 25.916
4300	162.0 162.0
4301	27.124 27.124
4302	168.0 168.0
4303	37.689 37.689
4304	221.0 221.0
4305	24.717 24.717
4306	81.0 81.0
4307	28.705 28.705
4308	83.0 83.0
4309	26.982 26.982
4310	279.0 279.0
4311	25.984 25.984
4312	238.0 238.0
4313	29.245 29.245
4314	48.0 48.0
4315	25.096 25.096
4316	228.0 228.0
4317	24.633 24.633
4318	121.0 121.0
4319	23.719 23.719
4320	51.0 51.0
4321	24.025 24.025
4322	102.0 102.0
4323	24.838 24.838
4324	214.0 214.0
4325	26.106 26.106
4326	115.0 115.0
4327	24.432 24.432
4328	251.0 251.0
4329	24.76 24.76
4330	156.0 156.0
4331	31.778 31.778
4332	257.0 257.0
4333	24.591 24.591
4334	207.0 207.0
4335	24.846 24.846
4336	301.0 301.0
4337	29.479 29.479
4338	280.0 280.0
4339	24.116 24.116
4340	109.0 109.0
4341	30.913 30.913
4342	242.0 242.0
4343	24.646 24.646
4344	72.0 72.0
4345	29.512 29.512
4346	246.0 246.0
4347	24.014 24.014
4348	150.0 150.0
4349	26.936 26.936
4350	124.0 124.0
4351	25.84 25.84
4352	128.0 128.0
4353	24.447 24.447
4354	72.0 72.0
4355	26.912 26.912
4356	199.0 199.0
4357	25.921 25.921
4358	94.0 94.0
4359	24.157 24.157
4360	170.0 170.0
4361	24.452 24.452
4362	98.0 98.0
4363	25.072 25.072
4364	74.0 74.0
4365	30.018 30.018
4366	151.0 151.0
4367	29.689 29.689
4368	249.0 249.0
4369	28.824 28.824
4370	256.0 256.0
4371	27.865 27.865
4372	301.0 301.0
4373	33.635 33.635
4374	49.0 49.0
4375	35.36 35.36
4376	116.0 116.0
4377	27.97 27.97
4378	275.0 275.0
4379	24.109 24.109
4380	149.0 149.0
4381	24.109 24.109
4382	59.0 59.0
4383	37.877 37.877
4384	274.0 274.0
4385	27.105 27.105
4386	69.0 69.0
4387	27.421 27.421
4388	81.0 81.0
4389	36.704 36.704
4390	121.0 121.0
4391	26.91 26.91
4392	97.0 97.0
4393	35.683 35.683
4394	142.0 142.0
4395	27.632 27.632
4396	208.0 208.0
4397	29.021 29.021
4398	201.0 201.0
4399	35.269 35.269
4400	77.0 77.0
4401	36.108 36.108
4402	186.0 186.0
4403	27.152 27.152
4404	78.0 78.0
4405	26.659 26.659
4406	94.0 94.0
4407	36.076 36.076
4408	89.0 89.0
4409	25.442 25.442
4410	85.0 85.0
4411	24.739 24.739
4412	226.0 226.0
4413	29.127 29.127
4414	72.0 72.0
4415	24.475 24.475
4416	201.0 201.0
4417	24.647 24.647
4418	268.0 268.0
4419	26.68 26.68
4420	290.0 290.0
4421	27.737 27.737
4422	60.0 60.0
4423	38.719 38.719
4424	91.0 91.0
4425	25.203 25.203
4426	159.0 159.0
4427	27.62 27.62
4428	168.0 168.0
4429	24.937 24.937
4430	61.0 61.0
4431	29.5 29.5
4432	67.0 67.0
4433	26.994 26.994
4434	130.0 130.0
4435	29.661 29.661
4436	289.0 289.0
4437	24.34 24.34
4438	41.0 41.0
4439	30.861 30.861
4440	169.0 169.0
4441	26.456 26.456
4442	277.0 277.0
4443	31.36 31.36
4444	176.0 176.0
4445	28.92 28.92
4446	229.0 229.0
4447	30.457 30.457
4448	157.0 157.0
4449	25.799 25.799
4450	262.0 262.0
