,time,rtt,id
1581,1581,2230.0,1581
4450,4450,19.83,4450
1490,1490,13.505999999999998,1490
2493,2493,3079.0,2493
511,511,2755.0,511
2570,2570,15.8,2570
4037,4037,2321.0,4037
3356,3356,14.778,3356
3872,3872,14.44,3872
3429,3429,1593.0,3429
2938,2938,10.873,2938
1342,1342,15.361,1342
2546,2546,18.814,2546
3071,3071,1665.0,3071
2015,2015,509.0,2015
2012,2012,11.321,2012
3694,3694,80.311,3694
1677,1677,1293.0,1677
727,727,625.0,727
2010,2010,28.247,2010
1579,1579,633.0,1579
1318,1318,13.967,1318
3274,3274,16.527,3274
3077,3077,2514.0,3077
1586,1586,12.715,1586
1896,1896,24.801,1896
855,855,696.0,855
3668,3668,16.083,3668
2073,2073,1163.0,2073
2486,2486,15.271,2486
1022,1022,11.981,1022
4100,4100,11.648,4100
3098,3098,15.655,3098
3667,3667,3098.0,3667
2740,2740,17.75,2740
2483,2483,3386.0,2483
2045,2045,2410.0,2045
3550,3550,20.415,3550
756,756,75.332,756
4463,4463,955.0,4463
547,547,2214.0,547
2624,2624,23.32,2624
3210,3210,15.207,3210
3442,3442,41.27,3442
2476,2476,16.708,2476
3760,3760,11.285,3760
2581,2581,3446.0,2581
1729,1729,4193.0,1729
513,513,210.0,513
3588,3588,23.04,3588
3633,3633,2483.0,3633
3084,3084,16.166,3084
2124,2124,15.236,2124
1698,1698,23.685,1698
1446,1446,14.069,1446
2959,2959,1134.0,2959
763,763,3331.0,763
905,905,3037.0,905
1141,1141,2762.0,1141
3746,3746,11.427,3746
695,695,342.0,695
3863,3863,3259.0,3863
3064,3064,19.466,3064
3775,3775,3114.0,3775
2939,2939,2203.0,2939
2951,2951,2075.0,2951
1275,1275,438.0,1275
1862,1862,11.738,1862
2047,2047,310.0,2047
2391,2391,1745.0,2391
3865,3865,1909.0,3865
2175,2175,3058.0,2175
1206,1206,27.414,1206
2595,2595,639.0,2595
978,978,23.329,978
3841,3841,257.0,3841
3925,3925,3131.0,3925
2140,2140,12.938,2140
2540,2540,11.815,2540
798,798,11.354,798
2052,2052,22.422,2052
1191,1191,2374.0,1191
1174,1174,15.37,1174
3994,3994,193.455,3994
812,812,20.187,812
4231,4231,1303.0,4231
3121,3121,3516.0,3121
4382,4382,16.000999999999998,4382
4167,4167,102.0,4167
3089,3089,609.0,3089
2512,2512,54.40600000000001,2512
2112,2112,12.58,2112
2164,2164,25.618,2164
2092,2092,56.487,2092
1872,1872,11.322,1872
2397,2397,199.0,2397
928,928,11.499,928
4371,4371,3957.0,4371
1043,1043,742.0,1043
1717,1717,2142.0,1717
2871,2871,2237.0,2871
3446,3446,11.513,3446
4170,4170,21.852,4170
2750,2750,14.856,2750
2306,2306,107.96,2306
2212,2212,11.378,2212
2159,2159,715.0,2159
1924,1924,19.027,1924
818,818,29.252,818
3608,3608,138.351,3608
3992,3992,176.49200000000005,3992
3222,3222,17.377,3222
2658,2658,22.799,2658
2963,2963,1723.0,2963
1870,1870,13.222,1870
1664,1664,15.986,1664
2421,2421,2544.0,2421
4118,4118,14.332,4118
1920,1920,26.266,1920
623,623,3951.0,623
4001,4001,3936.0,4001
1368,1368,22.689,1368
773,773,3078.0,773
1684,1684,25.091,1684
3376,3376,15.963,3376
3004,3004,12.856,3004
4021,4021,3202.0,4021
720,720,13.812,720
1323,1323,3625.0,1323
4141,4141,128.0,4141
3177,3177,78.0,3177
4013,4013,776.0,4013
2040,2040,11.936,2040
4304,4304,19.02,4304
1438,1438,17.22,1438
4322,4322,10.255,4322
2258,2258,15.821,2258
1220,1220,15.015999999999998,1220
3583,3583,3888.0,3583
2008,2008,24.375,2008
1026,1026,14.880999999999998,1026
4122,4122,15.233,4122
2373,2373,1866.0,2373
1364,1364,24.428,1364
3825,3825,3653.0,3825
858,858,18.252,858
2452,2452,13.946,2452
1076,1076,15.677,1076
3728,3728,104.642,3728
2157,2157,3959.0,2157
2918,2918,12.975,2918
1751,1751,1549.0,1751
3032,3032,12.889,3032
740,740,16.541,740
4314,4314,70.12,4314
1479,1479,1759.0,1479
3047,3047,3869.0,3047
688,688,30.431,688
3847,3847,870.0,3847
4194,4194,12.459,4194
1722,1722,11.755,1722
2118,2118,15.422,2118
560,560,16.484,560
3180,3180,90.33,3180
1256,1256,16.534000000000002,1256
1559,1559,2798.0,1559
1667,1667,2850.0,1667
3526,3526,22.445,3526
1574,1574,16.543,1574
2637,2637,2496.0,2637
3244,3244,19.609,3244
3905,3905,2393.0,3905
895,895,3211.0,895
1916,1916,43.326,1916
955,955,661.0,955
1455,1455,2418.0,1455
2392,2392,14.485,2392
724,724,11.377,724
1239,1239,149.0,1239
2558,2558,36.695,2558
2226,2226,13.878,2226
1289,1289,1677.0,1289
1377,1377,972.0,1377
1809,1809,3287.0,1809
704,704,10.681,704
2245,2245,3840.0,2245
1903,1903,3582.0,1903
1977,1977,3263.0,1977
4042,4042,12.186,4042
3219,3219,3184.0,3219
2001,2001,1247.0,2001
2230,2230,11.462,2230
598,598,23.016,598
3839,3839,1983.0,3839
4258,4258,11.664,4258
2375,2375,1022.0,2375
1632,1632,14.843,1632
3384,3384,14.383,3384
2663,2663,3425.0,2663
2900,2900,30.945,2900
3348,3348,14.745,3348
2240,2240,16.102,2240
2610,2610,12.239,2610
859,859,422.0,859
1308,1308,10.748,1308
4206,4206,13.937,4206
2840,2840,24.397,2840
1675,1675,1758.0,1675
1018,1018,20.577,1018
566,566,15.018,566
2678,2678,15.293,2678
3349,3349,2391.0,3349
2810,2810,14.737,2810
2874,2874,13.046,2874
2738,2738,13.09,2738
3428,3428,18.879,3428
651,651,2931.0,651
2543,2543,1049.0,2543
578,578,11.826,578
577,577,3742.0,577
2393,2393,3510.0,2393
2672,2672,12.028,2672
4154,4154,32.684,4154
820,820,15.018,820
2783,2783,3944.0,2783
3860,3860,12.93,3860
948,948,16.095,948
3598,3598,17.803,3598
3468,3468,189.823,3468
3884,3884,14.007,3884
2980,2980,11.344,2980
1029,1029,264.0,1029
3698,3698,187.306,3698
3916,3916,147.22299999999996,3916
4245,4245,1123.0,4245
3182,3182,39.088,3182
2132,2132,13.068,2132
690,690,12.172,690
2867,2867,916.0,2867
906,906,33.371,906
3697,3697,3275.0,3697
3681,3681,3910.0,3681
1274,1274,13.069,1274
3021,3021,3338.0,3021
2418,2418,14.065,2418
4133,4133,3741.0,4133
2496,2496,17.525,2496
3576,3576,11.182,3576
783,783,4057.0,783
2011,2011,1221.0,2011
3055,3055,3018.0,3055
1738,1738,16.313,1738
3666,3666,16.61,3666
2103,2103,2629.0,2103
3719,3719,3379.0,3719
1063,1063,3238.0,1063
4328,4328,11.039,4328
933,933,840.0,933
2429,2429,2721.0,2429
4027,4027,1375.0,4027
2288,2288,19.442,2288
2021,2021,3414.0,2021
4216,4216,27.708,4216
3617,3617,1754.0,3617
3942,3942,73.935,3942
877,877,2412.0,877
3827,3827,3694.0,3827
2166,2166,16.543,2166
3451,3451,2966.0,3451
4413,4413,855.0,4413
3365,3365,2346.0,3365
2163,2163,794.0,2163
885,885,69.0,885
748,748,27.491,748
1996,1996,17.486,1996
4126,4126,21.605,4126
3306,3306,17.887999999999995,3306
3359,3359,2616.0,3359
2828,2828,13.892,2828
2729,2729,1849.0,2729
2379,2379,3747.0,2379
2113,2113,3866.0,2113
3765,3765,3870.0,3765
3305,3305,3601.0,3305
2170,2170,12.834,2170
1171,1171,3459.0,1171
589,589,2006.0,589
3135,3135,3114.0,3135
2441,2441,2403.0,2441
1553,1553,3566.0,1553
3658,3658,14.002,3658
2643,2643,2088.0,2643
718,718,39.705,718
3284,3284,14.444,3284
1830,1830,13.871,1830
1376,1376,12.491,1376
1306,1306,14.222,1306
4094,4094,13.618,4094
2715,2715,607.0,2715
1255,1255,246.0,1255
4124,4124,179.954,4124
4275,4275,1950.0,4275
1919,1919,2940.0,1919
3605,3605,1561.0,3605
1067,1067,392.0,1067
1260,1260,13.064,1260
3184,3184,53.682,3184
3228,3228,11.946,3228
2987,2987,2125.0,2987
1566,1566,24.128,1566
1970,1970,16.192999999999998,1970
2341,2341,352.0,2341
3963,3963,3595.0,3963
1594,1594,12.015999999999998,1594
1442,1442,17.344,1442
3082,3082,16.602999999999998,3082
2209,2209,2070.0,2209
1352,1352,15.278,1352
3642,3642,12.611,3642
2707,2707,3009.0,2707
3624,3624,13.213,3624
4296,4296,13.582,4296
2670,2670,11.05,2670
3205,3205,205.0,3205
1571,1571,3457.0,1571
3331,3331,1738.0,3331
1544,1544,16.579,1544
1429,1429,2347.0,1429
3595,3595,4129.0,3595
3939,3939,74.0,3939
4222,4222,17.84,4222
1994,1994,14.177,1994
3056,3056,11.327,3056
2767,2767,828.0,2767
3192,3192,17.774,3192
3048,3048,21.274,3048
3308,3308,12.869000000000002,3308
3958,3958,197.262,3958
3009,3009,1175.0,3009
2592,2592,20.659,2592
4370,4370,17.618,4370
776,776,43.43899999999999,776
3161,3161,3773.0,3161
1699,1699,712.0,1699
4045,4045,1980.0,4045
1510,1510,14.526,1510
4079,4079,2619.0,4079
700,700,48.591,700
2773,2773,992.0,2773
4164,4164,12.898,4164
3226,3226,12.435,3226
2425,2425,170.0,2425
1182,1182,10.783,1182
2548,2548,15.138,2548
1971,1971,3879.0,1971
861,861,3058.0,861
1822,1822,19.077,1822
2024,2024,27.65,2024
4373,4373,493.0,4373
4175,4175,936.0,4175
4429,4429,2341.0,4429
2757,2757,737.0,2757
1786,1786,15.205,1786
2858,2858,15.714,2858
3830,3830,10.83,3830
2200,2200,18.811,2200
2909,2909,2827.0,2909
1974,1974,27.891,1974
3522,3522,11.476,3522
2824,2824,14.073,2824
4068,4068,179.2,4068
3758,3758,11.521,3758
950,950,17.271,950
1580,1580,10.482,1580
504,504,24.39,504
3816,3816,15.743,3816
1943,1943,3955.0,1943
1509,1509,3924.0,1509
3506,3506,12.161,3506
3648,3648,11.597,3648
1922,1922,26.657,1922
2329,2329,4153.0,2329
1016,1016,13.856,1016
3362,3362,28.051,3362
956,956,16.581,956
4090,4090,132.069,4090
3785,3785,716.0,3785
3933,3933,3401.0,3933
1126,1126,34.012,1126
2768,2768,12.37,2768
1905,1905,361.0,1905
2108,2108,16.12,2108
1685,1685,2240.0,1685
1771,1771,1530.0,1771
3629,3629,910.0,3629
708,708,14.025,708
675,675,509.0,675
751,751,2804.0,751
4129,4129,2227.0,4129
1923,1923,2814.0,1923
4019,4019,3553.0,4019
1760,1760,15.231,1760
3063,3063,231.0,3063
3324,3324,23.363000000000003,3324
3582,3582,13.569,3582
2334,2334,30.243,2334
2424,2424,11.135,2424
2989,2989,3413.0,2989
1577,1577,3263.0,1577
1756,1756,10.927,1756
1301,1301,3629.0,1301
4018,4018,27.349,4018
2527,2527,232.0,2527
784,784,12.139,784
3020,3020,11.464,3020
520,520,28.35,520
2419,2419,220.0,2419
2509,2509,1768.0,2509
3767,3767,3665.0,3767
4097,4097,3394.0,4097
4317,4317,2162.0,4317
2760,2760,14.557,2760
3947,3947,1911.0,3947
912,912,16.769000000000002,912
3692,3692,17.937,3692
3503,3503,1489.0,3503
2127,2127,3640.0,2127
941,941,634.0,941
4447,4447,3852.0,4447
1938,1938,19.285,1938
1670,1670,32.085,1670
666,666,12.783,666
2903,2903,3647.0,2903
3044,3044,11.77,3044
3263,3263,2951.0,3263
897,897,210.0,897
2414,2414,27.384,2414
2528,2528,14.942,2528
1616,1616,21.234,1616
4107,4107,3120.0,4107
2260,2260,14.475,2260
1637,1637,639.0,1637
3481,3481,2219.0,3481
3788,3788,19.232,3788
4339,4339,415.0,4339
1523,1523,3613.0,1523
3033,3033,838.0,3033
742,742,12.265999999999998,742
3317,3317,372.0,3317
1158,1158,15.247,1158
3791,3791,1467.0,3791
4335,4335,2562.0,4335
2892,2892,11.405,2892
2911,2911,607.0,2911
3150,3150,83.434,3150
2724,2724,20.507,2724
2895,2895,1024.0,2895
2886,2886,20.033,2886
2910,2910,15.134,2910
1395,1395,1421.0,1395
3784,3784,19.959,3784
3372,3372,16.863,3372
3267,3267,2841.0,3267
3710,3710,161.875,3710
4155,4155,902.0,4155
593,593,1628.0,593
1910,1910,22.26,1910
3893,3893,1279.0,3893
571,571,3904.0,571
1696,1696,11.999,1696
562,562,58.642,562
3031,3031,3565.0,3031
1037,1037,1858.0,1037
1339,1339,3082.0,1339
2297,2297,443.0,2297
1768,1768,18.737,1768
3610,3610,130.359,3610
2426,2426,11.405,2426
1462,1462,11.043,1462
1575,1575,1694.0,1575
3796,3796,13.023,3796
1147,1147,1100.0,1147
2366,2366,14.571,2366
1212,1212,24.321,1212
977,977,2129.0,977
3186,3186,24.085,3186
2535,2535,1383.0,2535
3364,3364,18.389,3364
1161,1161,4009.0,1161
4355,4355,2308.0,4355
754,754,15.212,754
934,934,24.173,934
714,714,13.877,714
3236,3236,109.824,3236
2860,2860,22.402,2860
3627,3627,1644.0,3627
1155,1155,1086.0,1155
1330,1330,11.732,1330
3818,3818,13.78,3818
1558,1558,11.687,1558
1307,1307,2703.0,1307
3194,3194,155.75799999999995,3194
2304,2304,17.410999999999998,2304
592,592,16.185,592
3524,3524,11.05,3524
2934,2934,11.009,2934
1436,1436,14.492,1436
2687,2687,1631.0,2687
2699,2699,2189.0,2699
3093,3093,1756.0,3093
521,521,509.0,521
2155,2155,542.0,2155
3973,3973,2274.0,3973
4426,4426,11.626,4426
3525,3525,1120.0,3525
1138,1138,19.341,1138
4378,4378,13.547,4378
3440,3440,11.944,3440
2344,2344,16.021,2344
787,787,1925.0,787
3773,3773,1505.0,3773
2131,2131,645.0,2131
3644,3644,12.153,3644
3447,3447,1844.0,3447
1082,1082,28.519,1082
3898,3898,30.344,3898
1094,1094,20.52,1094
1004,1004,15.873,1004
3319,3319,3116.0,3319
1291,1291,3387.0,1291
3968,3968,11.720999999999998,3968
3122,3122,12.795,3122
2690,2690,15.82,2690
4076,4076,10.562,4076
641,641,1750.0,641
509,509,2852.0,509
3275,3275,3814.0,3275
3431,3431,2177.0,3431
902,902,59.863,902
4131,4131,116.0,4131
2822,2822,21.758000000000006,2822
1672,1672,12.375,1672
1619,1619,3192.0,1619
2142,2142,30.263,2142
659,659,3713.0,659
2289,2289,3567.0,2289
4183,4183,405.0,4183
2954,2954,12.487,2954
953,953,2581.0,953
3251,3251,1257.0,3251
4193,4193,1723.0,4193
1931,1931,2744.0,1931
1820,1820,14.238,1820
3834,3834,20.835,3834
2315,2315,1242.0,2315
1124,1124,24.744,1124
1384,1384,13.997,1384
1648,1648,13.5,1648
3748,3748,10.544,3748
2902,2902,11.707,2902
1552,1552,12.985,1552
741,741,2623.0,741
3568,3568,13.437,3568
3794,3794,20.538,3794
3269,3269,68.0,3269
1630,1630,26.325,1630
3387,3387,806.0,3387
3998,3998,22.294,3998
1908,1908,25.997,1908
1382,1382,32.876999999999995,1382
1986,1986,19.267,1986
2520,2520,12.946,2520
4427,4427,1418.0,4427
4084,4084,11.695,4084
2430,2430,14.433,2430
2478,2478,11.612,2478
3253,3253,513.0,3253
3845,3845,1792.0,3845
2735,2735,1934.0,2735
2077,2077,1123.0,2077
3606,3606,129.431,3606
3136,3136,20.117,3136
582,582,12.083,582
775,775,3048.0,775
3225,3225,866.0,3225
604,604,15.765,604
2246,2246,16.047,2246
3663,3663,3402.0,3663
2711,2711,395.0,2711
1501,1501,3825.0,1501
3660,3660,203.802,3660
4078,4078,12.024,4078
3835,3835,2604.0,3835
1941,1941,1421.0,1941
2805,2805,832.0,2805
3699,3699,3891.0,3699
1437,1437,2909.0,1437
2887,2887,2254.0,2887
3017,3017,862.0,3017
1123,1123,3315.0,1123
4397,4397,359.0,4397
2249,2249,2521.0,2249
2091,2091,1767.0,2091
974,974,14.953,974
1250,1250,45.99100000000001,1250
803,803,691.0,803
2986,2986,17.547,2986
2199,2199,3315.0,2199
3988,3988,178.09099999999995,3988
4404,4404,11.377,4404
680,680,31.634,680
3574,3574,14.813,3574
1556,1556,14.294,1556
4267,4267,1520.0,4267
4052,4052,35.299,4052
1633,1633,3584.0,1633
2629,2629,2433.0,2629
1341,1341,1763.0,1341
2957,2957,3344.0,2957
2177,2177,3315.0,2177
1019,1019,2298.0,1019
3453,3453,2165.0,3453
3873,3873,599.0,3873
3449,3449,2032.0,3449
1838,1838,12.129,1838
1724,1724,25.371,1724
1036,1036,15.133,1036
2997,2997,3291.0,2997
1839,1839,1463.0,1839
911,911,2749.0,911
1099,1099,958.0,1099
870,870,10.77,870
2135,2135,995.0,2135
989,989,4176.0,989
2380,2380,23.977,2380
1299,1299,1595.0,1299
2365,2365,778.0,2365
3351,3351,194.0,3351
1557,1557,1896.0,1557
3564,3564,13.371,3564
3896,3896,13.175999999999998,3896
3615,3615,3515.0,3615
2683,2683,3840.0,2683
1139,1139,2120.0,1139
2833,2833,1171.0,2833
1624,1624,22.972,1624
4152,4152,14.861,4152
772,772,17.735,772
3085,3085,1422.0,3085
2943,2943,2413.0,2943
3862,3862,18.0,3862
1210,1210,14.345999999999998,1210
3475,3475,2471.0,3475
3254,3254,37.154,3254
3283,3283,2022.0,3283
1961,1961,1385.0,1961
1733,1733,4146.0,1733
4388,4388,13.569,4388
2298,2298,14.763,2298
1680,1680,14.727,1680
2518,2518,18.16,2518
2094,2094,14.665,2094
1427,1427,2109.0,1427
2863,2863,872.0,2863
1505,1505,501.0,1505
1620,1620,93.033,1620
4286,4286,10.998,4286
1493,1493,1917.0,1493
2803,2803,1019.0,2803
4130,4130,12.664,4130
1573,1573,4038.0,1573
1186,1186,13.292,1186
4331,4331,1463.0,4331
2499,2499,573.0,2499
3404,3404,59.322,3404
4312,4312,15.238,4312
2427,2427,417.0,2427
2796,2796,44.169,2796
3406,3406,142.9,3406
2899,2899,3000.0,2899
4417,4417,1598.0,4417
3024,3024,11.834,3024
852,852,22.322,852
2681,2681,1752.0,2681
983,983,3527.0,983
2508,2508,27.486,2508
2095,2095,745.0,2095
3329,3329,4103.0,3329
3679,3679,66.0,3679
1660,1660,18.436,1660
931,931,1994.0,931
2733,2733,1924.0,2733
1478,1478,14.999,1478
3811,3811,1530.0,3811
630,630,26.002,630
702,702,14.17,702
867,867,2627.0,867
1805,1805,4005.0,1805
3571,3571,118.0,3571
1097,1097,1400.0,1097
2861,2861,3306.0,2861
2529,2529,2002.0,2529
4436,4436,12.455,4436
2062,2062,12.630999999999998,2062
3688,3688,22.017,3688
1641,1641,2439.0,1641
3751,3751,1614.0,3751
3529,3529,2520.0,3529
717,717,4168.0,717
707,707,889.0,707
1913,1913,1215.0,1913
2970,2970,14.419,2970
2186,2186,125.825,2186
2154,2154,23.192,2154
2359,2359,443.0,2359
2575,2575,3399.0,2575
1414,1414,15.752,1414
3234,3234,13.604,3234
3233,3233,3403.0,3233
3139,3139,445.0,3139
2673,2673,1432.0,2673
1686,1686,10.976,1686
1801,1801,4171.0,1801
3379,3379,2486.0,3379
2953,2953,4006.0,2953
4015,4015,1765.0,4015
2788,2788,26.364,2788
4368,4368,26.188,4368
2908,2908,30.599,2908
506,506,10.494000000000002,506
1763,1763,2392.0,1763
3774,3774,12.289,3774
2826,2826,14.279000000000002,2826
2206,2206,19.557,2206
4199,4199,2656.0,4199
4054,4054,30.253,4054
4230,4230,11.494000000000002,4230
3965,3965,2720.0,3965
3589,3589,3533.0,3589
2480,2480,12.404000000000002,2480
558,558,18.336,558
2904,2904,21.026,2904
4431,4431,1215.0,4431
3361,3361,3028.0,3361
4229,4229,970.0,4229
875,875,2806.0,875
2665,2665,3905.0,2665
2123,2123,1789.0,2123
2059,2059,35.0,2059
2770,2770,11.672,2770
1102,1102,15.139,1102
1001,1001,541.0,1001
3715,3715,4034.0,3715
1244,1244,13.300999999999998,1244
1671,1671,3513.0,1671
2615,2615,617.0,2615
1148,1148,20.568,1148
3413,3413,744.0,3413
619,619,2846.0,619
2766,2766,26.593000000000004,2766
2276,2276,161.07299999999995,2276
3701,3701,348.0,3701
3482,3482,12.925999999999998,3482
876,876,13.013,876
2105,2105,1127.0,2105
2314,2314,17.525,2314
4138,4138,14.067,4138
3437,3437,2178.0,3437
1665,1665,2604.0,1665
3280,3280,15.455,3280
2517,2517,1953.0,2517
1408,1408,12.223,1408
1824,1824,14.996,1824
1241,1241,787.0,1241
1293,1293,557.0,1293
4237,4237,4152.0,4237
2507,2507,3050.0,2507
4294,4294,58.911,4294
2350,2350,17.401,2350
568,568,16.022000000000002,568
3714,3714,13.214,3714
1532,1532,14.901,1532
2771,2771,1021.0,2771
2447,2447,3907.0,2447
3596,3596,122.999,3596
4000,4000,198.093,4000
4144,4144,160.915,4144
811,811,4095.0,811
819,819,991.0,819
1711,1711,1728.0,1711
1456,1456,21.853,1456
3635,3635,2171.0,3635
2236,2236,109.597,2236
4051,4051,676.0,4051
684,684,13.334,684
3520,3520,10.621,3520
1593,1593,3717.0,1593
2178,2178,15.175,2178
3419,3419,4165.0,3419
4342,4342,14.445,4342
924,924,48.094,924
3986,3986,52.9,3986
1267,1267,3247.0,1267
2000,2000,14.752,2000
3759,3759,2425.0,3759
3293,3293,1582.0,3293
1754,1754,16.953,1754
3272,3272,14.063,3272
2872,2872,33.424,2872
1524,1524,16.273,1524
844,844,35.437,844
2284,2284,11.632,2284
1014,1014,16.129,1014
1362,1362,12.473,1362
2374,2374,17.652,2374
833,833,1828.0,833
1471,1471,2647.0,1471
4313,4313,3187.0,4313
3892,3892,15.18,3892
1062,1062,14.173,1062
1743,1743,1251.0,1743
4282,4282,14.761,4282
4449,4449,1604.0,4449
2808,2808,22.221,2808
3680,3680,15.177,3680
1982,1982,12.21,1982
3807,3807,4033.0,3807
4383,4383,4055.0,4383
1578,1578,18.689,1578
1639,1639,1757.0,1639
2818,2818,14.525,2818
3641,3641,1474.0,3641
1765,1765,4028.0,1765
958,958,14.385,958
1928,1928,30.989,1928
979,979,3877.0,979
4207,4207,3876.0,4207
2795,2795,3096.0,2795
2657,2657,3173.0,2657
738,738,42.42100000000001,738
1585,1585,1428.0,1585
3243,3243,2743.0,3243
3087,3087,676.0,3087
2710,2710,15.68,2710
1329,1329,2740.0,1329
2793,2793,1767.0,2793
716,716,28.796,716
2353,2353,2096.0,2353
1603,1603,817.0,1603
1669,1669,923.0,1669
1334,1334,15.081,1334
1317,1317,2456.0,1317
4110,4110,152.053,4110
3928,3928,43.459,3928
1027,1027,868.0,1027
3271,3271,330.0,3271
3158,3158,174.144,3158
1714,1714,15.718,1714
4262,4262,12.165,4262
3693,3693,1833.0,3693
3286,3286,19.38,3286
1246,1246,19.241,1246
2122,2122,12.311,2122
1492,1492,14.563,1492
909,909,2906.0,909
1452,1452,16.39,1452
834,834,14.357,834
1678,1678,10.817,1678
2519,2519,2069.0,2519
1090,1090,12.135,1090
4017,4017,2968.0,4017
1472,1472,24.592,1472
935,935,3135.0,935
4158,4158,18.64,4158
3783,3783,448.0,3783
4293,4293,3379.0,4293
4246,4246,16.69,4246
1525,1525,1968.0,1525
898,898,18.26,898
4024,4024,11.944,4024
545,545,2196.0,545
3051,3051,591.0,3051
3467,3467,365.0,3467
3854,3854,22.526,3854
2461,2461,964.0,2461
621,621,61.0,621
2290,2290,179.514,2290
3549,3549,950.0,3549
815,815,3889.0,815
2661,2661,241.0,2661
2547,2547,2398.0,2547
2565,2565,1545.0,2565
608,608,33.265,608
1066,1066,55.133,1066
3418,3418,166.104,3418
2500,2500,12.75,2500
4411,4411,1145.0,4411
3405,3405,376.0,3405
1720,1720,12.75,1720
3676,3676,31.094,3676
3616,3616,24.233,3616
3022,3022,11.203,3022
2816,2816,15.147,2816
4125,4125,3942.0,4125
2261,2261,4019.0,2261
4285,4285,1611.0,4285
3100,3100,13.429,3100
1179,1179,1906.0,1179
4136,4136,177.627,4136
1597,1597,1345.0,1597
1054,1054,13.242,1054
1184,1184,22.124,1184
572,572,28.735,572
1909,1909,1028.0,1909
918,918,12.401,918
1262,1262,23.254,1262
1568,1568,19.868,1568
1181,1181,3666.0,1181
1939,1939,1350.0,1939
1003,1003,977.0,1003
595,595,747.0,595
2677,2677,986.0,2677
2446,2446,19.37,2446
2093,2093,2007.0,2093
810,810,17.401,810
2275,2275,1467.0,2275
1514,1514,14.609000000000002,1514
1742,1742,12.175,1742
1000,1000,13.837,1000
1859,1859,1149.0,1859
3778,3778,17.829,3778
1415,1415,1295.0,1415
4113,4113,1625.0,4113
4357,4357,1532.0,4357
3401,3401,2863.0,3401
3037,3037,986.0,3037
1631,1631,3668.0,1631
1247,1247,2623.0,1247
3833,3833,1927.0,3833
2361,2361,4127.0,2361
3882,3882,16.54,3882
2214,2214,10.772,2214
1035,1035,3702.0,1035
3837,3837,4115.0,3837
3499,3499,2746.0,3499
3149,3149,633.0,3149
4455,4455,3647.0,4455
2937,2937,3286.0,2937
2762,2762,15.602,2762
726,726,11.783,726
2362,2362,16.177,2362
4108,4108,12.384,4108
4071,4071,818.0,4071
2472,2472,11.825,2472
2318,2318,166.69,2318
2763,2763,597.0,2763
4384,4384,11.158,4384
4028,4028,11.739,4028
3590,3590,51.339,3590
1508,1508,13.037,1508
1412,1412,17.909000000000006,1412
2515,2515,1788.0,2515
2756,2756,28.725,2756
1965,1965,3375.0,1965
770,770,11.744000000000002,770
3603,3603,3258.0,3603
4330,4330,14.355,4330
4105,4105,2504.0,4105
3099,3099,3455.0,3099
2162,2162,17.383,2162
1280,1280,32.151,1280
3566,3566,13.724,3566
617,617,2484.0,617
3189,3189,2353.0,3189
4360,4360,19.404,4360
755,755,1183.0,755
2263,2263,3016.0,2263
4306,4306,55.497,4306
3337,3337,2624.0,3337
1202,1202,16.261,1202
1170,1170,11.175,1170
3849,3849,2571.0,3849
766,766,14.415,766
3850,3850,19.821,3850
1176,1176,35.891,1176
565,565,2269.0,565
1873,1873,305.0,1873
3259,3259,1923.0,3259
2134,2134,16.41,2134
960,960,16.964000000000002,960
4060,4060,13.664,4060
3412,3412,18.895,3412
4249,4249,2623.0,4249
1695,1695,1837.0,1695
1051,1051,3056.0,1051
3753,3753,3406.0,3753
3054,3054,15.634,3054
1893,1893,886.0,1893
3043,3043,3673.0,3043
3604,3604,20.913,3604
3464,3464,21.079,3464
4446,4446,20.084,4446
2454,2454,17.680999999999994,2454
596,596,25.242,596
1968,1968,27.107,1968
2576,2576,23.172,2576
2330,2330,16.837,2330
1621,1621,3831.0,1621
1218,1218,12.412,1218
1183,1183,2345.0,1183
2731,2731,4076.0,2731
2264,2264,26.889,2264
3952,3952,13.696,3952
2235,2235,445.0,2235
3046,3046,16.885,3046
2868,2868,15.402,2868
3479,3479,781.0,3479
3755,3755,1995.0,3755
1481,1481,2298.0,1481
4169,4169,1550.0,4169
2364,2364,17.151,2364
2653,2653,454.0,2653
3416,3416,19.371,3416
3718,3718,15.244000000000002,3718
1592,1592,22.71,1592
2847,2847,983.0,2847
1189,1189,3102.0,1189
1513,1513,1054.0,1513
3880,3880,11.39,3880
1165,1165,1312.0,1165
1450,1450,14.55,1450
2964,2964,14.889,2964
887,887,2201.0,887
1178,1178,11.72,1178
2914,2914,12.725,2914
1861,1861,1356.0,1861
2820,2820,11.427,2820
2950,2950,13.921,2950
997,997,367.0,997
1741,1741,3282.0,1741
683,683,2295.0,683
915,915,3013.0,915
637,637,1121.0,637
1730,1730,10.084,1730
3103,3103,1491.0,3103
828,828,13.527,828
4407,4407,3775.0,4407
1879,1879,3159.0,1879
4469,4469,1823.0,4469
2537,2537,3879.0,2537
4393,4393,3354.0,4393
970,970,16.184,970
992,992,14.014,992
2642,2642,12.02,2642
2076,2076,12.683,2076
2187,2187,3404.0,2187
4226,4226,11.863,4226
3448,3448,12.231,3448
3628,3628,20.06,3628
821,821,486.0,821
3148,3148,18.436,3148
2559,2559,3175.0,2559
2728,2728,20.153,2728
1690,1690,63.984,1690
4074,4074,33.559,4074
4390,4390,26.679,4390
4036,4036,11.627,4036
4412,4412,27.631,4412
2016,2016,14.019,2016
1226,1226,52.639,1226
1337,1337,4117.0,1337
2919,2919,1897.0,2919
2813,2813,1489.0,2813
2463,2463,3261.0,2463
3129,3129,331.0,3129
2830,2830,18.929,2830
3206,3206,179.854,3206
1890,1890,27.591,1890
2693,2693,941.0,2693
1358,1358,13.808,1358
3162,3162,11.546,3162
3191,3191,3420.0,3191
2025,2025,3435.0,2025
3081,3081,3344.0,3081
4005,4005,1484.0,4005
1290,1290,15.503,1290
3123,3123,2152.0,3123
557,557,2635.0,557
4102,4102,12.759,4102
2782,2782,13.553,2782
3493,3493,3975.0,3493
4190,4190,13.852,4190
1315,1315,531.0,1315
2608,2608,12.945,2608
3185,3185,3492.0,3185
3078,3078,13.742,3078
3601,3601,2214.0,3601
3639,3639,118.0,3639
1278,1278,12.535,1278
3038,3038,14.970999999999998,3038
752,752,17.004,752
3532,3532,10.653,3532
4111,4111,4103.0,4111
1788,1788,16.336,1788
2097,2097,359.0,2097
3394,3394,181.66,3394
2582,2582,42.68,2582
2955,2955,3436.0,2955
1263,1263,1382.0,1263
3843,3843,1674.0,3843
1798,1798,14.7,1798
1858,1858,13.405,1858
842,842,14.755999999999998,842
848,848,24.691,848
3049,3049,3166.0,3049
3732,3732,33.947,3732
3152,3152,184.124,3152
2345,2345,3261.0,2345
823,823,116.0,823
3358,3358,158.019,3358
747,747,1891.0,747
2370,2370,16.175,2370
4327,4327,325.0,4327
736,736,23.072,736
1188,1188,15.487,1188
524,524,14.773,524
1612,1612,14.729,1612
2464,2464,15.778,2464
1746,1746,17.258,1746
2335,2335,684.0,2335
3011,3011,2968.0,3011
3906,3906,14.328,3906
4061,4061,2056.0,4061
824,824,17.559,824
3282,3282,18.103,3282
3842,3842,21.657,3842
1372,1372,15.309,1372
2443,2443,1773.0,2443
4086,4086,16.586,4086
4010,4010,14.953,4010
1224,1224,12.318,1224
4333,4333,982.0,4333
4072,4072,17.562,4072
3557,3557,4113.0,3557
3903,3903,293.0,3903
1423,1423,2058.0,1423
2281,2281,1393.0,2281
3490,3490,22.613000000000003,3490
3466,3466,19.871,3466
2194,2194,19.253,2194
4070,4070,41.254,4070
3053,3053,2279.0,3053
988,988,32.519,988
3565,3565,758.0,3565
945,945,3406.0,945
3120,3120,19.79,3120
3198,3198,22.075,3198
4009,4009,1357.0,4009
1232,1232,19.917,1232
2603,2603,1012.0,2603
1878,1878,14.68,1878
3650,3650,22.517,3650
765,765,3348.0,765
2301,2301,860.0,2301
2521,2521,2746.0,2521
1810,1810,10.921,1810
1228,1228,20.814,1228
3675,3675,2026.0,3675
1052,1052,18.935,1052
1967,1967,2607.0,1967
4352,4352,10.73,4352
2360,2360,31.895,2360
1867,1867,3224.0,1867
4043,4043,1147.0,4043
3978,3978,70.492,3978
2180,2180,32.194,2180
1814,1814,11.289,1814
3989,3989,3352.0,3989
2550,2550,12.294,2550
3921,3921,230.0,3921
1311,1311,790.0,1311
3141,3141,2974.0,3141
4395,4395,3730.0,4395
4145,4145,2443.0,4145
3534,3534,14.731,3534
3519,3519,2159.0,3519
3290,3290,205.285,3290
2423,2423,3114.0,2423
2709,2709,2477.0,2709
2017,2017,1848.0,2017
2109,2109,246.0,2109
3169,3169,3775.0,3169
761,761,590.0,761
634,634,17.458,634
1410,1410,13.838,1410
1881,1881,1788.0,1881
3717,3717,2640.0,3717
4064,4064,18.107,4064
2985,2985,1542.0,2985
1096,1096,12.812,1096
3209,3209,651.0,3209
1297,1297,3606.0,1297
4091,4091,310.0,4091
2057,2057,4060.0,2057
3061,3061,3366.0,3061
3869,3869,3396.0,3869
1213,1213,120.0,1213
1237,1237,3648.0,1237
3505,3505,3038.0,3505
886,886,12.039,886
1516,1516,52.613,1516
4439,4439,995.0,4439
2524,2524,13.667,2524
3264,3264,160.606,3264
1851,1851,2956.0,1851
1116,1116,14.764,1116
1951,1951,1446.0,1951
2259,2259,2579.0,2259
1252,1252,11.556,1252
2243,2243,1525.0,2243
2617,2617,494.0,2617
1279,1279,2683.0,1279
3597,3597,1602.0,3597
536,536,14.754,536
3245,3245,1855.0,3245
4016,4016,204.292,4016
3766,3766,13.948,3766
1391,1391,221.0,1391
2621,2621,2011.0,2621
1057,1057,3357.0,1057
2734,2734,12.934,2734
569,569,1482.0,569
4356,4356,22.3,4356
758,758,11.201,758
2823,2823,981.0,2823
3248,3248,16.102,3248
2160,2160,34.315,2160
1281,1281,1725.0,1281
3646,3646,11.91,3646
1811,1811,3784.0,1811
995,995,2785.0,995
737,737,724.0,737
3941,3941,1802.0,3941
3752,3752,10.629,3752
1251,1251,3862.0,1251
4148,4148,10.826,4148
3867,3867,2534.0,3867
3961,3961,1679.0,3961
2969,2969,1678.0,2969
4318,4318,22.458,4318
1487,1487,3321.0,1487
624,624,16.613,624
2688,2688,23.008000000000006,2688
588,588,10.649,588
2146,2146,27.016,2146
3611,3611,1737.0,3611
809,809,3505.0,809
2310,2310,99.99,2310
2336,2336,157.84799999999996,2336
2007,2007,1609.0,2007
3402,3402,13.217,3402
1473,1473,1577.0,1473
2572,2572,12.519,2572
2211,2211,3884.0,2211
3357,3357,2034.0,3357
1647,1647,1616.0,1647
2533,2533,1748.0,2533
4008,4008,18.501,4008
2247,2247,3378.0,2247
1646,1646,17.255,1646
2966,2966,16.544,2966
3684,3684,14.453,3684
3207,3207,1674.0,3207
3108,3108,14.196,3108
3737,3737,2164.0,3737
2873,2873,3369.0,2873
1588,1588,12.970999999999998,1588
3652,3652,11.103,3652
1925,1925,278.0,1925
878,878,19.745,878
1835,1835,3080.0,1835
3579,3579,3527.0,3579
2785,2785,4138.0,2785
1972,1972,39.88,1972
3779,3779,2873.0,3779
3408,3408,151.398,3408
2473,2473,705.0,2473
1640,1640,26.067,1640
2020,2020,11.907,2020
722,722,13.72,722
1918,1918,14.488,1918
677,677,4011.0,677
1590,1590,11.414,1590
2458,2458,14.875,2458
4424,4424,32.831,4424
2066,2066,16.577,2066
669,669,4002.0,669
3315,3315,1506.0,3315
4218,4218,15.34,4218
1020,1020,15.691,1020
883,883,3793.0,883
2619,2619,170.0,2619
3911,3911,3446.0,3911
517,517,673.0,517
1328,1328,18.874,1328
2208,2208,99.101,2208
4213,4213,273.0,4213
4349,4349,2929.0,4349
4266,4266,12.008,4266
2776,2776,13.388,2776
4303,4303,1148.0,4303
946,946,10.57,946
2879,2879,1250.0,2879
4247,4247,1862.0,4247
2506,2506,15.582,2506
3154,3154,103.014,3154
2811,2811,2581.0,2811
2590,2590,19.95,2590
3045,3045,1816.0,3045
2102,2102,15.204,2102
2449,2449,2433.0,2449
2116,2116,16.06,2116
3951,3951,1527.0,3951
4142,4142,10.414,4142
4047,4047,1593.0,4047
606,606,14.127,606
663,663,552.0,663
1059,1059,1598.0,1059
986,986,32.613,986
1379,1379,799.0,1379
4269,4269,2126.0,4269
3203,3203,2377.0,3203
1615,1615,3436.0,1615
3042,3042,20.124,3042
966,966,14.637,966
2346,2346,82.87799999999999,2346
4273,4273,4123.0,4273
1300,1300,15.83,1300
1296,1296,20.585,1296
1705,1705,3039.0,1705
2114,2114,24.916,2114
2530,2530,16.61,2530
1258,1258,10.759,1258
3080,3080,25.067,3080
1572,1572,14.451,1572
873,873,4111.0,873
2702,2702,14.946,2702
2739,2739,2364.0,2739
2791,2791,3323.0,2791
4197,4197,1173.0,4197
3444,3444,17.262,3444
2387,2387,710.0,2387
3270,3270,19.663,3270
1464,1464,11.121,1464
2933,2933,4031.0,2933
2453,2453,2623.0,2453
628,628,15.796,628
3126,3126,15.389,3126
2444,2444,13.288,2444
2850,2850,13.619000000000002,2850
3802,3802,17.828,3802
3705,3705,3542.0,3705
3398,3398,201.073,3398
1400,1400,22.564,1400
1378,1378,127.532,1378
4456,4456,35.966,4456
2265,2265,1925.0,2265
1953,1953,3284.0,1953
3155,3155,4149.0,3155
2248,2248,42.39,2248
1962,1962,13.973,1962
2698,2698,14.514,2698
1899,1899,4119.0,1899
1863,1863,3431.0,1863
1954,1954,17.16,1954
1381,1381,687.0,1381
3025,3025,3006.0,3025
3685,3685,1124.0,3685
1098,1098,15.711,1098
3313,3313,3524.0,3313
3907,3907,3428.0,3907
2620,2620,23.045,2620
899,899,2188.0,899
1912,1912,23.783,1912
1185,1185,2378.0,1185
1591,1591,2316.0,1591
1367,1367,1791.0,1367
3917,3917,2411.0,3917
2492,2492,15.93,2492
1627,1627,3734.0,1627
3537,3537,834.0,3537
771,771,3903.0,771
2891,2891,1767.0,2891
2971,2971,2368.0,2971
1013,1013,1769.0,1013
1338,1338,15.757,1338
1249,1249,356.0,1249
2825,2825,4065.0,2825
2468,2468,18.851,2468
2906,2906,32.529,2906
3643,3643,2703.0,3643
1937,1937,1082.0,1937
1531,1531,908.0,1531
3673,3673,2729.0,3673
2357,2357,3445.0,2357
2819,2819,1147.0,2819
1499,1499,635.0,1499
2321,2321,1272.0,2321
2338,2338,14.923,2338
3749,3749,3420.0,3749
1151,1151,2042.0,1151
518,518,19.903,518
1868,1868,25.146,1868
3798,3798,10.917,3798
2067,2067,3086.0,2067
2488,2488,13.796,2488
2993,2993,2775.0,2993
2599,2599,1395.0,2599
2435,2435,595.0,2435
1169,1169,3956.0,1169
2853,2853,4061.0,2853
1945,1945,1772.0,1945
1403,1403,83.0,1403
1841,1841,2043.0,1841
1015,1015,2298.0,1015
3671,3671,330.0,3671
835,835,3349.0,835
3400,3400,50.552,3400
2913,2913,3690.0,2913
3256,3256,12.66,3256
4093,4093,2394.0,4093
1964,1964,72.248,1964
3848,3848,15.319,3848
2451,2451,1428.0,2451
639,639,2050.0,639
3902,3902,15.92,3902
1649,1649,2313.0,1649
3945,3945,822.0,3945
4217,4217,803.0,4217
3909,3909,3813.0,3909
2746,2746,23.952,2746
2202,2202,100.331,2202
4442,4442,13.315,4442
1993,1993,1602.0,1993
3817,3817,2612.0,3817
1480,1480,29.547,1480
3014,3014,11.175999999999998,3014
2327,2327,2135.0,2327
1266,1266,13.089,1266
1976,1976,31.755,1976
2232,2232,35.261,2232
3523,3523,3812.0,3523
3134,3134,14.928,3134
829,829,2200.0,829
1565,1565,3490.0,1565
4348,4348,11.382,4348
2384,2384,38.105,2384
2836,2836,13.081,2836
1804,1804,10.251,1804
3392,3392,136.222,3392
4088,4088,11.964,4088
2789,2789,272.0,2789
1441,1441,1385.0,1441
1500,1500,14.67,1500
2385,2385,789.0,2385
3130,3130,21.457,3130
1529,1529,3822.0,1529
1331,1331,3358.0,1331
2849,2849,138.0,2849
1504,1504,24.122,1504
4234,4234,34.85,4234
4461,4461,2656.0,4461
2438,2438,12.945,2438
534,534,10.975,534
4466,4466,13.595,4466
1609,1609,3752.0,1609
1375,1375,3882.0,1375
1779,1779,2269.0,1779
626,626,13.687,626
1776,1776,23.643,1776
2578,2578,19.257,2578
853,853,2048.0,853
1831,1831,141.0,1831
1407,1407,3624.0,1407
882,882,14.402,882
3223,3223,1765.0,3223
2806,2806,14.12,2806
3368,3368,18.334,3368
1088,1088,23.205,1088
3891,3891,1507.0,3891
4386,4386,14.875,4386
1162,1162,14.56,1162
3612,3612,125.063,3612
3517,3517,62.0,3517
3067,3067,4023.0,3067
2217,2217,3798.0,2217
817,817,1796.0,817
3993,3993,2694.0,3993
610,610,16.679000000000002,610
725,725,2570.0,725
1769,1769,3743.0,1769
1825,1825,2227.0,1825
2487,2487,532.0,2487
1897,1897,1385.0,1897
1137,1137,894.0,1137
2539,2539,630.0,2539
994,994,14.404000000000002,994
2944,2944,18.742,2944
575,575,4089.0,575
3593,3593,3020.0,3593
2935,2935,2512.0,2935
2266,2266,17.202,2266
1747,1747,2257.0,1747
1420,1420,22.694000000000006,1420
4280,4280,10.732,4280
3799,3799,1215.0,3799
1243,1243,2435.0,1243
594,594,14.835,594
1231,1231,1211.0,1231
613,613,532.0,613
3511,3511,156.0,3511
2534,2534,14.63,2534
2228,2228,14.036,2228
2078,2078,16.814,2078
570,570,14.568,570
3507,3507,1737.0,3507
3912,3912,16.652,3912
2128,2128,13.703,2128
3786,3786,11.956,3786
2244,2244,15.989,2244
3935,3935,3158.0,3935
4022,4022,12.334,4022
2605,2605,1672.0,2605
2606,2606,22.457,2606
1132,1132,57.429,1132
2069,2069,1545.0,2069
4127,4127,3766.0,4127
3350,3350,12.036,3350
730,730,11.275,730
2300,2300,15.559,2300
2434,2434,12.73,2434
2647,2647,2169.0,2647
2864,2864,14.788,2864
3861,3861,1406.0,3861
2371,2371,4032.0,2371
1853,1853,913.0,1853
938,938,13.764,938
3173,3173,3489.0,3173
2474,2474,11.686,2474
3591,3591,2247.0,3591
3735,3735,2528.0,3735
3288,3288,11.365,3288
2723,2723,2268.0,2723
3838,3838,33.664,3838
1673,1673,3624.0,1673
2079,2079,2454.0,2079
2003,2003,1469.0,2003
3868,3868,14.172,3868
2201,2201,3801.0,2201
3551,3551,2310.0,3551
2583,2583,117.0,2583
3382,3382,139.135,3382
2168,2168,15.045,2168
1302,1302,13.78,1302
2061,2061,2945.0,2061
3950,3950,182.826,3950
1689,1689,3933.0,1689
2181,2181,575.0,2181
4453,4453,1653.0,4453
1875,1875,1446.0,1875
1582,1582,15.992,1582
2172,2172,36.411,2172
4232,4232,36.683,4232
2332,2332,26.152,2332
1519,1519,887.0,1519
2812,2812,10.661,2812
4073,4073,705.0,4073
744,744,19.278,744
3000,3000,13.336,3000
2604,2604,16.281,2604
3938,3938,32.85,3938
799,799,3591.0,799
2479,2479,1284.0,2479
1114,1114,23.315,1114
831,831,1654.0,831
2084,2084,20.73,2084
2184,2184,183.497,2184
3584,3584,11.249,3584
1175,1175,1206.0,1175
1815,1815,2800.0,1815
2511,2511,525.0,2511
4063,4063,2711.0,4063
1083,1083,649.0,1083
535,535,3649.0,535
2726,2726,16.402,2726
1793,1793,2492.0,1793
2761,2761,2516.0,2761
3700,3700,10.841,3700
993,993,2457.0,993
1078,1078,13.577,1078
3926,3926,16.63,3926
3677,3677,3974.0,3677
2378,2378,22.98,2378
4056,4056,93.532,4056
1716,1716,11.87,1716
698,698,11.262,698
793,793,1360.0,793
3901,3901,2547.0,3901
3521,3521,466.0,3521
3138,3138,36.038,3138
900,900,24.758000000000006,900
4185,4185,2573.0,4185
2055,2055,2246.0,2055
4441,4441,3491.0,4441
949,949,1984.0,949
2223,2223,1341.0,2223
3353,3353,2137.0,3353
4168,4168,11.58,4168
4150,4150,19.83,4150
3777,3777,3887.0,3777
522,522,10.946,522
2355,2355,111.0,2355
699,699,1319.0,699
4347,4347,1533.0,4347
884,884,23.45,884
1180,1180,22.194000000000006,1180
1871,1871,2649.0,1871
1617,1617,2144.0,1617
3575,3575,1400.0,3575
1661,1661,4188.0,1661
3918,3918,14.755,3918
796,796,43.738,796
1467,1467,1742.0,1467
3091,3091,3179.0,3091
4259,4259,212.0,4259
903,903,3693.0,903
2659,2659,3724.0,2659
729,729,559.0,729
647,647,3498.0,647
1142,1142,21.792,1142
599,599,4119.0,599
3423,3423,44.0,3423
1955,1955,2487.0,1955
2390,2390,31.096,2390
2907,2907,1570.0,2907
3330,3330,15.369000000000002,3330
721,721,139.0,721
1780,1780,25.798,1780
1416,1416,37.752,1416
2382,2382,12.562,2382
880,880,16.454,880
2552,2552,19.325,2552
1518,1518,16.049,1518
4437,4437,3002.0,4437
1321,1321,4162.0,1321
913,913,3691.0,913
3176,3176,14.47,3176
3378,3378,10.6,3378
1406,1406,15.188,1406
3339,3339,1584.0,3339
3249,3249,223.0,3249
1024,1024,13.399,1024
849,849,1175.0,849
4053,4053,2272.0,4053
3153,3153,2432.0,3153
2765,2765,401.0,2765
1850,1850,18.164,1850
3920,3920,14.889,3920
1829,1829,3588.0,1829
3743,3743,2952.0,3743
2139,2139,2682.0,2139
1781,1781,3694.0,1781
1021,1021,461.0,1021
3328,3328,12.03,3328
3543,3543,469.0,3543
2267,2267,3074.0,2267
4209,4209,558.0,4209
3241,3241,3555.0,3241
3940,3940,14.818,3940
3217,3217,1939.0,3217
2036,2036,10.273,2036
3461,3461,1590.0,3461
1353,1353,768.0,1353
1077,1077,1420.0,1077
2827,2827,170.0,2827
3216,3216,12.591,3216
4464,4464,41.762,4464
620,620,11.048,620
2807,2807,578.0,2807
2309,2309,1809.0,2309
2004,2004,14.66,2004
4302,4302,18.65,4302
3347,3347,2192.0,3347
2237,2237,3158.0,2237
2295,2295,3201.0,2295
3866,3866,17.831,3866
2227,2227,50.0,2227
1999,1999,1359.0,1999
4062,4062,59.692,4062
4310,4310,34.561,4310
531,531,383.0,531
3636,3636,30.304,3636
4423,4423,1874.0,4423
2469,2469,3786.0,2469
3630,3630,25.919,3630
3072,3072,28.218000000000004,3072
3460,3460,13.272,3460
3332,3332,211.27,3332
1589,1589,1684.0,1589
1883,1883,1856.0,1883
4385,4385,379.0,4385
1852,1852,11.254,1852
3318,3318,15.521,3318
975,975,3602.0,975
2285,2285,2517.0,2285
1752,1752,11.19,1752
2991,2991,1151.0,2991
3201,3201,3319.0,3201
1604,1604,21.892,1604
2080,2080,16.519000000000002,2080
1101,1101,108.0,1101
1723,1723,2144.0,1723
3424,3424,17.256,3424
1796,1796,12.692,1796
1775,1775,3541.0,1775
3638,3638,17.102999999999998,3638
4128,4128,10.524,4128
2786,2786,24.487,2786
2302,2302,12.919,2302
2554,2554,21.596,2554
2156,2156,11.989,2156
1380,1380,14.989,1380
3109,3109,417.0,3109
1396,1396,10.868,1396
3738,3738,18.79,3738
4117,4117,1103.0,4117
2695,2695,3785.0,2695
2068,2068,16.612000000000002,2068
985,985,1720.0,985
1349,1349,72.0,1349
2983,2983,2375.0,2983
2924,2924,13.144,2924
2896,2896,10.693,2896
3052,3052,28.039,3052
3914,3914,117.63,3914
3469,3469,1979.0,3469
1316,1316,10.561,1316
1470,1470,15.154000000000002,1470
4242,4242,23.515,4242
4341,4341,1739.0,4341
2051,2051,280.0,2051
2588,2588,18.768,2588
4212,4212,16.509,4212
1817,1817,3973.0,1817
1294,1294,14.347,1294
1533,1533,1616.0,1533
1728,1728,20.702,1728
3345,3345,2564.0,3345
1434,1434,25.486,1434
1103,1103,843.0,1103
4014,4014,14.789,4014
3853,3853,1019.0,3853
633,633,3333.0,633
3626,3626,15.692,3626
3005,3005,3380.0,3005
1199,1199,3788.0,1199
2195,2195,433.0,2195
3415,3415,773.0,3415
3762,3762,10.932,3762
1596,1596,54.398,1596
1369,1369,3713.0,1369
4250,4250,12.255,4250
3338,3338,199.046,3338
987,987,1345.0,987
2797,2797,849.0,2797
646,646,15.505,646
3221,3221,847.0,3221
2188,2188,10.518,2188
671,671,732.0,671
750,750,12.33,750
1772,1772,16.064,1772
1607,1607,1368.0,1607
3483,3483,1419.0,3483
1936,1936,15.385,1936
2834,2834,53.769,2834
1652,1652,14.322,1652
2501,2501,4075.0,2501
2694,2694,13.094,2694
1040,1040,17.589000000000002,1040
1440,1440,13.56,1440
3747,3747,1584.0,3747
2270,2270,151.00799999999995,2270
1991,1991,2268.0,1991
4265,4265,2071.0,4265
4143,4143,377.0,4143
1613,1613,2089.0,1613
2749,2749,1665.0,2749
4361,4361,3471.0,4361
627,627,2288.0,627
1880,1880,15.162,1880
660,660,14.67,660
2436,2436,12.387,2436
3800,3800,17.009,3800
4409,4409,293.0,4409
3287,3287,1744.0,3287
4297,4297,1893.0,4297
1272,1272,14.11,1272
1892,1892,25.278,1892
622,622,14.736,622
3278,3278,13.062,3278
2718,2718,16.678,2718
1131,1131,2997.0,1131
3281,3281,2224.0,3281
1595,1595,2718.0,1595
3974,3974,15.478,3974
3924,3924,13.463,3924
2416,2416,213.444,2416
1214,1214,14.349,1214
1495,1495,2310.0,1495
794,794,12.156,794
2928,2928,10.898,2928
1451,1451,2301.0,1451
3803,3803,286.0,3803
3171,3171,2707.0,3171
2835,2835,1397.0,2835
1503,1503,2058.0,1503
2448,2448,10.909,2448
4419,4419,1242.0,4419
2339,2339,2290.0,2339
625,625,1752.0,625
1042,1042,11.01,1042
3111,3111,2164.0,3111
4236,4236,23.116,4236
2292,2292,162.291,2292
942,942,16.095,942
3380,3380,11.479,3380
3294,3294,38.971,3294
1821,1821,1108.0,1821
3417,3417,1813.0,3417
2852,2852,13.55,2852
2691,2691,3251.0,2691
3433,3433,2658.0,3433
3485,3485,4065.0,3485
1952,1952,13.818,1952
2901,2901,3372.0,2901
715,715,1007.0,715
3006,3006,24.669,3006
1674,1674,12.376,1674
2394,2394,14.983,2394
2522,2522,16.045,2522
1560,1560,15.729,1560
3985,3985,2619.0,3985
785,785,235.0,785
1025,1025,2846.0,1025
888,888,15.455,888
1448,1448,14.27,1448
2319,2319,2811.0,2319
2408,2408,12.935,2408
1948,1948,15.122,1948
2878,2878,12.085,2878
4055,4055,3521.0,4055
3262,3262,87.686,3262
2974,2974,14.862,2974
3515,3515,300.0,3515
1288,1288,11.413,1288
790,790,12.611,790
4157,4157,2511.0,4157
3943,3943,2539.0,3943
1413,1413,809.0,1413
4224,4224,13.578,4224
2622,2622,17.000999999999998,2622
777,777,3879.0,777
1466,1466,16.278,1466
1737,1737,3986.0,1737
4434,4434,11.536,4434
2410,2410,14.64,2410
2150,2150,19.381,2150
4121,4121,3684.0,4121
1421,1421,3083.0,1421
3057,3057,3598.0,3057
3157,3157,347.0,3157
3266,3266,24.266,3266
2952,2952,14.191,2952
3913,3913,1303.0,3913
1120,1120,63.397,1120
3890,3890,21.839,3890
1979,1979,220.0,1979
1693,1693,1847.0,1693
4287,4287,340.0,4287
3488,3488,17.429000000000002,3488
2842,2842,11.967,2842
3883,3883,3148.0,3883
1734,1734,12.688,1734
3804,3804,16.83,3804
2551,2551,169.0,2551
3730,3730,203.531,3730
4334,4334,35.143,4334
3137,3137,45.0,3137
3407,3407,2853.0,3407
1430,1430,41.547,1430
3504,3504,26.28,3504
1259,1259,193.0,1259
1745,1745,933.0,1745
2753,2753,1228.0,2753
1653,1653,3658.0,1653
4184,4184,13.565,4184
1512,1512,13.732,1512
2975,2975,2969.0,2975
3196,3196,11.283,3196
2712,2712,13.888,2712
1911,1911,1801.0,1911
3212,3212,34.893,3212
2676,2676,19.25,2676
3813,3813,3103.0,3813
2946,2946,14.502,2946
731,731,404.0,731
2041,2041,4081.0,2041
2400,2400,26.322,2400
3477,3477,1005.0,3477
1204,1204,27.579,1204
894,894,14.919,894
4298,4298,16.441,4298
1537,1537,3367.0,1537
2755,2755,4003.0,2755
2442,2442,19.282,2442
1995,1995,609.0,1995
920,920,16.941,920
3852,3852,29.016,3852
1313,1313,1334.0,1313
1095,1095,4002.0,1095
2098,2098,35.734,2098
2060,2060,15.083,2060
2046,2046,13.268,2046
2994,2994,13.154000000000002,2994
1236,1236,20.854,1236
612,612,25.132,612
2019,2019,2472.0,2019
1360,1360,19.684,1360
1985,1985,3294.0,1985
3066,3066,17.976,3066
2277,2277,290.0,2277
3410,3410,19.305,3410
1489,1489,206.0,1489
3801,3801,3270.0,3801
3790,3790,13.644,3790
552,552,13.895,552
3536,3536,38.403,3536
2018,2018,13.519,2018
3877,3877,4020.0,3877
2027,2027,3789.0,2027
1791,1791,1948.0,1791
3857,3857,3095.0,3857
764,764,11.455,764
2038,2038,29.854,2038
923,923,3794.0,923
3931,3931,3484.0,3931
3614,3614,160.59799999999996,3614
837,837,1208.0,837
2865,2865,2493.0,2865
782,782,42.65600000000001,782
2279,2279,2522.0,2279
4149,4149,4034.0,4149
4187,4187,3942.0,4187
3554,3554,14.685,3554
901,901,1621.0,901
2752,2752,16.929000000000002,2752
2513,2513,1744.0,2513
3782,3782,19.782,3782
3826,3826,180.269,3826
3721,3721,2157.0,3721
600,600,22.766,600
2100,2100,11.464,2100
2652,2652,14.336,2652
3457,3457,3211.0,3457
4311,4311,2806.0,4311
4087,4087,3817.0,4087
3215,3215,957.0,3215
3594,3594,180.995,3594
2641,2641,3739.0,2641
3695,3695,4015.0,3695
2191,2191,2414.0,2191
4179,4179,2101.0,4179
1713,1713,225.0,1713
580,580,15.284,580
1795,1795,1185.0,1795
2930,2930,14.032,2930
706,706,12.96,706
2845,2845,1401.0,2845
2081,2081,2663.0,2081
3682,3682,25.5,3682
3070,3070,15.225,3070
1333,1333,200.0,1333
3991,3991,842.0,3991
1150,1150,27.692,1150
1348,1348,12.112,1348
1960,1960,17.255,1960
4387,4387,977.0,4387
2171,2171,1257.0,2171
965,965,709.0,965
4337,4337,1383.0,4337
1366,1366,14.813,1366
1854,1854,25.762,1854
691,691,1096.0,691
3360,3360,18.228,3360
3514,3514,163.494,3514
1517,1517,738.0,1517
1668,1668,23.753,1668
4359,4359,2107.0,4359
1133,1133,2981.0,1133
2809,2809,554.0,2809
3552,3552,27.431,3552
2107,2107,2990.0,2107
581,581,2693.0,581
1561,1561,65.0,1561
952,952,15.247,952
3016,3016,12.917,3016
4277,4277,50.0,4277
1140,1140,19.122,1140
2491,2491,1012.0,2491
567,567,198.0,567
1034,1034,21.43,1034
1005,1005,670.0,1005
1973,1973,674.0,1973
1105,1105,2913.0,1105
1635,1635,3697.0,1635
538,538,11.166,538
591,591,1487.0,591
1832,1832,29.938,1832
1887,1887,395.0,1887
1969,1969,4155.0,1969
1030,1030,45.591,1030
3870,3870,11.197,3870
1902,1902,20.155,1902
1983,1983,562.0,1983
1303,1303,627.0,1303
3273,3273,2535.0,3273
4083,4083,3078.0,4083
561,561,4108.0,561
2141,2141,4114.0,2141
2754,2754,13.173,2754
1806,1806,24.493,1806
2367,2367,2888.0,2367
3501,3501,3081.0,3501
1225,1225,664.0,1225
2577,2577,1434.0,2577
1679,1679,445.0,1679
1023,1023,1101.0,1023
1638,1638,17.903,1638
1587,1587,3694.0,1587
3323,3323,2427.0,3323
4012,4012,185.306,4012
2035,2035,1060.0,2035
1242,1242,14.219,1242
2948,2948,19.117,2948
4343,4343,344.0,4343
2023,2023,1389.0,2023
1476,1476,18.288,1476
1539,1539,1720.0,1539
2403,2403,2696.0,2403
556,556,16.024,556
3844,3844,23.977,3844
4031,4031,1446.0,4031
3369,3369,3623.0,3369
3530,3530,14.453,3530
4214,4214,17.944000000000006,4214
1950,1950,19.971,1950
2307,2307,3129.0,2307
739,739,2681.0,739
1515,1515,1582.0,1515
4002,4002,12.951,4002
3541,3541,1330.0,3541
2125,2125,3014.0,2125
2481,2481,913.0,2481
505,505,530.0,505
3465,3465,3607.0,3465
3492,3492,12.034,3492
3704,3704,19.554,3704
2070,2070,13.297,2070
4444,4444,25.601,4444
539,539,4168.0,539
3178,3178,16.762999999999998,3178
3327,3327,2280.0,3327
3386,3386,12.734000000000002,3386
602,602,23.785,602
1092,1092,21.037,1092
1264,1264,13.127,1264
2229,2229,2615.0,2229
1917,1917,2816.0,1917
1110,1110,24.143,1110
2720,2720,18.897,2720
4112,4112,63.137,4112
2973,2973,1298.0,2973
4270,4270,17.352,4270
2525,2525,1535.0,2525
3510,3510,21.471,3510
3312,3312,24.287,3312
1834,1834,18.675,1834
4345,4345,3449.0,4345
3577,3577,584.0,3577
980,980,13.305,980
3740,3740,17.104,3740
4399,4399,2173.0,4399
2703,2703,4141.0,2703
1934,1934,17.578,1934
2369,2369,3869.0,2369
2941,2941,3280.0,2941
3391,3391,3346.0,3391
1687,1687,2095.0,1687
4075,4075,2804.0,4075
967,967,3757.0,967
2456,2456,46.938,2456
3174,3174,12.995,3174
1554,1554,14.093,1554
972,972,14.462,972
2719,2719,3079.0,2719
2042,2042,13.574000000000002,2042
1038,1038,11.059,1038
804,804,20.437,804
1056,1056,21.961,1056
2022,2022,13.22,2022
3761,3761,1454.0,3761
1402,1402,30.302,1402
1422,1422,63.404,1422
3367,3367,2830.0,3367
3193,3193,2329.0,3193
2450,2450,15.137,2450
3500,3500,121.116,3500
4137,4137,1860.0,4137
1618,1618,13.231,1618
2870,2870,11.535,2870
3260,3260,12.868,3260
1156,1156,27.157,1156
841,841,413.0,841
2402,2402,14.064,2402
3304,3304,14.461,3304
2271,2271,637.0,2271
2503,2503,935.0,2503
2475,2475,1763.0,2475
1940,1940,11.568,1940
1797,1797,3893.0,1797
2664,2664,17.092,2664
3301,3301,548.0,3301
2280,2280,16.993,2280
3656,3656,42.234,3656
2831,2831,827.0,2831
631,631,3690.0,631
2862,2862,16.921,2862
4316,4316,14.229,4316
2549,2549,767.0,2549
3430,3430,11.222,3430
3542,3542,10.779000000000002,3542
1370,1370,14.413,1370
3923,3923,4192.0,3923
1417,1417,684.0,1417
840,840,15.612,840
3707,3707,1064.0,3707
2323,2323,1978.0,2323
4261,4261,965.0,4261
1033,1033,2553.0,1033
3623,3623,913.0,3623
658,658,10.498,658
908,908,17.739,908
1813,1813,778.0,1813
961,961,3297.0,961
676,676,20.347,676
2949,2949,1924.0,2949
507,507,668.0,507
3840,3840,13.841,3840
1569,1569,1533.0,1569
2883,2883,789.0,2883
3821,3821,1093.0,3821
3946,3946,15.904000000000002,3946
3886,3886,13.85,3886
1235,1235,3804.0,1235
1465,1465,1806.0,1465
1109,1109,2161.0,1109
1702,1702,13.964,1702
1217,1217,557.0,1217
1104,1104,14.136,1104
1238,1238,22.127,1238
1106,1106,13.242,1106
2597,2597,765.0,2597
2747,2747,1541.0,2747
3967,3967,1447.0,3967
1345,1345,3209.0,1345
3502,3502,13.858,3502
1844,1844,18.187,1844
2557,2557,2661.0,2557
1344,1344,18.794,1344
1447,1447,3131.0,1447
1764,1764,15.046,1764
927,927,3005.0,927
1127,1127,2688.0,1127
1540,1540,20.088,1540
3727,3727,915.0,3727
3414,3414,41.737,3414
4026,4026,13.868,4026
3977,3977,2583.0,3977
3661,3661,1925.0,3661
3436,3436,28.738000000000003,3436
615,615,2169.0,615
4300,4300,17.323,4300
3441,3441,1835.0,3441
508,508,12.166,508
4326,4326,13.344,4326
3454,3454,205.255,3454
2173,2173,3609.0,2173
4254,4254,12.958,4254
1160,1160,13.380999999999998,1160
1865,1865,1001.0,1865
4166,4166,29.086,4166
4203,4203,1200.0,4203
551,551,1238.0,551
1128,1128,15.525,1128
1397,1397,2622.0,1397
2890,2890,10.927,2890
3146,3146,12.892,3146
1312,1312,14.235,1312
548,548,25.43,548
860,860,12.382,860
4309,4309,4036.0,4309
1085,1085,284.0,1085
4307,4307,3345.0,4307
2958,2958,14.858,2958
685,685,2979.0,685
1459,1459,1718.0,1459
2293,2293,1731.0,2293
686,686,11.084,686
1009,1009,1497.0,1009
1091,1091,1964.0,1091
1683,1683,3229.0,1683
1283,1283,3520.0,1283
1651,1651,2385.0,1651
3819,3819,1270.0,3819
657,657,1185.0,657
3204,3204,11.604,3204
2455,2455,3501.0,2455
2225,2225,2500.0,2225
512,512,16.003,512
3736,3736,18.927,3736
745,745,2063.0,745
3065,3065,2863.0,3065
4319,4319,3674.0,4319
797,797,4105.0,797
3145,3145,3221.0,3145
767,767,2618.0,767
653,653,2205.0,653
1058,1058,37.853,1058
2136,2136,14.288,2136
4029,4029,1549.0,4029
857,857,46.0,857
998,998,23.953000000000007,998
759,759,2188.0,759
839,839,680.0,839
1548,1548,14.923,1548
609,609,2878.0,609
3175,3175,3618.0,3175
2613,2613,4039.0,2613
3609,3609,3981.0,3609
2998,2998,23.714,2998
4077,4077,2608.0,4077
762,762,20.851,762
4430,4430,15.429,4430
1071,1071,453.0,1071
2299,2299,3986.0,2299
1802,1802,19.727,1802
2431,2431,962.0,2431
788,788,38.767,788
3742,3742,16.393,3742
3377,3377,1494.0,3377
3733,3733,194.0,3733
3964,3964,18.636,3964
2596,2596,10.991,2596
2083,2083,3824.0,2083
2787,2787,2257.0,2787
3001,3001,1183.0,3001
4089,4089,212.0,4089
2601,2601,2113.0,2601
1404,1404,14.161,1404
2482,2482,11.634,2482
667,667,780.0,667
2465,2465,1438.0,2465
4380,4380,13.496,4380
3060,3060,10.569,3060
4375,4375,2983.0,4375
1012,1012,13.617,1012
1949,1949,3836.0,1949
2207,2207,3544.0,2207
2502,2502,17.518,2502
3999,3999,2301.0,3999
3637,3637,2088.0,3637
1081,1081,279.0,1081
1292,1292,13.388,1292
3975,3975,678.0,3975
1475,1475,1272.0,1475
957,957,2846.0,957
1700,1700,11.441,1700
3355,3355,2843.0,3355
3395,3395,2764.0,3395
1541,1541,1640.0,1541
4394,4394,12.299,4394
3239,3239,2952.0,3239
1794,1794,14.367,1794
4160,4160,22.412,4160
2190,2190,13.621,2190
2967,2967,879.0,2967
2674,2674,13.577,2674
4011,4011,895.0,4011
2645,2645,814.0,2645
3370,3370,30.814,3370
1401,1401,4047.0,1401
1975,1975,1609.0,1975
2337,2337,154.0,2337
921,921,4186.0,921
1145,1145,2829.0,1145
996,996,26.561,996
2700,2700,14.494000000000002,2700
807,807,209.0,807
1112,1112,15.901,1112
3934,3934,14.832,3934
687,687,3909.0,687
2649,2649,2271.0,2649
806,806,20.776,806
1681,1681,2265.0,1681
2126,2126,43.006,2126
4059,4059,1049.0,4059
4292,4292,15.037,4292
1477,1477,3010.0,1477
3619,3619,3351.0,3619
2183,2183,545.0,2183
2889,2889,405.0,2889
3580,3580,192.045,3580
689,689,1401.0,689
4365,4365,1640.0,4365
1800,1800,12.92,1800
694,694,15.932,694
2748,2748,12.384,2748
2054,2054,15.021,2054
3647,3647,733.0,3647
1663,1663,4113.0,1663
4178,4178,31.403,4178
3820,3820,17.153,3820
1895,1895,894.0,1895
638,638,28.881,638
2567,2567,1853.0,2567
778,778,16.233,778
2742,2742,26.853,2742
1762,1762,13.912,1762
1386,1386,14.79,1386
3231,3231,3467.0,3231
2216,2216,25.612,2216
3104,3104,11.762,3104
2013,2013,4183.0,2013
3059,3059,2760.0,3059
1998,1998,20.679,1998
1445,1445,3811.0,1445
3797,3797,1003.0,3797
4420,4420,11.772,4420
3247,3247,683.0,3247
2383,2383,2899.0,2383
3289,3289,2812.0,3289
1740,1740,14.693,1740
2189,2189,3857.0,2189
3039,3039,2299.0,3039
1468,1468,14.793,1468
2644,2644,12.335,2644
1536,1536,13.58,1536
2254,2254,24.425,2254
1694,1694,10.765,1694
2751,2751,1026.0,2751
1774,1774,26.321,1774
1927,1927,4072.0,1927
2340,2340,20.726,2340
2706,2706,13.284,2706
526,526,14.959,526
645,645,942.0,645
2618,2618,13.407,2618
2705,2705,2530.0,2705
2866,2866,16.472,2866
1222,1222,15.03,1222
1645,1645,2847.0,1645
2283,2283,3736.0,2283
825,825,1271.0,825
976,976,25.127,976
2538,2538,11.434,2538
1538,1538,15.862,1538
2584,2584,14.329,2584
892,892,11.355,892
1755,1755,2918.0,1755
564,564,12.71,564
4438,4438,12.267,4438
3729,3729,3012.0,3729
891,891,4007.0,891
2585,2585,1514.0,2585
769,769,3742.0,769
2800,2800,11.604,2800
4248,4248,13.112,4248
4414,4414,15.402,4414
2743,2743,1091.0,2743
1706,1706,24.223000000000006,1706
1546,1546,23.639,1546
3592,3592,161.316,3592
2623,2623,1012.0,2623
3881,3881,3949.0,3881
3187,3187,2984.0,3187
3050,3050,14.654000000000002,3050
2099,2099,3002.0,2099
2406,2406,15.762,2406
1343,1343,3704.0,1343
3600,3600,19.157,3600
2143,2143,2469.0,2143
1944,1944,26.063,1944
4205,4205,1543.0,4205
3645,3645,2254.0,3645
3741,3741,2264.0,3741
1847,1847,3506.0,1847
1107,1107,2302.0,1107
2790,2790,16.146,2790
2701,2701,1372.0,2701
3296,3296,13.71,3296
2050,2050,16.726,2050
1233,1233,1667.0,1233
709,709,1780.0,709
1208,1208,27.786,1208
3227,3227,3459.0,3227
1855,1855,2547.0,1855
3116,3116,36.767,3116
1154,1154,17.162,1154
586,586,15.686,586
2049,2049,1623.0,2049
2600,2600,16.683,2600
1502,1502,38.579,1502
3438,3438,16.52,3438
3119,3119,2816.0,3119
3163,3163,2527.0,3163
893,893,3415.0,893
1277,1277,1876.0,1277
3649,3649,1855.0,3649
3976,3976,199.147,3976
937,937,1610.0,937
1374,1374,13.550999999999998,1374
1276,1276,12.635,1276
3687,3687,264.0,3687
3151,3151,858.0,3151
2268,2268,12.383,2268
4188,4188,25.492,4188
2897,2897,450.0,2897
2407,2407,3948.0,2407
1069,1069,3269.0,1069
2495,2495,2783.0,2495
2777,2777,889.0,2777
973,973,1937.0,973
1605,1605,3841.0,1605
550,550,18.967,550
1458,1458,15.455,1458
3389,3389,1146.0,3389
3314,3314,13.669,3314
1163,1163,1218.0,1163
3242,3242,11.436,3242
2354,2354,12.701,2354
3561,3561,2396.0,3561
3321,3321,3447.0,3321
1193,1193,718.0,1193
4389,4389,380.0,4389
1625,1625,1355.0,1625
1346,1346,13.064,1346
549,549,382.0,549
1496,1496,18.959,1496
2646,2646,35.545,2646
682,682,22.334,682
4346,4346,12.768,4346
4058,4058,16.987000000000002,4058
1997,1997,2069.0,1997
3224,3224,11.843,3224
2149,2149,1687.0,2149
1494,1494,35.322,1494
2256,2256,15.134,2256
3879,3879,1505.0,3879
916,916,17.264,916
2490,2490,16.859,2490
2697,2697,4093.0,2697
879,879,1898.0,879
1914,1914,17.861,1914
1129,1129,3722.0,1129
1248,1248,17.434,1248
2115,2115,1478.0,2115
3445,3445,2751.0,3445
3585,3585,3234.0,3585
3117,3117,2735.0,3117
795,795,3406.0,795
4323,4323,1844.0,4323
3745,3745,3048.0,3745
1439,1439,3345.0,1439
2153,2153,3118.0,2153
2627,2627,2932.0,2627
2053,2053,923.0,2053
3195,3195,3030.0,3195
2716,2716,12.498,2716
3555,3555,2330.0,3555
554,554,19.003,554
1708,1708,13.281,1708
2869,2869,3223.0,2869
2286,2286,17.475,2286
3859,3859,1481.0,3859
3183,3183,2305.0,3183
1032,1032,16.962,1032
3930,3930,16.088,3930
1857,1857,345.0,1857
1002,1002,17.963,1002
930,930,12.158,930
2692,2692,15.127,2692
3268,3268,14.292,3268
723,723,289.0,723
2133,2133,480.0,2133
3383,3383,4125.0,3383
644,644,19.575,644
1028,1028,20.789,1028
3545,3545,3839.0,3545
2844,2844,18.023,2844
1166,1166,13.012,1166
2498,2498,27.435,2498
2607,2607,2016.0,2607
4406,4406,11.293,4406
3723,3723,2365.0,3723
3831,3831,91.0,3831
774,774,12.78,774
1483,1483,317.0,1483
1325,1325,496.0,1325
827,827,481.0,827
3757,3757,3879.0,3757
2741,2741,3753.0,2741
3142,3142,12.865,3142
1320,1320,12.589,1320
2880,2880,15.767,2880
4452,4452,20.336,4452
1778,1778,30.275,1778
2639,2639,3201.0,2639
1273,1273,3838.0,1273
2147,2147,1059.0,2147
3255,3255,3097.0,3255
1567,1567,277.0,1567
3546,3546,11.785,3546
1701,1701,2945.0,1701
1192,1192,14.457,1192
2727,2727,3281.0,2727
3808,3808,12.553,3808
2999,2999,3003.0,2999
1347,1347,2208.0,1347
1393,1393,180.0,1393
2467,2467,234.0,2467
2396,2396,15.29,2396
3131,3131,753.0,3131
4109,4109,2407.0,4109
4171,4171,35.0,4171
2563,2563,2159.0,2563
2316,2316,21.398000000000003,2316
3277,3277,3611.0,3277
3899,3899,2632.0,3899
2591,2591,2475.0,2591
2063,2063,2219.0,2063
2799,2799,1221.0,2799
4268,4268,28.067,4268
3246,3246,161.864,3246
3434,3434,189.753,3434
4123,4123,1849.0,4123
3299,3299,3339.0,3299
1195,1195,910.0,1195
1201,1201,2637.0,1201
2821,2821,3441.0,2821
4364,4364,16.618,4364
4443,4443,472.0,4443
2632,2632,18.472,2632
4372,4372,10.179,4372
733,733,2998.0,733
1787,1787,3552.0,1787
3295,3295,497.0,3295
1356,1356,14.252,1356
2616,2616,11.042,2616
2320,2320,12.019,2320
1823,1823,3252.0,1823
3023,3023,879.0,3023
3887,3887,1671.0,3887
2837,2837,589.0,2837
1784,1784,19.6,1784
3074,3074,16.518,3074
1773,1773,3427.0,1773
3708,3708,15.726,3708
3756,3756,17.307000000000002,3756
1739,1739,4093.0,1739
3789,3789,4013.0,3789
3613,3613,52.0,3613
1884,1884,25.086,1884
1361,1361,2588.0,1361
553,553,1017.0,553
4235,4235,3602.0,4235
4408,4408,10.68,4408
1792,1792,24.623,1792
3508,3508,154.767,3508
4241,4241,2474.0,4241
3113,3113,1885.0,3113
2817,2817,2271.0,2817
3823,3823,1205.0,3823
3168,3168,18.938,3168
4119,4119,2580.0,4119
1497,1497,2656.0,1497
4421,4421,343.0,4421
2034,2034,12.595,2034
1753,1753,451.0,1753
1121,1121,3779.0,1121
4425,4425,3387.0,4425
2779,2779,1604.0,2779
951,951,595.0,951
753,753,3022.0,753
629,629,3677.0,629
652,652,14.615,652
3484,3484,10.586,3484
3702,3702,17.143,3702
3012,3012,11.818,3012
1785,1785,3560.0,1785
1845,1845,3671.0,1845
1826,1826,10.789,1826
1205,1205,383.0,1205
1598,1598,15.068,1598
1958,1958,46.93,1958
2269,2269,2717.0,2269
1365,1365,1757.0,1365
2857,2857,3366.0,2857
1530,1530,13.039,1530
3651,3651,1133.0,3651
1507,1507,3985.0,1507
2239,2239,2894.0,2239
2090,2090,14.622,2090
4046,4046,13.259,4046
2234,2234,194.851,2234
1426,1426,16.772000000000002,1426
4278,4278,11.011,4278
4065,4065,1575.0,4065
2352,2352,12.873,2352
3115,3115,866.0,3115
2417,2417,2089.0,2417
1662,1662,16.768,1662
605,605,2048.0,605
907,907,987.0,907
1856,1856,11.225,1856
574,574,23.615,574
2636,2636,15.762,2636
800,800,21.58,800
2386,2386,43.681,2386
3878,3878,13.545,3878
1215,1215,3357.0,1215
3754,3754,14.984000000000002,3754
3105,3105,1630.0,3105
1153,1153,3236.0,1153
672,672,34.131,672
2573,2573,2803.0,2573
3810,3810,13.18,3810
713,713,3684.0,713
2130,2130,12.918,2130
1388,1388,11.849,1388
3029,3029,1664.0,3029
2255,2255,854.0,2255
4321,4321,595.0,4321
4023,4023,1953.0,4023
4289,4289,2088.0,4289
3915,3915,974.0,3915
2372,2372,14.803,2372
4220,4220,25.036,4220
968,968,24.242,968
2650,2650,14.424,2650
4153,4153,658.0,4153
1135,1135,3080.0,1135
2682,2682,16.061,2682
2947,2947,1196.0,2947
2198,2198,11.374,2198
1017,1017,147.0,1017
1543,1543,930.0,1543
3795,3795,2104.0,3795
3572,3572,11.638,3572
2977,2977,3720.0,2977
4308,4308,45.332,4308
3026,3026,12.185,3026
1234,1234,11.722,1234
1060,1060,15.83,1060
2087,2087,2791.0,2087
4104,4104,16.593,4104
4288,4288,11.473,4288
4120,4120,207.385,4120
2222,2222,10.796,2222
597,597,3690.0,597
555,555,766.0,555
543,543,1239.0,543
4101,4101,4157.0,4101
2381,2381,3942.0,2381
2158,2158,25.274,2158
2072,2072,25.568,2072
3494,3494,11.632,3494
2566,2566,12.056,2566
3706,3706,19.935,3706
4106,4106,13.017,4106
1703,1703,2286.0,1703
4135,4135,3211.0,4135
4257,4257,234.0,4257
1200,1200,14.153,1200
2048,2048,12.39,2048
1981,1981,1353.0,1981
780,780,13.325,780
1534,1534,26.859,1534
3470,3470,11.659,3470
2333,2333,494.0,2333
3770,3770,17.160999999999998,3770
4451,4451,1138.0,4451
3734,3734,12.095,3734
4462,4462,19.856,4462
1978,1978,17.687,1978
2457,2457,2059.0,2457
3374,3374,11.932,3374
2978,2978,25.877,2978
3285,3285,2917.0,3285
1562,1562,43.665,1562
1008,1008,16.294,1008
661,661,1369.0,661
2594,2594,16.32,2594
3607,3607,556.0,3607
1526,1526,16.113,1526
932,932,11.095,932
3662,3662,19.61,3662
3936,3936,159.791,3936
4057,4057,3260.0,4057
3876,3876,21.644,3876
1310,1310,10.939,1310
3824,3824,12.055,3824
1888,1888,18.126,1888
4050,4050,12.115,4050
2311,2311,568.0,2311
1111,1111,2239.0,1111
3674,3674,17.762999999999995,3674
2219,2219,1696.0,2219
4177,4177,829.0,4177
1117,1117,1019.0,1117
601,601,1483.0,601
3960,3960,10.511,3960
3657,3657,283.0,3657
4401,4401,3647.0,4401
3712,3712,56.423,3712
4080,4080,25.571,4080
2531,2531,1569.0,2531
711,711,852.0,711
1715,1715,2031.0,1715
3307,3307,3838.0,3307
3864,3864,17.43,3864
2399,2399,2290.0,2399
4433,4433,2507.0,4433
3097,3097,4093.0,3097
1433,1433,2340.0,1433
1959,1959,3713.0,1959
1463,1463,1044.0,1463
1443,1443,1128.0,1443
4202,4202,28.88,4202
3090,3090,14.758,3090
4362,4362,15.669,4362
1177,1177,3804.0,1177
1207,1207,1057.0,1207
2420,2420,11.841,2420
3311,3311,3973.0,3311
3618,3618,14.779000000000002,3618
2376,2376,13.882,2376
1634,1634,16.574,1634
2854,2854,55.691,2854
1849,1849,3066.0,1849
3981,3981,4177.0,3981
4332,4332,17.586,4332
4040,4040,11.59,4040
3213,3213,1891.0,3213
1061,1061,1295.0,1061
3763,3763,3952.0,3763
2526,2526,12.917,2526
1363,1363,3213.0,1363
4032,4032,11.781,4032
3397,3397,1316.0,3397
2628,2628,35.679,2628
4096,4096,166.977,4096
516,516,35.022,516
2725,2725,3327.0,2725
3102,3102,27.366,3102
2932,2932,13.263,2932
1326,1326,15.464,1326
2368,2368,10.867,2368
2031,2031,193.0,2031
4030,4030,24.736,4030
971,971,1421.0,971
1115,1115,3693.0,1115
3336,3336,11.404000000000002,3336
2224,2224,11.84,2224
2294,2294,16.329,2294
3489,3489,2613.0,3489
1767,1767,4062.0,1767
2972,2972,20.454,2972
2088,2088,15.897,2088
674,674,27.98,674
1084,1084,18.452,1084
3716,3716,71.889,3716
1435,1435,3295.0,1435
1444,1444,20.374,1444
1926,1926,14.169,1926
1227,1227,52.0,1227
3962,3962,21.453000000000007,3962
959,959,1645.0,959
1314,1314,21.101,1314
1656,1656,10.691,1656
3010,3010,15.827,3010
3013,3013,2142.0,3013
3322,3322,13.212,3322
2282,2282,18.409,2282
1748,1748,11.564,1748
1710,1710,19.009,1710
3955,3955,2298.0,3955
523,523,3862.0,523
1065,1065,2388.0,1065
1963,1963,2402.0,1963
2002,2002,31.461,2002
4044,4044,21.724,4044
1357,1357,3337.0,1357
2089,2089,1877.0,2089
1942,1942,12.69,1942
4066,4066,11.183,4066
3518,3518,11.883,3518
3953,3953,1164.0,3953
3411,3411,1307.0,3411
2032,2032,24.151,2032
1555,1555,2509.0,1555
3333,3333,906.0,3333
1860,1860,16.756,1860
3156,3156,13.134,3156
2536,2536,13.502,2536
3069,3069,2504.0,3069
2193,2193,2515.0,2193
693,693,2342.0,693
1727,1727,4080.0,1727
3491,3491,4146.0,3491
3809,3809,825.0,3809
3202,3202,44.279,3202
3409,3409,2960.0,3409
3686,3686,17.264,3686
3240,3240,51.408,3240
2881,2881,915.0,2881
3553,3553,682.0,3553
2215,2215,414.0,2215
4305,4305,1018.0,4305
4329,4329,1944.0,4329
4085,4085,3207.0,4085
1522,1522,14.888,1522
2152,2152,15.576,2152
2401,2401,1019.0,2401
4147,4147,1889.0,4147
2252,2252,14.692,2252
3385,3385,3023.0,3385
1173,1173,1360.0,1173
2589,2589,2318.0,2589
3836,3836,16.913,3836
1882,1882,17.338,1882
4186,4186,11.065,4186
2885,2885,735.0,2885
4098,4098,12.059,4098
2220,2220,11.598,2220
947,947,646.0,947
1340,1340,12.163,1340
4156,4156,23.933000000000003,4156
1904,1904,15.614,1904
4468,4468,19.284,4468
2553,2553,3294.0,2553
584,584,10.915,584
1075,1075,1628.0,1075
4233,4233,853.0,4233
4081,4081,1312.0,4081
2082,2082,17.403,2082
1100,1100,16.038,1100
2675,2675,1481.0,2675
1527,1527,1822.0,1527
3563,3563,4167.0,3563
3832,3832,28.158,3832
1221,1221,3727.0,1221
1211,1211,538.0,1211
2654,2654,11.126,2654
2981,2981,3692.0,2981
2343,2343,902.0,2343
678,678,14.794,678
1072,1072,13.724,1072
1149,1149,3717.0,1149
1257,1257,1291.0,1257
2916,2916,16.755,2916
2029,2029,3564.0,2029
3143,3143,2689.0,3143
1840,1840,12.817,1840
2477,2477,3273.0,2477
3922,3922,29.041,3922
814,814,21.812,814
4350,4350,21.964,4350
3620,3620,18.088,3620
1836,1836,22.484,1836
2433,2433,3478.0,2433
1387,1387,2164.0,1387
2580,2580,11.61,2580
2995,2995,2196.0,2995
1457,1457,1860.0,1457
3235,3235,2262.0,3235
3781,3781,577.0,3781
1783,1783,3767.0,1783
3422,3422,11.415,3422
3888,3888,19.381,3888
3535,3535,3083.0,3535
2104,2104,44.813,2104
1474,1474,58.41,1474
3855,3855,1392.0,3855
2253,2253,307.0,2253
2101,2101,3834.0,2101
3292,3292,11.792,3292
2655,2655,1861.0,2655
845,845,3619.0,845
3342,3342,176.991,3342
904,904,16.465999999999998,904
3486,3486,41.095,3486
2071,2071,3806.0,2071
3487,3487,1053.0,3487
1159,1159,2408.0,1159
3875,3875,1623.0,3875
1053,1053,711.0,1053
4253,4253,1908.0,4253
2218,2218,18.112,2218
3452,3452,10.612,3452
1050,1050,11.08,1050
3659,3659,1992.0,3659
1622,1622,21.003,1622
2713,2713,3099.0,2713
2927,2927,3770.0,2927
710,710,36.538,710
1819,1819,2546.0,1819
2075,2075,732.0,2075
3547,3547,2648.0,3547
1432,1432,13.352,1432
4440,4440,38.195,4440
4391,4391,3929.0,4391
3079,3079,2510.0,3079
929,929,3169.0,929
3722,3722,58.981,3722
2313,2313,2902.0,2313
3297,3297,3350.0,3297
3403,3403,2408.0,3403
1827,1827,50.0,1827
4281,4281,871.0,4281
4272,4272,10.431,4272
3008,3008,15.774,3008
2560,2560,12.297,2560
1932,1932,14.634,1932
3035,3035,162.0,3035
1068,1068,18.773,1068
2445,2445,3080.0,2445
3670,3670,19.855,3670
4379,4379,3978.0,4379
3858,3858,39.867,3858
1157,1157,663.0,1157
2033,2033,1872.0,2033
3250,3250,21.232,3250
2303,2303,1226.0,2303
3829,3829,3690.0,3829
3088,3088,27.285,3088
3889,3889,2947.0,3889
2120,2120,12.667,2120
664,664,20.518,664
1431,1431,3509.0,1431
4458,4458,12.968,4458
843,843,2690.0,843
4239,4239,2150.0,4239
1735,1735,876.0,1735
1842,1842,15.987,1842
2085,2085,720.0,2085
3885,3885,3397.0,3885
2759,2759,1065.0,2759
4210,4210,36.306,4210
2388,2388,23.904,2388
2405,2405,652.0,2405
1073,1073,3990.0,1073
4020,4020,14.845,4020
1284,1284,13.959,1284
2312,2312,10.638,2312
515,515,3195.0,515
1599,1599,4138.0,1599
3041,3041,54.0,3041
4092,4092,11.862,4092
3780,3780,14.526,3780
4165,4165,612.0,4165
3689,3689,2815.0,3689
2489,2489,2022.0,2489
832,832,14.262,832
3334,3334,24.901,3334
2839,2839,2607.0,2839
712,712,13.525,712
865,865,1954.0,865
3019,3019,1238.0,3019
3062,3062,22.461,3062
3230,3230,13.539,3230
2925,2925,3313.0,2925
2197,2197,3441.0,2197
4172,4172,13.06,4172
1816,1816,11.253,1816
939,939,3765.0,939
2349,2349,2587.0,2349
2006,2006,11.775,2006
546,546,14.097,546
4432,4432,11.367,4432
4163,4163,1817.0,4163
3302,3302,20.233,3302
1654,1654,16.63,1654
1119,1119,1333.0,1119
3972,3972,11.437,3972
1398,1398,11.081,1398
3388,3388,20.03,3388
3075,3075,2073.0,3075
4428,4428,14.127,4428
1253,1253,868.0,1253
4256,4256,11.496,4256
636,636,18.374,636
940,940,25.002,940
650,650,17.51,650
2356,2356,11.934,2356
2415,2415,2433.0,2415
3640,3640,22.372,3640
3540,3540,12.042,3540
1550,1550,14.763,1550
3335,3335,3444.0,3335
3425,3425,1772.0,3425
3261,3261,1585.0,3261
896,896,14.196,896
2322,2322,11.367,2322
1271,1271,2486.0,1271
1666,1666,12.22,1666
3573,3573,3521.0,3573
925,925,3363.0,925
4198,4198,17.051,4198
3421,3421,3753.0,3421
872,872,15.032,872
969,969,83.0,969
2996,2996,12.068,2996
2984,2984,14.709,2984
2798,2798,15.967,2798
4416,4416,35.462,4416
2523,2523,1521.0,2523
2667,2667,3831.0,2667
2744,2744,18.4,2744
4069,4069,3141.0,4069
1901,1901,2918.0,1901
2965,2965,4167.0,2965
846,846,13.823,846
4354,4354,52.926,4354
854,854,11.183,854
3181,3181,3728.0,3181
3828,3828,14.493,3828
4189,4189,2089.0,4189
2888,2888,10.433,2888
1707,1707,829.0,1707
1074,1074,12.994000000000002,1074
3309,3309,3722.0,3309
2982,2982,10.974,2982
3211,3211,274.0,3211
2882,2882,11.646,2882
1759,1759,709.0,1759
2859,2859,998.0,2859
2893,2893,836.0,2893
603,603,3683.0,603
2630,2630,15.683,2630
1528,1528,16.785999999999998,1528
3856,3856,141.59799999999996,3856
510,510,10.78,510
3094,3094,18.359,3094
1411,1411,3516.0,1411
1187,1187,3421.0,1187
2922,2922,11.795,2922
2792,2792,43.181,2792
3562,3562,12.542,3562
3107,3107,151.0,3107
2274,2274,12.16,2274
2231,2231,2627.0,2231
3544,3544,10.451,3544
635,635,1318.0,635
3354,3354,39.66,3354
1889,1889,3470.0,1889
4377,4377,372.0,4377
3030,3030,14.328,3030
2210,2210,10.933,2210
2121,2121,3032.0,2121
1542,1542,20.509,1542
2213,2213,1812.0,2213
2851,2851,1081.0,2851
3527,3527,2129.0,3527
1486,1486,13.321,1486
1610,1610,17.154,1610
2784,2784,27.878,2784
2988,2988,10.673,2988
541,541,2652.0,541
3076,3076,36.701,3076
2593,2593,1817.0,2593
1608,1608,15.909,1608
4173,4173,2233.0,4173
1520,1520,23.223000000000006,1520
1261,1261,2654.0,1261
4243,4243,3422.0,4243
3539,3539,3857.0,3539
1125,1125,3990.0,1125
3569,3569,1014.0,3569
697,697,1031.0,697
4422,4422,13.466,4422
1108,1108,16.083,1108
616,616,33.697,616
2305,2305,2169.0,2305
1355,1355,682.0,1355
3653,3653,2929.0,3653
3472,3472,21.266,3472
3167,3167,265.0,3167
990,990,12.757,990
4400,4400,13.897,4400
3003,3003,3211.0,3003
3815,3815,2742.0,3815
3586,3586,22.741,3586
1989,1989,3054.0,1989
2542,2542,14.451,2542
4191,4191,2631.0,4191
871,871,134.0,871
3007,3007,3996.0,3007
2485,2485,2558.0,2485
3456,3456,22.233,3456
1799,1799,4172.0,1799
1782,1782,24.72,1782
503,503,1781.0,503
2884,2884,11.578,2884
4415,4415,2823.0,4415
1245,1245,1905.0,1245
3188,3188,14.666,3188
3711,3711,2746.0,3711
3291,3291,3732.0,3291
1719,1719,3901.0,1719
2030,2030,12.777,2030
2326,2326,14.938,2326
2841,2841,3438.0,2841
1600,1600,19.495,1600
2287,2287,724.0,2287
4324,4324,41.58,4324
2086,2086,22.141,2086
4003,4003,2763.0,4003
3058,3058,11.989,3058
746,746,11.472,746
2931,2931,3609.0,2931
1469,1469,2307.0,1469
3908,3908,11.961,3908
3897,3897,2133.0,3897
4048,4048,32.887,4048
2404,2404,11.765,2404
2668,2668,21.489,2668
2990,2990,11.023,2990
1898,1898,30.455,1898
4366,4366,11.445,4366
4320,4320,11.986,4320
1682,1682,19.164,1682
4255,4255,1808.0,4255
530,530,13.594,530
3726,3726,11.61,3726
1757,1757,3861.0,1757
779,779,1204.0,779
3237,3237,2295.0,3237
4227,4227,2269.0,4227
2541,2541,173.0,2541
1164,1164,11.225,1164
3944,3944,15.085,3944
3776,3776,21.814,3776
3625,3625,628.0,3625
1818,1818,13.272,1818
1223,1223,2543.0,1223
3363,3363,2969.0,3363
