,time,rtt,id
3532,3532,132.328,3532
2775,2775,923.0,2775
3798,3798,107.835,3798
3749,3749,1568.0,3749
4093,4093,991.0,4093
3796,3796,25.094,3796
3603,3603,430.0,3603
3025,3025,791.0,3025
1167,1167,1440.0,1167
2587,2587,3087.0,2587
1894,1894,134.849,1894
2629,2629,3170.0,2629
830,830,34.903,830
1920,1920,153.94,1920
3197,3197,1800.0,3197
2426,2426,126.251,2426
2221,2221,3333.0,2221
3959,3959,631.0,3959
3844,3844,142.549,3844
1869,1869,1515.0,1869
2769,2769,1985.0,2769
3820,3820,37.087,3820
4332,4332,105.002,4332
2306,2306,29.643,2306
3071,3071,1650.0,3071
2103,2103,2706.0,2103
655,655,1752.0,655
2833,2833,3201.0,2833
1677,1677,987.0,1677
1736,1736,111.18,1736
3787,3787,879.0,3787
2516,2516,135.84799999999998,2516
2504,2504,134.905,2504
2091,2091,2970.0,2091
4345,4345,306.0,4345
4068,4068,131.10399999999998,4068
4479,4479,3221.0,4479
822,822,36.054,822
3977,3977,515.0,3977
3024,3024,169.27700000000004,3024
3826,3826,108.546,3826
1446,1446,147.624,1446
3015,3015,1896.0,3015
2129,2129,3250.0,2129
3530,3530,29.44,3530
2838,2838,124.525,2838
2688,2688,273.569,2688
1399,1399,1968.0,1399
3949,3949,1199.0,3949
4475,4475,2887.0,4475
2175,2175,2795.0,2175
3672,3672,28.92,3672
4231,4231,2994.0,4231
705,705,1061.0,705
3036,3036,34.473,3036
4330,4330,26.827,4330
4171,4171,2257.0,4171
3642,3642,159.122,3642
1354,1354,33.087,1354
2698,2698,143.862,2698
4114,4114,29.116,4114
4346,4346,115.466,4346
1516,1516,135.011,1516
2328,2328,134.424,2328
673,673,3152.0,673
1449,1449,1281.0,1449
3148,3148,30.292,3148
3794,3794,28.615,3794
1122,1122,167.683,1122
1336,1336,26.694000000000006,1336
4286,4286,145.29399999999995,4286
3975,3975,1661.0,3975
2595,2595,2860.0,2595
2768,2768,142.969,2768
2113,2113,400.0,2113
3372,3372,143.906,3372
2056,2056,30.082,2056
4137,4137,1685.0,4137
3626,3626,112.741,3626
2631,2631,2098.0,2631
2315,2315,1870.0,2315
1692,1692,30.263,1692
1485,1485,1295.0,1485
1096,1096,39.866,1096
511,511,3180.0,511
2608,2608,27.275,2608
577,577,1225.0,577
3358,3358,100.786,3358
2418,2418,105.055,2418
2363,2363,2029.0,2363
1549,1549,3186.0,1549
3186,3186,105.093,3186
3319,3319,2275.0,3319
3084,3084,27.22,3084
623,623,1000.0,623
3676,3676,101.632,3676
2471,2471,2669.0,2471
1579,1579,1572.0,1579
2950,2950,28.451,2950
727,727,3091.0,727
1335,1335,1763.0,1335
3772,3772,130.26,3772
3880,3880,129.727,3880
2544,2544,160.467,2544
4229,4229,3046.0,4229
2284,2284,131.695,2284
4354,4354,169.155,4354
2906,2906,128.72299999999998,2906
1970,1970,135.901,1970
855,855,1471.0,855
3762,3762,156.03,3762
2154,2154,135.63,2154
2568,2568,121.41,2568
1022,1022,161.58700000000005,1022
4205,4205,2348.0,4205
3169,3169,2752.0,3169
3049,3049,2495.0,3049
4329,4329,900.0,4329
2094,2094,36.628,2094
1373,1373,1003.0,1373
2124,2124,162.363,2124
3682,3682,148.13299999999995,3682
756,756,129.82399999999998,756
4577,4577,3436.0,4577
547,547,1991.0,547
2602,2602,145.339,2602
1576,1576,145.365,1576
2840,2840,26.351,2840
4478,4478,25.803,4478
2980,2980,114.586,2980
4312,4312,287.172,4312
3666,3666,135.996,3666
1988,1988,125.185,1988
2159,2159,1246.0,2159
513,513,1865.0,513
1980,1980,136.204,1980
1994,1994,35.626,1994
3154,3154,32.122,3154
3709,3709,396.0,3709
3954,3954,33.479,3954
4190,4190,131.707,4190
2825,2825,2470.0,2825
763,763,1627.0,763
905,905,2282.0,905
1141,1141,2231.0,1141
2547,2547,1979.0,2547
2443,2443,2966.0,2443
695,695,1876.0,695
3325,3325,2864.0,3325
2463,2463,578.0,2463
1490,1490,146.72799999999995,1490
3871,3871,2128.0,3871
3004,3004,128.359,3004
3017,3017,3434.0,3017
2106,2106,135.091,2106
1275,1275,411.0,1275
1756,1756,107.22,1756
2127,2127,819.0,2127
2512,2512,148.095,2512
2683,2683,466.0,2683
2685,2685,960.0,2685
1206,1206,105.359,1206
3696,3696,145.22899999999996,3696
978,978,148.04,978
3938,3938,42.832,3938
2164,2164,149.077,2164
2537,2537,3264.0,2537
1453,1453,1992.0,1453
1921,1921,2427.0,1921
3966,3966,143.384,3966
798,798,33.587,798
3903,3903,3250.0,3903
1191,1191,3154.0,1191
1419,1419,514.0,1419
1174,1174,150.836,1174
4491,4491,2894.0,4491
812,812,129.659,812
3641,3641,1362.0,3641
2422,2422,105.536,2422
3192,3192,30.465,3192
4088,4088,34.331,4088
4212,4212,38.753,4212
2612,2612,151.257,2612
1252,1252,102.745,1252
1632,1632,129.51,1632
3147,3147,1015.0,3147
2681,2681,917.0,2681
1943,1943,2652.0,1943
3077,3077,586.0,3077
928,928,26.144,928
3656,3656,37.551,3656
1043,1043,936.0,1043
2638,2638,211.622,2638
2933,2933,2553.0,2933
1712,1712,146.02100000000004,1712
2670,2670,144.80700000000004,2670
2707,2707,2625.0,2707
3437,3437,2324.0,3437
1684,1684,122.128,1684
1545,1545,3048.0,1545
4571,4571,3457.0,4571
818,818,149.721,818
4009,4009,952.0,4009
3759,3759,2878.0,3759
3300,3300,30.434,3300
2565,2565,1680.0,2565
2710,2710,317.212,2710
1297,1297,2387.0,1297
1636,1636,26.565,1636
773,773,1288.0,773
2527,2527,2577.0,2527
720,720,147.174,720
1323,1323,2414.0,1323
2291,2291,547.0,2291
2497,2497,1163.0,2497
2026,2026,149.858,2026
2392,2392,112.561,2392
3677,3677,2810.0,3677
2637,2637,2237.0,2637
1364,1364,165.023,1364
3860,3860,28.974,3860
3020,3020,31.822,3020
4581,4581,2701.0,4581
740,740,140.109,740
3872,3872,28.784,3872
4421,4421,2695.0,4421
1559,1559,1846.0,1559
1886,1886,103.528,1886
1583,1583,2964.0,1583
4300,4300,106.983,4300
1602,1602,130.058,1602
1908,1908,26.78,1908
1256,1256,146.997,1256
4443,4443,914.0,4443
4367,4367,2561.0,4367
4004,4004,28.263,4004
2592,2592,148.977,2592
955,955,2484.0,955
1239,1239,1190.0,1239
1289,1289,471.0,1289
1377,1377,1738.0,1377
2391,2391,1391.0,2391
3086,3086,149.922,3086
1977,1977,2919.0,1977
3028,3028,284.625,3028
4322,4322,25.046,4322
1691,1691,3490.0,1691
598,598,138.14600000000002,598
2112,2112,154.162,2112
2962,2962,152.03,2962
3264,3264,31.418000000000006,3264
2660,2660,143.14,2660
3511,3511,938.0,3511
1018,1018,141.19899999999996,1018
566,566,25.435,566
2732,2732,35.188,2732
3345,3345,1071.0,3345
2936,2936,25.552,2936
3663,3663,2771.0,3663
651,651,397.0,651
1896,1896,133.936,1896
2278,2278,29.989,2278
3559,3559,925.0,3559
3047,3047,2922.0,3047
1029,1029,2159.0,1029
2161,2161,544.0,2161
1658,1658,35.821,1658
3164,3164,101.367,3164
4575,4575,819.0,4575
3738,3738,138.586,3738
690,690,25.612,690
2430,2430,100.205,2430
906,906,33.33,906
3792,3792,158.634,3792
3775,3775,2608.0,3775
1274,1274,27.464,1274
2846,2846,141.899,2846
4446,4446,27.897,4446
3217,3217,889.0,3217
1574,1574,26.528,1574
3906,3906,27.281,3906
2170,2170,29.2,2170
2012,2012,148.216,2012
783,783,2753.0,783
4196,4196,25.657,4196
2144,2144,30.015,2144
2374,2374,137.947,2374
2439,2439,1872.0,2439
2680,2680,100.553,2680
4459,4459,1297.0,4459
1063,1063,2355.0,1063
1903,1903,2181.0,1903
933,933,1592.0,933
2876,2876,129.319,2876
3410,3410,148.82399999999996,3410
2992,2992,180.469,2992
4411,4411,823.0,4411
3578,3578,118.256,3578
3281,3281,3415.0,3281
4259,4259,2530.0,4259
877,877,2093.0,877
2272,2272,64.28,2272
4313,4313,1081.0,4313
4386,4386,31.056,4386
3542,3542,155.67600000000004,3542
1957,1957,1712.0,1957
1830,1830,28.692,1830
2249,2249,2632.0,2249
885,885,1457.0,885
748,748,31.223000000000006,748
2059,2059,1168.0,2059
3331,3331,3464.0,3331
3390,3390,31.168000000000006,3390
3064,3064,37.009,3064
3718,3718,136.246,3718
2783,2783,3446.0,2783
3451,3451,2811.0,3451
4402,4402,119.316,4402
1833,1833,1515.0,1833
4358,4358,54.922,4358
2603,2603,2092.0,2603
1171,1171,3178.0,1171
589,589,1850.0,589
1866,1866,55.73,1866
2546,2546,130.97899999999998,2546
1553,1553,3444.0,1553
3752,3752,28.155,3752
4279,4279,1163.0,4279
718,718,30.987,718
3352,3352,101.43,3352
1900,1900,152.234,1900
1376,1376,27.655,1376
1306,1306,136.695,1306
3811,3811,3282.0,3811
2176,2176,29.129,2176
1255,1255,1130.0,1255
2814,2814,27.039,2814
4035,4035,1397.0,4035
1717,1717,3375.0,1717
2233,2233,1011.0,2233
3114,3114,134.053,3114
1067,1067,1330.0,1067
1260,1260,28.456,1260
1311,1311,1130.0,1311
3306,3306,150.874,3306
2788,2788,129.876,2788
1566,1566,108.782,1566
3996,3996,142.099,3996
3839,3839,1311.0,3839
1956,1956,148.28799999999995,1956
1594,1594,108.31,1594
1442,1442,155.295,1442
3152,3152,29.042,3152
2297,2297,3161.0,2297
1352,1352,35.606,1352
3736,3736,30.069000000000006,3736
3249,3249,2087.0,3249
1862,1862,113.63,1862
3463,3463,2100.0,3463
4525,4525,1521.0,4525
1961,1961,3414.0,1961
1571,1571,1617.0,1571
3415,3415,1058.0,3415
1544,1544,130.41899999999998,1544
1429,1429,1892.0,1429
3318,3318,138.477,3318
2687,2687,3311.0,2687
3543,3543,3445.0,3543
3457,3457,2793.0,3457
3126,3126,26.581,3126
3045,3045,3049.0,3045
3901,3901,963.0,3901
3118,3118,148.815,3118
3392,3392,161.57399999999996,3392
4014,4014,28.932,4014
2117,2117,982.0,2117
2642,2642,110.497,2642
3206,3206,30.415,3206
776,776,138.73,776
3234,3234,286.933,3234
2209,2209,1748.0,2209
4091,4091,990.0,4091
1510,1510,110.256,1510
4184,4184,31.817,4184
700,700,25.595,700
4362,4362,146.312,4362
4269,4269,2327.0,4269
3450,3450,26.31,3450
2686,2686,27.579,2686
1182,1182,33.088,1182
2230,2230,124.357,2230
2047,2047,2007.0,2047
861,861,1913.0,861
3172,3172,42.034,3172
2918,2918,215.951,2918
4466,4466,145.036,4466
3419,3419,3376.0,3419
4281,4281,2816.0,4281
3135,3135,1734.0,3135
3993,3993,458.0,3993
3866,3866,28.887,3866
2142,2142,145.578,2142
2690,2690,28.421,2690
2288,2288,150.064,2288
1929,1929,1332.0,1929
2155,2155,759.0,2155
3983,3983,1314.0,3983
4260,4260,26.482,4260
4359,4359,1269.0,4359
3853,3853,2901.0,3853
950,950,28.297,950
1580,1580,136.472,1580
504,504,105.719,504
4424,4424,135.184,4424
3921,3921,3004.0,3921
1509,1509,2513.0,1509
3597,3597,3465.0,3597
4337,4337,567.0,4337
2459,2459,880.0,2459
1731,1731,393.0,1731
1931,1931,1988.0,1931
1016,1016,139.775,1016
3447,3447,2618.0,3447
956,956,33.909,956
3751,3751,739.0,3751
3840,3840,157.67,3840
3693,3693,2892.0,3693
1126,1126,148.61700000000005,1126
2024,2024,105.161,2024
3253,3253,2559.0,3253
2192,2192,26.8,2192
1685,1685,2361.0,1685
2662,2662,36.406,2662
3589,3589,1289.0,3589
3914,3914,25.212,3914
708,708,25.733,708
675,675,779.0,675
751,751,1953.0,751
2545,2545,2912.0,2545
3742,3742,150.219,3742
3980,3980,25.813,3980
1828,1828,29.463,1828
3133,3133,481.0,3133
3408,3408,102.635,3408
4562,4562,124.702,4562
2432,2432,31.693,2432
2529,2529,1946.0,2529
2942,2942,31.097,2942
4316,4316,132.363,4316
1577,1577,2024.0,1577
2564,2564,135.016,2564
1301,1301,1830.0,1301
4119,4119,668.0,4119
4420,4420,141.23,4420
784,784,103.125,784
4490,4490,125.197,4490
4365,4365,3162.0,4365
520,520,26.037,520
2524,2524,25.378,2524
2581,2581,3018.0,2581
2182,2182,159.501,2182
2001,2001,2230.0,2001
3493,3493,998.0,3493
2820,2820,144.378,2820
4046,4046,56.306,4046
912,912,29.624,912
2052,2052,127.109,2052
1935,1935,1954.0,1935
3785,3785,910.0,3785
941,941,880.0,941
3999,3999,1095.0,3999
2043,2043,2694.0,2043
1670,1670,142.72899999999996,1670
666,666,57.899,666
1916,1916,105.801,1916
2740,2740,43.77,2740
3343,3343,2941.0,3343
897,897,1287.0,897
1750,1750,40.125,1750
2519,2519,3481.0,2519
1870,1870,159.637,1870
1616,1616,40.919,1616
2945,2945,434.0,2945
3021,3021,1895.0,3021
1637,1637,3403.0,1637
3652,3652,159.866,3652
2677,2677,1919.0,2677
1057,1057,1034.0,1057
1523,1523,2107.0,1523
3103,3103,696.0,3103
3867,3867,2668.0,3867
742,742,100.889,742
3401,3401,460.0,3401
1158,1158,109.435,1158
2770,2770,28.078000000000007,2770
2794,2794,111.387,2794
2954,2954,26.047,2954
2163,2163,1926.0,2163
4176,4176,142.928,4176
2778,2778,155.023,2778
2957,2957,2687.0,2957
3054,3054,157.471,3054
4195,4195,1310.0,4195
1395,1395,3008.0,1395
2663,2663,1643.0,2663
3515,3515,1993.0,3515
3458,3458,25.396,3458
3347,3347,2087.0,3347
3805,3805,3505.0,3805
2377,2377,3098.0,2377
593,593,1310.0,593
3310,3310,32.533,3310
3184,3184,31.656,3184
571,571,1643.0,571
1696,1696,29.652,1696
562,562,135.722,562
3863,3863,3158.0,3863
1037,1037,1806.0,1037
1339,1339,2402.0,1339
2393,2393,475.0,2393
1768,1768,26.7,1768
3417,3417,447.0,3417
4141,4141,922.0,4141
1462,1462,28.556,1462
1575,1575,998.0,1575
4086,4086,29.304,4086
1147,1147,856.0,1147
2793,2793,3439.0,2793
3940,3940,103.813,3940
1212,1212,31.435,1212
977,977,1072.0,977
3262,3262,298.516,3262
737,737,2406.0,737
3449,3449,2660.0,3449
1161,1161,976.0,1161
2868,2868,29.71,2868
754,754,131.675,754
934,934,136.753,934
714,714,30.455,714
3845,3845,2201.0,3845
4477,4477,448.0,4477
3721,3721,1657.0,3721
1155,1155,1785.0,1155
1330,1330,29.582,1330
4057,4057,2301.0,4057
1558,1558,146.888,1558
1307,1307,1047.0,1307
2347,2347,1990.0,2347
4251,4251,3252.0,4251
592,592,117.974,592
3615,3615,1756.0,3615
3552,3552,137.308,3552
1436,1436,122.649,1436
2095,2095,3048.0,2095
3413,3413,2788.0,3413
3519,3519,1755.0,3519
521,521,700.0,521
2240,2240,26.501,2240
4072,4072,112.861,4072
4554,4554,128.96,4554
3617,3617,2912.0,3617
1138,1138,26.088,1138
2362,2362,139.111,2362
4219,4219,2566.0,4219
4008,4008,32.389,4008
787,787,2035.0,787
2571,2571,1990.0,2571
3063,3063,1819.0,3063
2304,2304,104.46,2304
3538,3538,32.757,3538
1082,1082,104.947,1082
3997,3997,1092.0,3997
2373,2373,1906.0,2373
1094,1094,162.35299999999995,1094
1004,1004,130.844,1004
4347,4347,2238.0,4347
1291,1291,3015.0,1291
4067,4067,2259.0,4067
2826,2826,42.372,2826
3992,3992,151.327,3992
2040,2040,29.305,2040
641,641,1902.0,641
509,509,685.0,509
3685,3685,2800.0,3685
2780,2780,31.007,2780
902,902,104.02,902
4236,4236,33.716,4236
3629,3629,3145.0,3629
1672,1672,35.884,1672
1619,1619,1983.0,1619
2226,2226,25.621,2226
659,659,2337.0,659
3387,3387,1311.0,3387
4111,4111,2895.0,4111
2452,2452,27.276,2452
953,953,2832.0,953
3338,3338,135.86,3338
2165,2165,3439.0,2165
4527,4527,1702.0,4527
1820,1820,104.108,1820
3931,3931,522.0,3931
3081,3081,1402.0,3081
1124,1124,131.386,1124
1384,1384,33.405,1384
1648,1648,25.041,1648
3843,3843,900.0,3843
2964,2964,156.578,2964
1552,1552,26.91,1552
741,741,2333.0,741
2847,2847,1526.0,2847
3890,3890,101.428,3890
2389,2389,2579.0,2389
1630,1630,36.334,1630
569,569,3051.0,569
2057,2057,2222.0,2057
2203,2203,1100.0,2203
1382,1382,25.257,1382
2062,2062,27.916,2062
2073,2073,983.0,2073
1924,1924,152.994,1924
3680,3680,26.23,3680
4296,4296,28.552,4296
3155,3155,3211.0,3155
3627,3627,1339.0,3627
3332,3332,144.026,3332
3621,3621,1001.0,3621
2290,2290,152.218,2290
4087,4087,874.0,4087
1885,1885,1962.0,1885
3166,3166,41.48,3166
3209,3209,1319.0,3209
1906,1906,29.589,1906
582,582,142.835,582
775,775,2065.0,775
2460,2460,149.069,2460
604,604,25.747,604
2334,2334,106.72,2334
4105,4105,1587.0,4105
2811,2811,461.0,2811
2296,2296,27.783,2296
1501,1501,1554.0,1501
4043,4043,3392.0,4043
4442,4442,29.902,4442
4426,4426,139.805,4426
2929,2929,2326.0,2929
2358,2358,26.047,2358
3120,3120,30.089,3120
1437,1437,881.0,1437
3550,3550,32.755,3550
3085,3085,351.0,3085
1123,1123,938.0,1123
4508,4508,145.567,4508
3194,3194,167.074,3194
2179,2179,2809.0,2179
974,974,143.07399999999996,974
1250,1250,103.95,1250
803,803,1998.0,803
3014,3014,29.78,3014
4077,4077,469.0,4077
3883,3883,3041.0,3883
4515,4515,2862.0,4515
680,680,102.126,680
3668,3668,128.779,3668
1556,1556,130.529,1556
4374,4374,26.568,4374
2808,2808,209.716,2808
1633,1633,3377.0,1633
2348,2348,38.223,2348
2446,2446,129.74200000000002,2446
1341,1341,3235.0,1341
2509,2509,1393.0,2509
3279,3279,2130.0,3279
1019,1019,2587.0,1019
2028,2028,30.318,2028
4414,4414,33.024,4414
2772,2772,137.36,2772
1838,1838,128.406,1838
1724,1724,29.336,1724
1036,1036,138.916,1036
3098,3098,185.134,3098
1839,1839,2570.0,1839
911,911,316.0,911
1099,1099,2025.0,1099
870,870,26.617,870
2105,2105,3219.0,2105
989,989,932.0,989
3774,3774,26.2,3774
1299,1299,2759.0,1299
2466,2466,26.411,2466
3584,3584,40.948,3584
1557,1557,1803.0,1557
3658,3658,63.226000000000006,3658
2424,2424,112.38,2424
2619,2619,3428.0,2619
2737,2737,923.0,2737
1139,1139,2598.0,1139
3439,3439,2383.0,3439
1624,1624,126.845,1624
3933,3933,1045.0,3933
772,772,26.389,772
3887,3887,2710.0,3887
2484,2484,114.908,2484
2212,2212,140.44799999999998,2212
1210,1210,148.766,1210
3106,3106,112.467,3106
4058,4058,27.914,4058
3366,3366,26.404,3366
2037,2037,1923.0,2037
1733,1733,2789.0,1733
4497,4497,1713.0,4497
2044,2044,44.337,2044
1680,1680,105.058,1680
2621,2621,1085.0,2621
2177,2177,2379.0,2177
1427,1427,2269.0,1427
4401,4401,342.0,4401
1505,1505,3411.0,1505
1620,1620,30.634,1620
3471,3471,1728.0,3471
4393,4393,2459.0,4393
1493,1493,3506.0,1493
2863,2863,1212.0,2863
4235,4235,2739.0,4235
1573,1573,2253.0,1573
1186,1186,147.071,1186
3313,3313,1360.0,3313
2574,2574,31.756,2574
765,765,2234.0,765
4419,4419,1390.0,4419
2532,2532,153.125,2532
2569,2569,3451.0,2569
3496,3496,32.464,3496
2961,2961,2910.0,2961
2359,2359,1600.0,2359
2206,2206,28.826,2206
852,852,138.14700000000002,852
2735,2735,500.0,2735
983,983,2495.0,983
1851,1851,653.0,1851
2178,2178,147.475,2178
3426,3426,28.928,3426
3773,3773,2562.0,3773
1660,1660,26.594,1660
931,931,933.0,931
4120,4120,148.79,4120
1478,1478,149.151,1478
3639,3639,3101.0,3639
630,630,33.518,630
702,702,152.185,702
867,867,3357.0,867
1805,1805,1599.0,1805
2651,2651,2555.0,2651
1097,1097,890.0,1097
2657,2657,794.0,2657
3461,3461,2743.0,3461
4549,4549,2282.0,4549
2350,2350,156.001,2350
4025,4025,2352.0,4025
3782,3782,161.157,3782
1641,1641,2512.0,1641
3846,3846,100.889,3846
3280,3280,35.79,3280
717,717,3052.0,717
707,707,2817.0,707
1913,1913,2647.0,1913
3037,3037,2802.0,3037
4481,4481,3008.0,4481
2238,2238,44.523,2238
3002,3002,31.302,3002
2625,2625,1919.0,2625
1414,1414,108.383,1414
2520,2520,29.666,2520
3884,3884,146.827,3884
3212,3212,148.47899999999996,3212
2908,2908,26.337,2908
1686,1686,27.026,1686
1801,1801,2040.0,1801
3465,3465,3287.0,3465
4398,4398,25.5,4398
3236,3236,143.934,3236
2848,2848,25.579,2848
4476,4476,35.256,4476
2970,2970,142.349,2970
506,506,31.232,506
2065,2065,610.0,2065
1763,1763,575.0,1763
2791,2791,3457.0,2791
4317,4317,808.0,4317
3349,3349,1598.0,3349
3582,3582,113.496,3582
3679,3679,2656.0,3679
4157,4157,1424.0,4157
3092,3092,128.066,3092
4047,4047,1962.0,4047
3683,3683,644.0,3683
4110,4110,26.376,4110
558,558,31.105,558
2966,2966,29.7,2966
2258,2258,30.7,2258
3446,3446,144.162,3446
4336,4336,135.714,4336
875,875,688.0,875
2611,2611,331.0,2611
3675,3675,1389.0,3675
2140,2140,140.355,2140
2830,2830,35.813,2830
1102,1102,145.45,1102
1001,1001,2275.0,1001
4560,4560,133.649,4560
2118,2118,25.803,2118
1244,1244,30.39,1244
4394,4394,147.368,4394
1671,1671,3315.0,1671
2200,2200,29.82,2200
1148,1148,163.24,1148
3503,3503,485.0,3503
619,619,1375.0,619
2543,2543,319.0,2543
2708,2708,29.315,2708
2510,2510,109.74,2510
4247,4247,3362.0,4247
876,876,107.551,876
4495,4495,2325.0,4495
2412,2412,39.4,2412
2943,2943,441.0,2943
3476,3476,40.372,3476
1665,1665,916.0,1665
3362,3362,48.736,3362
2586,2586,27.542,2586
1408,1408,107.398,1408
1824,1824,149.505,1824
1241,1241,2913.0,1241
1293,1293,2652.0,1293
3817,3817,439.0,3817
4301,4301,2379.0,4301
4500,4500,109.343,4500
3509,3509,351.0,3509
568,568,43.789,568
4238,4238,153.52100000000004,4238
1532,1532,32.11,1532
3528,3528,140.05,3528
2550,2550,103.172,2550
3690,3690,29.236,3690
4160,4160,135.785,4160
4249,4249,751.0,4249
811,811,827.0,811
819,819,963.0,819
1711,1711,1388.0,1711
1456,1456,152.166,1456
3729,3729,3442.0,3729
2324,2324,149.546,2324
3149,3149,3053.0,3149
4024,4024,26.854,4024
684,684,130.657,684
4350,4350,103.852,4350
1593,1593,1837.0,1593
3140,3140,40.202,3140
3766,3766,47.352,3766
3274,3274,28.101,3274
3520,3520,28.834,3520
924,924,149.744,924
2483,2483,3056.0,2483
2174,2174,28.929,2174
1267,1267,1537.0,1267
2000,2000,28.905,2000
3854,3854,131.017,3854
2858,2858,234.664,2858
1754,1754,29.008000000000006,1754
3263,3263,3047.0,3263
2934,2934,129.94,2934
1524,1524,41.209,1524
844,844,34.458,844
3608,3608,31.725,3608
1014,1014,49.407,1014
1362,1362,106.134,1362
2476,2476,149.306,2476
833,833,1883.0,833
1471,1471,2710.0,1471
4252,4252,26.957,4252
3991,3991,1379.0,3991
1062,1062,160.526,1062
1743,1743,2028.0,1743
3536,3536,161.636,3536
2721,2721,2018.0,2721
3891,3891,2966.0,3891
2634,2634,35.521,2634
1982,1982,27.32,1982
3971,3971,1974.0,3971
4492,4492,132.2,4492
1578,1578,143.321,1578
1639,1639,852.0,1639
2879,2879,3036.0,2879
3735,3735,396.0,3735
1765,1765,1428.0,1765
958,958,105.551,958
1928,1928,45.948,1928
979,979,2743.0,979
3728,3728,157.92600000000004,3728
2855,2855,874.0,2855
2709,2709,1926.0,2709
738,738,149.94,738
1585,1585,2026.0,1585
4378,4378,40.153,4378
4155,4155,667.0,4155
2764,2764,129.80100000000002,2764
1329,1329,398.0,1329
2853,2853,2797.0,2853
716,716,27.927,716
3704,3704,104.289,3704
1603,1603,1999.0,1603
1669,1669,606.0,1669
1334,1334,150.10299999999995,1334
1317,1317,1543.0,1317
4215,4215,3119.0,4215
4027,4027,1477.0,4027
1027,1027,3322.0,1027
3351,3351,3171.0,3351
3737,3737,1307.0,3737
1714,1714,140.421,1714
4369,4369,1262.0,4369
3788,3788,106.021,3788
3369,3369,2944.0,3369
3760,3760,136.437,3760
1246,1246,25.083,1246
2122,2122,41.585,2122
4352,4352,164.94400000000005,4352
1492,1492,151.59,1492
909,909,1913.0,909
1452,1452,135.626,1452
834,834,38.28,834
1678,1678,164.787,1678
3701,3701,2867.0,3701
1090,1090,71.47,1090
4118,4118,29.604,4118
1472,1472,148.839,1472
2696,2696,145.03,2696
935,935,1210.0,935
4263,4263,1133.0,4263
3879,3879,2597.0,3879
3308,3308,142.86700000000005,3308
4353,4353,1474.0,4353
1525,1525,1253.0,1525
898,898,26.221,898
2425,2425,1712.0,2425
545,545,3151.0,545
2813,2813,1594.0,2813
3121,3121,2861.0,3121
3558,3558,134.64,3558
2342,2342,28.144,2342
3713,3713,770.0,3713
621,621,1774.0,621
2818,2818,200.054,2818
3643,3643,1323.0,3643
815,815,466.0,815
4333,4333,1694.0,4333
3566,3566,133.739,3566
2615,2615,2407.0,2615
608,608,173.824,608
1066,1066,135.631,1066
3269,3269,1911.0,3269
2575,2575,2594.0,2575
4523,4523,569.0,4523
4524,4524,110.964,4524
1720,1720,26.723000000000006,1720
4104,4104,33.571,4104
3710,3710,26.665,3710
2398,2398,64.40899999999999,2398
2380,2380,28.397,2380
4230,4230,33.455,4230
2353,2353,2908.0,2353
2570,2570,112.043,2570
3171,3171,2598.0,3171
1179,1179,2789.0,1179
4389,4389,861.0,4389
1597,1597,2412.0,1597
1054,1054,104.789,1054
1184,1184,152.975,1184
572,572,47.989,572
1909,1909,1598.0,1909
918,918,29.024,918
1262,1262,151.44,1262
1568,1568,26.868,1568
1181,1181,2531.0,1181
1939,1939,1308.0,1939
1003,1003,1363.0,1003
595,595,2385.0,595
2731,2731,3346.0,2731
988,988,25.439,988
2093,2093,696.0,2093
810,810,53.49800000000001,810
4140,4140,34.236999999999995,4140
1514,1514,26.033,1514
1742,1742,125.977,1742
1000,1000,151.064,1000
1859,1859,1376.0,1859
3874,3874,27.776,3874
1415,1415,751.0,1415
4218,4218,259.517,4218
2944,2944,161.797,2944
3490,3490,126.76,3490
3965,3965,2705.0,3965
1631,1631,1250.0,1631
1247,1247,2260.0,1247
2815,2815,560.0,2815
2461,2461,1911.0,2461
4167,4167,3393.0,4167
2214,2214,102.039,2214
1035,1035,1878.0,1035
3934,3934,128.516,3934
4558,4558,149.246,4558
3222,3222,25.331,3222
3329,3329,976.0,3329
2736,2736,115.029,2736
2822,2822,26.818,2822
726,726,27.213,726
2462,2462,109.6,2462
4213,4213,2855.0,4213
4133,4133,3000.0,4133
2562,2562,137.707,2562
2507,2507,880.0,2507
3892,3892,139.894,3892
2325,2325,1382.0,2325
2823,2823,1241.0,2823
4493,4493,2799.0,4493
4129,4129,2894.0,4129
3684,3684,110.67,3684
1508,1508,135.072,1508
3665,3665,1796.0,3665
1412,1412,102.772,1412
1279,1279,2839.0,1279
2816,2816,32.186,2816
1965,1965,2038.0,1965
770,770,104.824,770
4521,4521,2916.0,4521
2679,2679,2072.0,2679
4437,4437,539.0,4437
3406,3406,25.964,3406
3170,3170,142.907,3170
2162,2162,146.938,2162
1280,1280,32.461,1280
3132,3132,37.935,3132
617,617,1196.0,617
3265,3265,1567.0,3265
2955,2955,2892.0,2955
755,755,1997.0,755
2263,2263,1910.0,2263
4413,4413,2546.0,4413
4168,4168,31.364,4168
1202,1202,131.616,1202
2360,2360,30.212,2360
1170,1170,27.051,1170
2414,2414,25.762,2414
766,766,160.17,766
3357,3357,2362.0,3357
1176,1176,162.276,1176
565,565,1500.0,565
1873,1873,1188.0,1873
3963,3963,2362.0,3963
2134,2134,153.139,2134
960,960,148.387,960
2344,2344,149.964,2344
4164,4164,146.622,4164
3502,3502,135.791,3502
3947,3947,2682.0,3947
3123,3123,1016.0,3123
1695,1695,3037.0,1695
1051,1051,2352.0,1051
2454,2454,141.014,2454
3124,3124,108.23,3124
1893,1893,2881.0,1893
2803,2803,378.0,2803
3698,3698,156.773,3698
4154,4154,47.269,4154
3609,3609,1756.0,3609
1878,1878,219.95,1878
4406,4406,144.523,4406
596,596,29.958,596
1968,1968,146.457,1968
2626,2626,103.368,2626
2428,2428,32.823,2428
1621,1621,3050.0,1621
1218,1218,162.173,1218
1183,1183,920.0,1183
2329,2329,2289.0,2329
2785,2785,1871.0,2785
2264,2264,135.149,2264
4051,4051,2569.0,4051
4079,4079,2629.0,4079
2235,2235,3347.0,2235
4526,4526,37.408,4526
3361,3361,1664.0,3361
3570,3570,136.46,3570
3405,3405,348.0,3405
1481,1481,2876.0,1481
4275,4275,1862.0,4275
2985,2985,1687.0,2985
2704,2704,27.984,2704
3506,3506,112.386,3506
3714,3714,25.539,3714
1592,1592,27.801,1592
3011,3011,3080.0,3011
1189,1189,3510.0,1189
1513,1513,2890.0,1513
3284,3284,46.307,3284
1165,1165,321.0,1165
1450,1450,145.814,1450
3031,3031,2720.0,3031
887,887,3050.0,887
1178,1178,25.321,1178
2976,2976,149.504,2976
1861,1861,1163.0,1861
4509,4509,1890.0,4509
3393,3393,3063.0,3393
997,997,1325.0,997
1741,1741,703.0,1741
683,683,1562.0,683
915,915,996.0,915
637,637,1099.0,637
4138,4138,25.675,4138
1730,1730,28.187,1730
4090,4090,26.355,4090
828,828,37.164,828
4518,4518,139.73,4518
1879,1879,2693.0,1879
3448,3448,52.297,3448
3848,3848,105.544,3848
4504,4504,27.33,4504
2643,2643,2911.0,2643
970,970,28.1,970
992,992,112.935,992
2693,2693,2463.0,2693
2076,2076,115.768,2076
2187,2187,1153.0,2187
2767,2767,2375.0,2767
4510,4510,152.243,4510
4344,4344,35.92800000000001,4344
821,821,3202.0,821
3221,3221,2331.0,3221
2609,2609,1437.0,2609
2782,2782,26.492,2782
1690,1690,28.689,1690
4179,4179,2087.0,4179
3056,3056,155.813,3056
4233,4233,859.0,4233
4511,4511,1084.0,4511
2016,2016,28.126,2016
3087,3087,1916.0,3087
1226,1226,30.356,1226
1337,1337,3497.0,1337
4463,4463,2299.0,4463
2874,2874,33.494,2874
3287,3287,487.0,3287
4070,4070,149.30100000000004,4070
4372,4372,130.55700000000002,4372
2763,2763,2971.0,2763
2730,2730,163.968,2730
1890,1890,26.576,1890
3616,3616,26.623,3616
1358,1358,155.428,1358
4304,4304,25.428,4304
3210,3210,245.735,3210
2025,2025,1153.0,2025
4122,4122,161.25799999999995,4122
4096,4096,25.378,4096
1290,1290,105.092,1290
3317,3317,2691.0,3317
557,557,802.0,557
4207,4207,3251.0,4207
3259,3259,1901.0,3259
3526,3526,45.144,3526
4295,4295,1111.0,4295
1315,1315,873.0,1315
2579,2579,367.0,2579
3744,3744,29.783,3744
4254,4254,110.325,4254
3368,3368,107.587,3368
3733,3733,2461.0,3733
2411,2411,1131.0,2411
1278,1278,109.888,1278
3108,3108,26.555,3108
752,752,26.276,752
4580,4580,153.215,4580
4216,4216,142.102,4216
1788,1788,53.692,1788
2097,2097,2875.0,2097
3474,3474,107.895,3474
3964,3964,33.489000000000004,3964
3022,3022,135.394,3022
1263,1263,2077.0,1263
4302,4302,146.22299999999996,4302
4456,4456,134.994,4456
1798,1798,25.742,1798
1858,1858,147.018,1858
842,842,158.608,842
848,848,39.492,848
2493,2493,3027.0,2493
3258,3258,110.834,3258
3827,3827,384.0,3827
3225,3225,331.0,3225
2345,2345,805.0,2345
823,823,1877.0,823
3443,3443,3154.0,3443
747,747,2234.0,747
2370,2370,26.751,2370
4434,4434,41.2,4434
736,736,153.111,736
1188,1188,26.416,1188
524,524,162.61700000000005,524
1612,1612,28.944000000000006,1612
2558,2558,104.888,2558
1746,1746,102.087,1746
2335,2335,2207.0,2335
3042,3042,26.252,3042
4005,4005,467.0,4005
2633,2633,1159.0,2633
824,824,134.908,824
3365,3365,1514.0,3365
3939,3939,974.0,3939
1372,1372,161.033,1372
2548,2548,129.525,2548
4530,4530,125.081,4530
2656,2656,26.695,2656
1224,1224,30.498,1224
4440,4440,26.358,4440
3485,3485,3137.0,3485
3834,3834,27.305,3834
4002,4002,143.144,4002
1423,1423,2167.0,1423
2281,2281,3407.0,2281
3581,3581,1804.0,3581
3557,3557,2307.0,3557
2194,2194,29.767,2194
4175,4175,1088.0,4175
4331,4331,1894.0,4331
3191,3191,3379.0,3191
3251,3251,2976.0,3251
2653,2653,3298.0,2653
2301,2301,2728.0,2301
1810,1810,150.40200000000004,1810
1052,1052,26.219,1052
1967,1967,1976.0,1967
4460,4460,102.598,4460
1867,1867,1940.0,1867
2180,2180,150.967,2180
1814,1814,132.839,1814
3819,3819,827.0,3819
3214,3214,146.484,3214
3929,3929,2369.0,3929
3610,3610,133.18200000000002,3610
2109,2109,1723.0,2109
4543,4543,2945.0,4543
761,761,2703.0,761
634,634,115.541,634
1881,1881,1656.0,1881
3812,3812,147.52700000000004,3812
2801,2801,2248.0,2801
3053,3053,1375.0,3053
3379,3379,2762.0,3379
1213,1213,2312.0,1213
886,886,24.97,886
2535,2535,2746.0,2535
4552,4552,106.78,4552
2745,2745,338.0,2745
3344,3344,103.238,3344
1116,1116,134.07399999999998,1116
1951,1951,2964.0,1951
2243,2243,3393.0,2243
4447,4447,766.0,4447
3691,3691,3233.0,3691
536,536,33.069,536
2717,2717,770.0,2717
3861,3861,3283.0,3861
758,758,140.19,758
4538,4538,28.612,4538
2160,2160,29.867,2160
4169,4169,831.0,4169
3850,3850,101.414,3850
1251,1251,505.0,1251
4253,4253,3444.0,4253
1487,1487,2178.0,1487
588,588,124.795,588
2146,2146,26.963,2146
3705,3705,3296.0,3705
809,809,1616.0,809
2310,2310,30.22,2310
2336,2336,29.23,2336
2007,2007,1707.0,2007
4237,4237,985.0,4237
1473,1473,2295.0,1473
4574,4574,130.454,4574
2211,2211,1512.0,2211
3442,3442,101.373,3442
1647,1647,2895.0,1647
2533,2533,2812.0,2533
4109,4109,1226.0,4109
2247,2247,1149.0,2247
1646,1646,25.089,1646
3033,3033,1375.0,3033
3278,3278,154.437,3278
3283,3283,3350.0,3283
3951,3951,2198.0,3951
3862,3862,131.246,3862
2810,2810,224.696,2810
1588,1588,33.161,1588
3326,3326,38.189,3326
1925,1925,3237.0,1925
878,878,47.657,878
1835,1835,2079.0,1835
3673,3673,2650.0,3673
3177,3177,1927.0,3177
1972,1972,168.78799999999995,1972
4325,4325,1767.0,4325
3462,3462,49.049,3462
2473,2473,2171.0,2473
1640,1640,41.771,1640
2020,2020,33.349000000000004,2020
722,722,30.672,722
1918,1918,53.69300000000001,1918
677,677,2915.0,677
1590,1590,25.837,1590
2458,2458,27.083,2458
4536,4536,144.112,4536
2066,2066,129.735,2066
669,669,3224.0,669
3399,3399,1569.0,3399
3974,3974,27.402,3974
1020,1020,144.404,1020
883,883,1400.0,883
2669,2669,2331.0,2669
3080,3080,226.177,3080
517,517,698.0,517
1328,1328,144.059,1328
2208,2208,145.54399999999995,2208
4567,4567,526.0,4567
3165,3165,944.0,3165
4373,4373,2977.0,4373
2836,2836,140.032,2836
4268,4268,116.834,4268
946,946,161.852,946
4323,4323,2382.0,4323
2987,2987,681.0,2987
2506,2506,134.155,2506
3813,3813,3235.0,3813
2872,2872,283.732,2872
2590,2590,28.722,2590
4031,4031,1108.0,4031
2102,2102,34.809,2102
2449,2449,408.0,2449
2116,2116,124.963,2116
4050,4050,34.314,4050
3667,3667,2133.0,3667
4150,4150,145.219,4150
606,606,132.287,606
663,663,3365.0,663
1059,1059,3402.0,1059
986,986,147.296,986
1379,1379,3505.0,1379
3984,3984,38.116,3984
2766,2766,289.642,2766
1615,1615,1512.0,1615
3112,3112,158.827,3112
966,966,33.139,966
2346,2346,118.716,2346
3324,3324,29.797,3324
4380,4380,111.296,4380
1300,1300,39.15,1300
1296,1296,36.447,1296
1705,1705,2347.0,1705
2114,2114,30.853,2114
2530,2530,29.403,2530
1258,1258,104.335,1258
3150,3150,28.181,3150
1572,1572,113.931,1572
873,873,1034.0,873
2756,2756,295.255,2756
3138,3138,126.363,3138
3072,3072,321.461,3072
4303,4303,2860.0,4303
4309,4309,1257.0,4309
2387,2387,1556.0,2387
4315,4315,665.0,4315
1464,1464,43.668,1464
2997,2997,698.0,2997
2453,2453,1783.0,2453
628,628,115.966,628
3199,3199,3507.0,3199
2444,2444,159.918,2444
2912,2912,208.04,2912
4282,4282,152.316,4282
3898,3898,25.031,3898
3800,3800,44.13399999999999,3800
4321,4321,2940.0,4321
1400,1400,34.019,1400
1378,1378,28.135,1378
4570,4570,121.611,4570
2265,2265,682.0,2265
1953,1953,2114.0,1953
3228,3228,40.104,3228
2714,2714,137.524,2714
2248,2248,34.026,2248
1962,1962,30.555,1962
3339,3339,1547.0,3339
1899,1899,1260.0,1899
1863,1863,674.0,1863
1954,1954,148.697,1954
1381,1381,412.0,1381
3093,3093,2383.0,3093
2699,2699,1560.0,2699
3779,3779,377.0,3779
1098,1098,32.538000000000004,1098
4177,4177,2877.0,4177
4006,4006,145.299,4006
2620,2620,44.12300000000001,2620
899,899,2976.0,899
1912,1912,164.41400000000004,1912
1185,1185,3029.0,1185
1591,1591,1862.0,1591
1367,1367,414.0,1367
4016,4016,26.803,4016
2492,2492,130.914,2492
1627,1627,1085.0,1627
3631,3631,1840.0,3631
771,771,1146.0,771
2953,2953,3445.0,2953
3038,3038,25.699,3038
1013,1013,2409.0,1013
1338,1338,26.066,1338
1249,1249,891.0,1249
2886,2886,132.798,2886
2468,2468,132.12,2468
2968,2968,234.051,2968
3859,3859,2966.0,3859
1937,1937,1137.0,1937
1531,1531,370.0,1531
3767,3767,2147.0,3767
2357,2357,3245.0,2357
3924,3924,37.53,3924
1499,1499,1531.0,1499
2321,2321,2340.0,2321
2338,2338,129.869,2338
3396,3396,147.276,3396
1151,1151,3193.0,1151
518,518,25.737,518
1868,1868,29.638,1868
3190,3190,136.455,3190
2067,2067,1113.0,2067
2488,2488,105.029,2488
3061,3061,3277.0,3061
2599,2599,1596.0,2599
2435,2435,508.0,2435
1169,1169,1943.0,1169
2915,2915,948.0,2915
1945,1945,2321.0,1945
1403,1403,2331.0,1403
1841,1841,1436.0,1841
1015,1015,3158.0,1015
3765,3765,1498.0,3765
835,835,1379.0,835
3478,3478,27.538,3478
3987,3987,2992.0,3987
4429,4429,1699.0,4429
4438,4438,121.332,4438
1964,1964,102.641,1964
3946,3946,137.461,3946
2451,2451,1710.0,2451
639,639,2027.0,639
4145,4145,1646.0,4145
1649,1649,2479.0,1649
3176,3176,148.285,3176
4551,4551,661.0,4551
3575,3575,2104.0,3575
2805,2805,3178.0,2805
2202,2202,131.82399999999998,2202
4555,4555,3280.0,4555
3920,3920,140.55100000000002,3920
3179,3179,1938.0,3179
1993,1993,2108.0,1993
2760,2760,140.403,2760
3818,3818,25.937,3818
2789,2789,2515.0,2789
1480,1480,129.041,1480
3082,3082,30.116,3082
2327,2327,1937.0,2327
2781,2781,606.0,2781
1266,1266,152.05200000000005,1266
1976,1976,145.753,1976
2232,2232,138.58700000000002,2232
3614,3614,146.691,3614
3207,3207,2694.0,3207
829,829,308.0,829
1565,1565,2895.0,1565
3254,3254,158.25,3254
2384,2384,32.414,2384
2773,2773,1482.0,2773
3482,3482,100.784,3482
1804,1804,147.525,1804
3130,3130,25.262,3130
3504,3504,133.925,3504
2849,2849,2027.0,2849
1441,1441,993.0,1441
1500,1500,27.501,1500
2385,2385,1689.0,2385
3203,3203,1529.0,3203
1529,1529,2997.0,1529
1331,1331,3336.0,1331
2911,2911,3428.0,2911
1504,1504,133.009,1504
4341,4341,3224.0,4341
3078,3078,144.691,3078
2438,2438,129.905,2438
534,534,153.289,534
4130,4130,26.002,4130
1609,1609,2429.0,1609
1375,1375,3369.0,1375
1779,1779,420.0,1779
626,626,112.169,626
1776,1776,113.56,1776
2578,2578,26.539,2578
853,853,3216.0,853
1831,1831,2787.0,1831
1407,1407,3071.0,1407
882,882,38.81,882
3360,3360,26.075,3360
2867,2867,1945.0,2867
3590,3590,144.421,3590
1088,1088,102.713,1088
3599,3599,2520.0,3599
4199,4199,1939.0,4199
1162,1162,147.12,1162
4349,4349,698.0,4349
2940,2940,208.186,2940
3267,3267,554.0,3267
2217,2217,2243.0,2217
817,817,2242.0,817
4094,4094,42.929,4094
610,610,26.563,610
725,725,1398.0,725
1769,1769,1274.0,1769
1825,1825,2803.0,1825
2487,2487,666.0,2487
1897,1897,333.0,1897
1137,1137,1729.0,1137
2539,2539,1688.0,2539
994,994,134.958,994
4208,4208,27.039,4208
575,575,1110.0,575
3831,3831,3406.0,3831
2850,2850,27.636,2850
4183,4183,1371.0,4183
2266,2266,103.391,2266
1747,1747,1380.0,1747
1420,1420,36.099,1420
3198,3198,149.95600000000005,3198
3895,3895,2374.0,3895
1243,1243,1578.0,1243
594,594,110.027,594
1231,1231,1174.0,1231
613,613,694.0,613
3602,3602,103.303,3602
2534,2534,160.86,2534
2228,2228,134.421,2228
2078,2078,128.849,2078
570,570,29.263,570
3598,3598,33.511,3598
4011,4011,2921.0,4011
2128,2128,34.446,2128
3882,3882,158.708,3882
2244,2244,144.334,2244
4082,4082,109.154,4082
2898,2898,133.468,2898
2605,2605,1613.0,2605
2606,2606,257.596,2606
1132,1132,117.324,1132
2069,2069,3214.0,2069
4232,4232,43.215,4232
3435,3435,1724.0,3435
730,730,26.493,730
2300,2300,28.835,2300
2434,2434,157.195,2434
2647,2647,2855.0,2647
2926,2926,112.109,2926
4135,4135,2366.0,4135
2371,2371,2648.0,2371
1853,1853,1092.0,1853
938,938,149.739,938
3127,3127,3037.0,3127
2474,2474,32.954,2474
3048,3048,37.327,3048
3830,3830,26.686,3830
3371,3371,3070.0,3371
2723,2723,794.0,2723
3935,3935,954.0,3935
2903,2903,2656.0,2903
1673,1673,3217.0,1673
2079,2079,2330.0,2079
2003,2003,1342.0,2003
3967,3967,487.0,3967
2201,2201,459.0,2201
3802,3802,25.953000000000007,3802
2583,2583,813.0,2583
3468,3468,27.87,3468
2168,2168,164.28599999999997,2168
1302,1302,145.194,1302
2061,2061,346.0,2061
4049,4049,1252.0,4049
1689,1689,3199.0,1689
2181,2181,999.0,2181
3634,3634,124.37,3634
1875,1875,2219.0,1875
1582,1582,28.973000000000006,1582
2172,2172,149.061,2172
4339,4339,3288.0,4339
2332,2332,146.627,2332
1519,1519,1742.0,1519
2812,2812,29.247,2812
4273,4273,1601.0,4273
744,744,28.996,744
3095,3095,2886.0,3095
2604,2604,207.011,2604
4037,4037,3178.0,4037
799,799,1994.0,799
2479,2479,1211.0,2479
1114,1114,39.482,1114
831,831,2847.0,831
2084,2084,152.612,2084
2184,2184,51.615,2184
3678,3678,149.909,3678
1175,1175,1358.0,1175
1815,1815,3458.0,1815
2511,2511,1197.0,2511
4080,4080,140.428,4080
1083,1083,612.0,1083
535,535,857.0,535
2726,2726,33.711,2726
1793,1793,332.0,1793
2761,2761,1961.0,2761
4450,4450,142.004,4450
993,993,394.0,993
1078,1078,62.187,1078
3995,3995,886.0,3995
3771,3771,3227.0,3771
2378,2378,33.364000000000004,2378
4159,4159,1368.0,4159
1716,1716,102.883,1716
698,698,122.363,698
793,793,696.0,793
4000,4000,31.89,4000
3612,3612,129.384,3612
3257,3257,2174.0,3257
900,900,111.997,900
3216,3216,133.10299999999998,3216
2055,2055,836.0,2055
3073,3073,391.0,3073
949,949,1163.0,949
2223,2223,426.0,2223
3905,3905,856.0,3905
4274,4274,30.979,4274
4569,4569,2245.0,4569
3873,3873,2316.0,3873
522,522,148.203,522
2355,2355,3452.0,2355
699,699,1261.0,699
4455,4455,2737.0,4455
2963,2963,1213.0,2963
884,884,140.297,884
1180,1180,131.79399999999998,1180
1871,1871,1852.0,1871
1617,1617,1985.0,1617
3669,3669,2382.0,3669
1661,1661,2502.0,1661
4017,4017,993.0,4017
796,796,115.477,796
1467,1467,559.0,1467
2969,2969,2862.0,2969
3162,3162,29.617,3162
3747,3747,3214.0,3747
903,903,2348.0,903
2659,2659,1341.0,2659
729,729,3120.0,729
647,647,407.0,647
1142,1142,87.307,1142
2993,2993,3243.0,2993
599,599,896.0,599
3513,3513,1468.0,3513
1955,1955,2511.0,1955
2390,2390,121.822,2390
2907,2907,3200.0,2907
3719,3719,3042.0,3719
721,721,3489.0,721
1780,1780,27.047,1780
1416,1416,26.442,1416
2971,2971,513.0,2971
2382,2382,32.203,2382
880,880,33.798,880
2552,2552,30.407,2552
1518,1518,44.29,1518
4550,4550,139.21200000000002,4550
1321,1321,2928.0,1321
913,913,1827.0,913
3018,3018,153.321,3018
3464,3464,34.142,3464
1406,1406,114.48,1406
3423,3423,2614.0,3423
3440,3440,107.121,3440
3328,3328,26.364,3328
1024,1024,211.321,1024
849,849,3364.0,849
4265,4265,863.0,4265
3226,3226,139.93200000000002,3226
2765,2765,947.0,2765
1850,1850,57.275,1850
4019,4019,2467.0,4019
1829,1829,678.0,1829
3838,3838,27.759,3838
2139,2139,2654.0,2139
1781,1781,627.0,1781
1021,1021,2960.0,1021
3412,3412,125.528,3412
3637,3637,1316.0,3637
2267,2267,3500.0,2267
3376,3376,104.05,3376
3320,3320,262.08,3320
4039,4039,367.0,4039
3294,3294,29.899,3294
2036,2036,132.015,2036
3067,3067,928.0,3067
1353,1353,1010.0,1353
1077,1077,772.0,1077
2827,2827,2722.0,2827
3293,3293,1716.0,3293
3655,3655,932.0,3655
620,620,29.957,620
2807,2807,2032.0,2807
4170,4170,131.296,4170
2309,2309,771.0,2309
2004,2004,151.254,2004
4409,4409,2359.0,4409
3432,3432,153.018,3432
2237,2237,1920.0,2237
2295,2295,1510.0,2295
3460,3460,26.221,3460
2227,2227,1703.0,2227
1999,1999,1372.0,1999
4166,4166,152.946,4166
3632,3632,29.738000000000003,3632
531,531,3402.0,531
3730,3730,139.33,3730
4535,4535,1109.0,4535
2469,2469,429.0,2469
3724,3724,158.232,3724
4294,4294,128.94,4294
3551,3551,3237.0,3551
4193,4193,1769.0,4193
1589,1589,1502.0,1589
1883,1883,2007.0,1883
4494,4494,142.944,4494
1852,1852,34.424,1852
3402,3402,210.296,3402
975,975,1965.0,975
2285,2285,2723.0,2285
1752,1752,36.363,1752
2991,2991,1297.0,2991
3948,3948,108.031,3948
1604,1604,27.0,1604
2080,2080,25.39,2080
1101,1101,813.0,1101
1723,1723,2948.0,1723
3340,3340,124.057,3340
1796,1796,128.346,1796
1775,1775,1480.0,1775
3732,3732,146.457,3732
3139,3139,2797.0,3139
2786,2786,130.483,2786
2302,2302,138.977,2302
2554,2554,137.97899999999998,2554
2156,2156,105.013,2156
1380,1380,25.924,1380
3180,3180,150.692,3180
3068,3068,105.275,3068
1396,1396,32.95,1396
3052,3052,28.656,3052
3833,3833,2766.0,3833
4222,4222,29.14,4222
2695,2695,2256.0,2695
2068,2068,140.007,2068
985,985,2680.0,985
1349,1349,2452.0,1349
2983,2983,1342.0,2983
2924,2924,124.237,2924
2896,2896,25.961,2896
3122,3122,107.915,3122
4013,4013,1830.0,4013
3560,3560,30.424,3560
1316,1316,27.048,1316
1470,1470,133.716,1470
4197,4197,2894.0,4197
4448,4448,30.505,4448
2051,2051,1708.0,2051
2588,2588,30.253,2588
3427,3427,3025.0,3427
1817,1817,1416.0,1817
1294,1294,28.562,1294
1533,1533,1802.0,1533
1728,1728,104.289,1728
3534,3534,30.456,3534
1434,1434,104.166,1434
1103,1103,309.0,1103
4115,4115,1994.0,4115
3952,3952,27.708,3952
633,633,643.0,633
3720,3720,148.483,3720
3005,3005,1486.0,3005
1199,1199,829.0,1199
2195,2195,2029.0,2195
3505,3505,3381.0,3505
3857,3857,2635.0,3857
1596,1596,29.874,1596
1369,1369,453.0,1369
3764,3764,138.77700000000002,3764
4307,4307,3127.0,4307
987,987,2086.0,987
2797,2797,1376.0,2797
646,646,145.761,646
3298,3298,146.757,3298
2188,2188,139.279,2188
671,671,1694.0,671
750,750,29.856,750
1772,1772,26.079,1772
1607,1607,2072.0,1607
3574,3574,144.713,3574
1936,1936,105.064,1936
2834,2834,26.439,2834
1652,1652,132.721,1652
2501,2501,3366.0,2501
2694,2694,27.86,2694
1040,1040,32.789,1040
1440,1440,137.836,1440
3842,3842,26.055,3842
3136,3136,25.339,3136
2270,2270,129.789,2270
1991,1991,1260.0,1991
3381,3381,662.0,3381
4102,4102,148.036,4102
1613,1613,1862.0,1613
2749,2749,3359.0,2749
4469,4469,2490.0,4469
627,627,2875.0,627
1880,1880,31.037,1880
660,660,25.785,660
2436,2436,104.335,2436
3896,3896,129.358,3896
4278,4278,266.226,4278
3697,3697,381.0,3697
4404,4404,137.244,4404
1272,1272,164.31400000000005,1272
1892,1892,157.458,1892
622,622,166.21099999999996,622
3359,3359,1796.0,3359
2718,2718,162.187,2718
1131,1131,3013.0,1131
4583,4583,532.0,4583
1595,1595,2596.0,1595
4073,4073,2481.0,4073
4023,4023,1800.0,4023
2416,2416,148.572,2416
1214,1214,31.351,1214
1495,1495,1061.0,1495
794,794,126.558,794
2928,2928,100.408,2928
1451,1451,1660.0,1451
3899,3899,580.0,3899
3244,3244,131.116,3244
2835,2835,2196.0,2835
1503,1503,3456.0,1503
2448,2448,29.299,2448
4531,4531,606.0,4531
3160,3160,129.588,3160
2339,2339,3465.0,2339
625,625,1062.0,625
3256,3256,108.887,3256
1042,1042,163.08100000000005,1042
3111,3111,1927.0,3111
4343,4343,2168.0,4343
2292,2292,29.115,2292
942,942,32.417,942
3533,3533,1718.0,3533
3378,3378,186.957,3378
1821,1821,2083.0,1821
3495,3495,3217.0,3495
2852,2852,28.453000000000007,2852
2691,2691,1561.0,2691
3523,3523,2182.0,3523
3576,3576,168.078,3576
1952,1952,326.369,1952
2901,2901,1733.0,2901
715,715,2160.0,715
3006,3006,140.999,3006
1674,1674,135.328,1674
2394,2394,150.303,2394
2522,2522,125.56,2522
1560,1560,162.125,1560
4248,4248,177.041,4248
785,785,3472.0,785
1025,1025,1820.0,1025
888,888,157.454,888
1448,1448,34.957,1448
2319,2319,3181.0,2319
2408,2408,28.364,2408
1948,1948,170.46,1948
2878,2878,38.608,2878
4158,4158,25.991,4158
4319,4319,2281.0,4319
2974,2974,273.341,2974
3606,3606,125.377,3606
1288,1288,55.96,1288
790,790,33.689,790
4262,4262,320.488,4262
4042,4042,37.666,4042
1413,1413,2932.0,1413
3753,3753,2564.0,3753
2622,2622,26.323,2622
777,777,1683.0,777
1466,1466,25.23,1466
1737,1737,2508.0,1737
4547,4547,1718.0,4547
2410,2410,166.173,2410
2150,2150,106.493,2150
3501,3501,2349.0,3501
1421,1421,1153.0,1421
3057,3057,444.0,3057
3157,3157,1771.0,3157
3346,3346,224.887,3346
2952,2952,168.03400000000005,2952
4012,4012,36.68,4012
1120,1120,134.995,1120
3989,3989,3122.0,3989
1979,1979,2184.0,1979
1693,1693,1081.0,1693
3418,3418,110.482,3418
4541,4541,403.0,4541
4566,4566,179.024,4566
3579,3579,1630.0,3579
2842,2842,25.827,2842
4376,4376,25.784,4376
3223,3223,1797.0,3223
1734,1734,62.863,1734
3900,3900,36.3,3900
2551,2551,2766.0,2551
3825,3825,2671.0,3825
4441,4441,751.0,4441
3137,3137,2653.0,3137
3497,3497,3128.0,3497
1430,1430,29.909,1430
3595,3595,1725.0,3595
1259,1259,3216.0,1259
1745,1745,492.0,1745
2753,2753,643.0,2753
1653,1653,2185.0,1653
4290,4290,145.389,4290
1512,1512,137.72799999999998,1512
2975,2975,362.0,2975
3196,3196,29.318,3196
2712,2712,147.093,2712
1911,1911,3114.0,1911
3288,3288,31.415,3288
2676,2676,269.955,2676
3942,3942,145.97,3942
2946,2946,33.312,2946
731,731,1048.0,731
2041,2041,3356.0,2041
2400,2400,156.352,2400
3568,3568,28.576,3568
1204,1204,133.453,1204
894,894,111.446,894
3847,3847,3370.0,3847
4405,4405,502.0,4405
1537,1537,3036.0,1537
2755,2755,2970.0,2755
2442,2442,50.307,2442
1995,1995,3325.0,1995
920,920,150.82399999999996,920
3950,3950,129.157,3950
3514,3514,30.264,3514
1313,1313,1429.0,1313
1095,1095,1187.0,1095
2098,2098,136.207,2098
2060,2060,158.583,2060
2046,2046,37.452,2046
2994,2994,104.134,2994
1236,1236,25.823,1236
612,612,39.605,612
2019,2019,1107.0,2019
1360,1360,36.144,1360
1985,1985,2907.0,1985
3066,3066,317.326,3066
2277,2277,458.0,2277
3500,3500,137.014,3500
1489,1489,350.0,1489
3252,3252,43.902,3252
4559,4559,385.0,4559
3886,3886,102.081,3886
552,552,147.675,552
3630,3630,36.032,3630
2018,2018,32.141,2018
3976,3976,47.736,3976
2027,2027,2595.0,2027
1791,1791,3381.0,1791
3524,3524,27.176,3524
764,764,103.699,764
2038,2038,147.248,2038
923,923,2460.0,923
4187,4187,2170.0,4187
3979,3979,355.0,3979
837,837,1589.0,837
2865,2865,953.0,2865
782,782,25.933000000000003,782
2279,2279,1211.0,2279
4520,4520,148.7,4520
4293,4293,2994.0,4293
3648,3648,26.362,3648
901,901,532.0,901
3364,3364,130.136,3364
2752,2752,150.958,2752
2513,2513,574.0,2513
4041,4041,1037.0,4041
3923,3923,2079.0,3923
3816,3816,25.199,3816
600,600,153.855,600
2100,2100,34.671,2100
2652,2652,28.995,2652
3548,3548,44.778,3548
4418,4418,129.966,4418
4192,4192,152.99200000000005,4192
3215,3215,1964.0,3215
3688,3688,28.386,3688
2641,2641,2292.0,2641
3483,3483,1798.0,3483
2191,2191,411.0,2191
4285,4285,2611.0,4285
1713,1713,1414.0,1713
580,580,30.456,580
4121,4121,1383.0,4121
1795,1795,1559.0,1795
3525,3525,2662.0,3525
2930,2930,35.299,2930
706,706,100.587,706
2845,2845,2275.0,2845
3330,3330,29.417,3330
2081,2081,1237.0,2081
4579,4579,525.0,4579
3070,3070,144.094,3070
1333,1333,3402.0,1333
3801,3801,2486.0,3801
1150,1150,30.718000000000004,1150
1348,1348,145.671,1348
1960,1960,29.425,1960
3353,3353,1979.0,3353
4496,4496,102.127,4496
2171,2171,758.0,2171
965,965,1329.0,965
4444,4444,30.609,4444
1366,1366,147.513,1366
1854,1854,111.852,1854
691,691,3104.0,691
4123,4123,1372.0,4123
3475,3475,2216.0,3475
1517,1517,1645.0,1517
1668,1668,40.821,1668
4467,4467,1416.0,4467
1133,1133,3073.0,1133
2809,2809,846.0,2809
3646,3646,131.898,3646
2107,2107,3325.0,2107
581,581,3162.0,581
1561,1561,3391.0,1561
952,952,29.188,952
3016,3016,108.683,3016
4384,4384,142.02200000000005,4384
1140,1140,29.194000000000006,1140
2491,2491,736.0,2491
567,567,917.0,567
1034,1034,181.89,1034
1005,1005,3364.0,1005
1973,1973,2602.0,1973
1105,1105,2645.0,1105
1635,1635,2135.0,1635
538,538,27.868,538
591,591,1515.0,591
1832,1832,35.053000000000004,1832
1887,1887,2233.0,1887
1969,1969,2456.0,1969
1030,1030,36.161,1030
3969,3969,759.0,3969
1902,1902,25.455,1902
1983,1983,925.0,1983
1303,1303,618.0,1303
3273,3273,610.0,3273
4188,4188,31.05,4188
561,561,3122.0,561
2141,2141,2998.0,2141
2754,2754,150.30200000000005,2754
1806,1806,25.578000000000007,1806
2367,2367,2175.0,2367
3790,3790,25.866,3790
1225,1225,773.0,1225
2577,2577,1991.0,2577
1679,1679,561.0,1679
1023,1023,2744.0,1023
1638,1638,142.67700000000005,1638
3373,3373,2917.0,3373
1587,1587,1926.0,1587
3323,3323,1843.0,3323
4113,4113,1646.0,4113
2035,2035,834.0,2035
1242,1242,149.874,1242
2948,2948,147.428,2948
4451,4451,1639.0,4451
2023,2023,2618.0,2023
1476,1476,25.812,1476
1539,1539,3262.0,1539
2403,2403,2078.0,2403
556,556,25.161,556
3941,3941,1742.0,3941
4132,4132,32.975,4132
3455,3455,2867.0,3455
3623,3623,2575.0,3623
3577,3577,2382.0,3577
1950,1950,28.719,1950
2307,2307,724.0,2307
739,739,561.0,739
1515,1515,2577.0,1515
4103,4103,1831.0,4103
3635,3635,614.0,3635
2125,2125,1094.0,2125
2481,2481,734.0,2481
4136,4136,149.872,4136
505,505,3377.0,505
3556,3556,154.803,3556
3583,3583,3225.0,3583
3799,3799,1069.0,3799
2070,2070,102.211,2070
4557,4557,315.0,4557
539,539,1458.0,539
3178,3178,130.615,3178
3327,3327,3446.0,3327
3473,3473,1332.0,3473
602,602,25.346,602
1092,1092,28.554,1092
1264,1264,101.829,1264
2229,2229,1808.0,2229
1917,1917,1090.0,1917
1110,1110,105.261,1110
2720,2720,32.909,2720
3420,3420,25.425,3420
4217,4217,2346.0,4217
2973,2973,2289.0,2973
4488,4488,25.319000000000006,4488
2525,2525,1347.0,2525
3601,3601,3095.0,3601
3312,3312,45.032,3312
1834,1834,30.199,1834
4453,4453,438.0,4453
3671,3671,2297.0,3671
980,980,149.373,980
3480,3480,26.971,3480
3835,3835,2345.0,3835
3633,3633,1118.0,3633
2703,2703,1054.0,2703
1934,1934,28.838,1934
2369,2369,381.0,2369
2941,2941,3372.0,2941
3391,3391,2909.0,3391
3416,3416,122.387,3416
1687,1687,3381.0,1687
4180,4180,29.555,4180
967,967,2683.0,967
2456,2456,158.97,2456
3174,3174,132.947,3174
3453,3453,638.0,3453
1554,1554,25.868,1554
972,972,34.422,972
2719,2719,1405.0,2719
2042,2042,25.18,2042
1038,1038,44.644,1038
804,804,141.556,804
1056,1056,146.545,1056
2022,2022,136.957,2022
4204,4204,27.915,4204
1402,1402,33.083,1402
1422,1422,119.273,1422
3367,3367,3497.0,3367
3193,3193,1899.0,3193
2450,2450,26.065,2450
3591,3591,2669.0,3591
4242,4242,139.164,4242
1618,1618,108.264,1618
2870,2870,123.62,2870
3260,3260,138.189,3260
1156,1156,42.812,1156
841,841,1927.0,841
2402,2402,31.83,2402
3304,3304,304.891,3304
2271,2271,1885.0,2271
2503,2503,1650.0,2503
2475,2475,2459.0,2475
1940,1940,136.379,1940
1797,1797,1723.0,1797
2664,2664,145.743,2664
3301,3301,2426.0,3301
2280,2280,132.955,2280
3750,3750,34.433,3750
2831,2831,2939.0,2831
631,631,2507.0,631
2862,2862,150.334,2862
4423,4423,2953.0,4423
2549,2549,1308.0,2549
3466,3466,44.517,3466
3430,3430,29.153,3430
3636,3636,27.847,3636
1370,1370,35.071,1370
4022,4022,25.585,4022
1417,1417,1902.0,1417
840,840,131.906,840
3739,3739,672.0,3739
2323,2323,1108.0,2323
4368,4368,140.668,4368
1033,1033,356.0,1033
3717,3717,3416.0,3717
658,658,37.412,658
908,908,152.891,908
1813,1813,1048.0,1813
961,961,785.0,961
676,676,25.542,676
2949,2949,1322.0,2949
507,507,1285.0,507
3937,3937,2499.0,3937
1569,1569,3126.0,1569
2883,2883,723.0,2883
3918,3918,116.32,3918
4045,4045,2942.0,4045
3985,3985,681.0,3985
1235,1235,3032.0,1235
1465,1465,1434.0,1465
1109,1109,518.0,1109
1702,1702,40.977,1702
1217,1217,2717.0,1217
1104,1104,148.266,1104
1238,1238,28.704,1238
1106,1106,28.166,1106
2597,2597,402.0,2597
2747,2747,2647.0,2747
4223,4223,830.0,4223
1345,1345,2388.0,1345
3593,3593,3089.0,3593
1844,1844,136.145,1844
2557,2557,2050.0,2557
1344,1344,142.827,1344
1447,1447,2515.0,1447
1764,1764,25.765,1764
927,927,3428.0,927
1127,1127,1515.0,1127
1540,1540,126.869,1540
3822,3822,25.341,3822
3414,3414,25.663,3414
4127,4127,2335.0,4127
4076,4076,29.672,4076
3755,3755,1728.0,3755
3436,3436,160.47899999999996,3436
615,615,464.0,615
4407,4407,2709.0,4407
3441,3441,3301.0,3441
508,508,102.282,508
4433,4433,1899.0,4433
3454,3454,113.419,3454
2173,2173,1554.0,2173
4449,4449,1304.0,4449
1160,1160,90.961,1160
1865,1865,3390.0,1865
3865,3865,2584.0,3865
3628,3628,144.172,3628
551,551,998.0,551
1128,1128,28.875,1128
1397,1397,2304.0,1397
2890,2890,31.072,2890
3146,3146,145.16899999999995,3146
1312,1312,29.8,1312
548,548,132.952,548
860,860,147.444,860
4416,4416,130.59,4416
1085,1085,2350.0,1085
4071,4071,2007.0,4071
2958,2958,27.293000000000006,2958
685,685,359.0,685
1459,1459,3022.0,1459
2293,2293,734.0,2293
686,686,101.949,686
1009,1009,2905.0,1009
1091,1091,3276.0,1091
1683,1683,3433.0,1683
3567,3567,3033.0,3567
1283,1283,1698.0,1283
1651,1651,2102.0,1651
3916,3916,100.973,3916
657,657,423.0,657
3204,3204,26.057,3204
3537,3537,1037.0,3537
2455,2455,2676.0,2455
2225,2225,1745.0,2225
512,512,151.711,512
4305,4305,831.0,4305
745,745,2066.0,745
3065,3065,3425.0,3065
3554,3554,132.489,3554
4106,4106,33.868,4106
797,797,3158.0,797
3145,3145,3368.0,3145
767,767,1487.0,767
653,653,1279.0,653
1058,1058,143.39,1058
2136,2136,29.658,2136
3768,3768,25.881,3768
857,857,1882.0,857
998,998,32.641,998
759,759,2718.0,759
839,839,3510.0,839
1548,1548,107.225,1548
609,609,1218.0,609
3175,3175,1498.0,3175
2613,2613,2086.0,2613
3703,3703,1877.0,3703
2998,2998,148.606,2998
4182,4182,117.277,4182
762,762,103.139,762
3806,3806,31.962,3806
1071,1071,2356.0,1071
2299,2299,1801.0,2299
1802,1802,34.227,1802
2431,2431,1342.0,2431
788,788,138.289,788
3837,3837,672.0,3837
3377,3377,1602.0,3377
4457,4457,360.0,4457
4063,4063,541.0,4063
2596,2596,103.603,2596
2083,2083,1207.0,2083
2787,2787,3469.0,2787
3001,3001,662.0,3001
4194,4194,28.834,4194
2601,2601,3014.0,2601
1404,1404,103.662,1404
2482,2482,139.475,2482
667,667,3406.0,667
2465,2465,756.0,2465
4489,4489,1334.0,4489
3060,3060,285.416,3060
4484,4484,26.425,4484
1012,1012,27.799,1012
1949,1949,2864.0,1949
2207,2207,1875.0,2207
2502,2502,35.423,2502
4100,4100,26.416,4100
3731,3731,2345.0,3731
1081,1081,505.0,1081
1292,1292,149.304,1292
4074,4074,47.768,4074
1475,1475,748.0,1475
957,957,3378.0,957
1700,1700,31.679,1700
3355,3355,2430.0,3355
3395,3395,2131.0,3395
1541,1541,3189.0,1541
4505,4505,2963.0,4505
3239,3239,583.0,3239
1794,1794,27.861,1794
4203,4203,398.0,4203
2190,2190,131.675,2190
2967,2967,2318.0,2967
2674,2674,26.048,2674
4112,4112,29.639,4112
2645,2645,1574.0,2645
3370,3370,132.539,3370
1401,1401,1832.0,1401
1975,1975,1341.0,1975
2337,2337,907.0,2337
921,921,374.0,921
1145,1145,2197.0,1145
996,996,139.458,996
2700,2700,37.588,2700
807,807,2985.0,807
1112,1112,145.452,1112
4033,4033,3191.0,4033
687,687,1235.0,687
2649,2649,1417.0,2649
806,806,100.451,806
1681,1681,1244.0,1681
2126,2126,152.797,2126
4498,4498,131.655,4498
4399,4399,2811.0,4399
1477,1477,417.0,1477
3619,3619,3435.0,3619
2183,2183,1014.0,2183
2889,2889,389.0,2889
3580,3580,30.41,3580
689,689,1620.0,689
4482,4482,142.524,4482
1800,1800,33.537,1800
694,694,147.379,694
2748,2748,100.697,2748
2054,2054,28.824,2054
3741,3741,1124.0,3741
1663,1663,335.0,1663
4284,4284,104.183,4284
3917,3917,1099.0,3917
1895,1895,2778.0,1895
638,638,109.591,638
2567,2567,1280.0,2567
778,778,131.019,778
2742,2742,152.862,2742
1762,1762,48.00899999999999,1762
1386,1386,26.965,1386
3231,3231,1222.0,3231
2216,2216,109.183,2216
3104,3104,110.97,3104
2013,2013,789.0,2013
3059,3059,919.0,3059
1998,1998,134.833,1998
1445,1445,1296.0,1445
3893,3893,3150.0,3893
4532,4532,159.66299999999995,4532
3247,3247,1265.0,3247
2383,2383,2395.0,2383
3289,3289,2997.0,3289
1740,1740,142.84799999999996,1740
2189,2189,1253.0,2189
3039,3039,1811.0,3039
1468,1468,27.983,1468
2644,2644,154.59,2644
1536,1536,41.688,1536
2254,2254,30.453000000000007,2254
1694,1694,29.95,1694
2751,2751,1579.0,2751
1774,1774,32.95,1774
1927,1927,2525.0,1927
2340,2340,36.815,2340
2706,2706,132.02100000000002,2706
526,526,30.731,526
645,645,1472.0,645
2618,2618,147.372,2618
2705,2705,1013.0,2705
2866,2866,212.9,2866
1222,1222,32.263000000000005,1222
1645,1645,2751.0,1645
2283,2283,1925.0,2283
825,825,2434.0,825
976,976,28.324,976
2538,2538,26.808000000000003,2538
1538,1538,134.697,1538
2584,2584,144.74,2584
892,892,156.06799999999996,892
1755,1755,891.0,1755
564,564,134.184,564
4431,4431,3174.0,4431
4125,4125,2945.0,4125
891,891,2169.0,891
2585,2585,492.0,2585
769,769,2839.0,769
2800,2800,29.222,2800
4355,4355,834.0,4355
3912,3912,120.905,3912
3758,3758,127.932,3758
2743,2743,1612.0,2743
1706,1706,151.868,1706
1546,1546,27.833,1546
3592,3592,34.329,3592
2623,2623,2650.0,2623
3851,3851,1349.0,3851
3187,3187,1976.0,3187
3050,3050,106.134,3050
2099,2099,812.0,2099
2406,2406,145.09,2406
1343,1343,1068.0,1343
3600,3600,26.504,3600
2143,2143,3417.0,2143
1944,1944,158.989,1944
4311,4311,602.0,4311
3645,3645,2833.0,3645
4257,4257,1082.0,4257
1847,1847,2235.0,1847
1107,1107,664.0,1107
2790,2790,31.625,2790
2701,2701,2280.0,2701
3296,3296,42.268,3296
2050,2050,35.921,2050
1233,1233,3122.0,1233
709,709,3463.0,709
1208,1208,31.321,1208
3227,3227,2005.0,3227
1855,1855,1850.0,1855
3116,3116,109.259,3116
1154,1154,184.183,1154
586,586,33.708,586
2049,2049,1064.0,2049
2600,2600,156.606,2600
1502,1502,125.774,1502
3438,3438,159.38299999999995,3438
3119,3119,2253.0,3119
3163,3163,3230.0,3163
893,893,3382.0,893
1277,1277,2578.0,1277
3649,3649,1129.0,3649
4075,4075,2862.0,4075
937,937,2655.0,937
1374,1374,26.911,1374
1276,1276,25.909,1276
3687,3687,2164.0,3687
3151,3151,2172.0,3151
2268,2268,137.701,2268
4021,4021,1827.0,4021
2897,2897,2962.0,2897
2407,2407,3344.0,2407
1069,1069,2502.0,1069
2495,2495,1848.0,2495
2777,2777,1474.0,2777
973,973,1259.0,973
1605,1605,1315.0,1605
550,550,114.272,550
1458,1458,130.018,1458
3389,3389,545.0,3389
3314,3314,31.485,3314
1163,1163,1231.0,1163
3242,3242,254.651,3242
2354,2354,30.838,2354
3561,3561,2193.0,3561
3321,3321,2309.0,3321
1193,1193,616.0,1193
4499,4499,3226.0,4499
1625,1625,2619.0,1625
1346,1346,107.417,1346
549,549,2044.0,549
1496,1496,141.974,1496
2646,2646,25.338,2646
682,682,121.871,682
4454,4454,32.677,4454
4162,4162,124.49,4162
1997,1997,742.0,1997
3224,3224,31.079,3224
2149,2149,3090.0,2149
1494,1494,158.768,1494
2256,2256,143.069,2256
3814,3814,34.656,3814
3978,3978,27.649,3978
916,916,25.944000000000006,916
2490,2490,39.911,2490
2697,2697,3286.0,2697
879,879,2117.0,879
1914,1914,159.792,1914
1129,1129,2054.0,1129
1248,1248,146.135,1248
2115,2115,410.0,2115
3445,3445,1497.0,3445
3585,3585,1252.0,3585
3117,3117,1917.0,3117
795,795,656.0,795
4430,4430,158.634,4430
3745,3745,876.0,3745
1439,1439,1970.0,1439
2153,2153,601.0,2153
2627,2627,1346.0,2627
2053,2053,1102.0,2053
3195,3195,2468.0,3195
2716,2716,143.485,2716
3555,3555,3408.0,3555
554,554,113.793,554
1708,1708,28.611,1708
2869,2869,2657.0,2869
2286,2286,161.171,2286
3958,3958,38.26300000000001,3958
3183,3183,1922.0,3183
1032,1032,123.822,1032
4029,4029,427.0,4029
1857,1857,330.0,1857
1002,1002,40.611,1002
930,930,29.603,930
2692,2692,31.404,2692
3268,3268,130.99200000000002,3268
723,723,3087.0,723
2133,2133,1312.0,2133
3383,3383,1975.0,3383
3821,3821,1108.0,3821
644,644,25.578000000000007,644
1028,1028,27.372,1028
3545,3545,3014.0,3545
2844,2844,26.804,2844
1166,1166,28.339,1166
2498,2498,124.46,2498
2607,2607,988.0,2607
4517,4517,3449.0,4517
3723,3723,1613.0,3723
3928,3928,58.527,3928
774,774,146.791,774
1483,1483,993.0,1483
1325,1325,673.0,1325
827,827,828.0,827
3757,3757,1938.0,3757
2741,2741,2777.0,2741
3142,3142,33.531,3142
1320,1320,107.672,1320
2880,2880,26.868,2880
4474,4474,153.192,4474
1778,1778,104.521,1778
2639,2639,2331.0,2639
1273,1273,2208.0,1273
2147,2147,1737.0,2147
3255,3255,2192.0,3255
1567,1567,3334.0,1567
3546,3546,150.05200000000005,3546
1701,1701,2376.0,1701
1192,1192,28.617,1192
2727,2727,2786.0,2727
3808,3808,39.577,3808
2999,2999,1033.0,2999
1347,1347,1738.0,1347
1393,1393,3442.0,1393
2467,2467,3233.0,2467
2396,2396,50.325,2396
3910,3910,46.833,3910
3131,3131,1161.0,3131
4054,4054,128.41899999999998,4054
4277,4277,420.0,4277
2563,2563,419.0,2563
2316,2316,149.607,2316
3277,3277,2241.0,3277
3998,3998,30.008000000000006,3998
2591,2591,309.0,2591
3925,3925,894.0,3925
2063,2063,903.0,2063
2799,2799,2797.0,2799
4375,4375,2018.0,4375
3246,3246,173.658,3246
3434,3434,113.078,3434
4228,4228,29.624,4228
3299,3299,1309.0,3299
1195,1195,2377.0,1195
1201,1201,2582.0,1201
2821,2821,1356.0,2821
4472,4472,163.392,4472
4556,4556,29.032,4556
2632,2632,147.875,2632
4480,4480,32.331,4480
733,733,2628.0,733
1787,1787,2581.0,1787
3295,3295,1071.0,3295
1356,1356,151.62,1356
2616,2616,26.363000000000003,2616
2320,2320,148.026,2320
1823,1823,884.0,1823
3023,3023,1859.0,3023
3986,3986,134.506,3986
2837,2837,1886.0,2837
1784,1784,153.118,1784
3074,3074,118.974,3074
1773,1773,1682.0,1773
3708,3708,34.867,3708
3756,3756,49.179,3756
1739,1739,2301.0,1739
3789,3789,1482.0,3789
3613,3613,1518.0,3613
1884,1884,122.352,1884
1361,1361,2919.0,1361
553,553,2499.0,553
4342,4342,26.558000000000003,4342
4519,4519,3164.0,4519
1792,1792,40.119,1792
3508,3508,29.169,3508
4348,4348,28.294,4348
3113,3113,1878.0,3113
2817,2817,3415.0,2817
3823,3823,3012.0,3823
3168,3168,59.12300000000001,3168
4224,4224,224.39,4224
1497,1497,1681.0,1497
4533,4533,2282.0,4533
2034,2034,113.172,2034
1753,1753,1808.0,1753
1121,1121,3055.0,1121
4537,4537,1380.0,4537
2779,2779,556.0,2779
951,951,1049.0,951
753,753,712.0,753
629,629,3084.0,629
652,652,28.237,652
3484,3484,132.498,3484
3702,3702,161.24200000000005,3702
3012,3012,30.213,3012
1785,1785,1900.0,1785
1845,1845,1878.0,1845
1826,1826,135.836,1826
1205,1205,1778.0,1205
1598,1598,29.777,1598
1958,1958,107.916,1958
2269,2269,2432.0,2269
1365,1365,1326.0,1365
2857,2857,2934.0,2857
1530,1530,51.16,1530
3651,3651,2349.0,3651
1507,1507,868.0,1507
2239,2239,1818.0,2239
2090,2090,31.958,2090
4149,4149,2287.0,4149
2234,2234,146.24,2234
1426,1426,32.974000000000004,1426
4385,4385,2828.0,4385
4142,4142,142.49,4142
2352,2352,132.995,2352
3115,3115,1868.0,3115
2417,2417,1722.0,2417
1662,1662,33.169000000000004,1662
605,605,1813.0,605
907,907,2369.0,907
1856,1856,36.275,1856
574,574,146.817,574
2636,2636,157.222,2636
800,800,112.722,800
2386,2386,135.785,2386
3878,3878,148.261,3878
1215,1215,766.0,1215
3754,3754,27.638,3754
3105,3105,3359.0,3105
1153,1153,483.0,1153
672,672,49.74100000000001,672
2573,2573,2388.0,2573
3810,3810,119.617,3810
713,713,1568.0,713
2130,2130,132.893,2130
1388,1388,41.54,1388
3029,3029,1687.0,3029
2255,2255,2281.0,2255
4428,4428,113.372,4428
4124,4124,104.115,4124
4396,4396,161.58100000000005,4396
3915,3915,2278.0,3915
2372,2372,31.701,2372
4327,4327,2478.0,4327
968,968,28.764,968
2650,2650,29.7,2650
4258,4258,27.393,4258
1135,1135,898.0,1135
2682,2682,139.57399999999998,2682
2947,2947,1523.0,2947
2198,2198,150.658,2198
1017,1017,1784.0,1017
1543,1543,2923.0,1543
3795,3795,616.0,3795
3572,3572,26.092,3572
2977,2977,2312.0,2977
4539,4539,2080.0,4539
3026,3026,25.812,3026
1234,1234,29.5,1234
1060,1060,29.618,1060
2087,2087,3071.0,2087
4209,4209,393.0,4209
4395,4395,432.0,4395
4225,4225,2544.0,4225
2222,2222,106.316,2222
597,597,2421.0,597
4034,4034,25.449,4034
555,555,2044.0,555
543,543,2550.0,543
4206,4206,132.74,4206
2381,2381,3252.0,2381
2158,2158,156.85399999999996,2158
2072,2072,29.853,2072
4001,4001,2486.0,4001
3494,3494,28.012,3494
2566,2566,108.007,2566
3706,3706,25.442,3706
4211,4211,2258.0,4211
1703,1703,2845.0,1703
4240,4240,145.918,4240
4364,4364,37.143,4364
1200,1200,29.763,1200
2048,2048,139.963,2048
1981,1981,901.0,1981
780,780,29.209,780
1534,1534,27.274,1534
3470,3470,109.933,3470
2333,2333,308.0,2333
3770,3770,38.705,3770
4564,4564,25.785,4564
3734,3734,109.035,3734
4576,4576,25.869,4576
1978,1978,131.358,1978
2457,2457,1499.0,2457
3374,3374,27.905,3374
2978,2978,147.389,2978
3285,3285,3070.0,3285
1562,1562,124.404,1562
1008,1008,180.86,1008
661,661,2381.0,661
2594,2594,101.65,2594
3607,3607,424.0,3607
1526,1526,33.43,1526
932,932,134.673,932
3662,3662,40.733,3662
3936,3936,38.91,3936
4161,4161,3120.0,4161
3876,3876,28.944000000000006,3876
1310,1310,125.739,1310
3824,3824,157.763,3824
1888,1888,144.287,1888
4153,4153,498.0,4153
2311,2311,1385.0,2311
1111,1111,1764.0,1111
3674,3674,142.124,3674
2219,2219,1837.0,2219
4283,4283,408.0,4283
1117,1117,3117.0,1117
601,601,1519.0,601
3960,3960,114.254,3960
3657,3657,1461.0,3657
4512,4512,28.511,4512
4117,4117,3315.0,4117
3712,3712,39.036,3712
4185,4185,2978.0,4185
2531,2531,3342.0,2531
711,711,1737.0,711
1715,1715,1071.0,1715
3307,3307,328.0,3307
4089,4089,445.0,4089
3864,3864,29.68,3864
2399,2399,3202.0,2399
4545,4545,3389.0,4545
3097,3097,2369.0,3097
1433,1433,2221.0,1433
1959,1959,1555.0,1959
1463,1463,631.0,1463
1443,1443,1094.0,1443
4308,4308,130.459,4308
3090,3090,31.032,3090
4470,4470,145.981,4470
1177,1177,1520.0,1177
1207,1207,2730.0,1207
2420,2420,29.675,2420
4101,4101,1379.0,4101
3311,3311,2780.0,3311
3618,3618,166.703,3618
2376,2376,131.83700000000002,2376
1634,1634,130.205,1634
2854,2854,131.39600000000002,2854
1849,1849,1252.0,1849
3981,3981,1773.0,3981
4439,4439,3445.0,4439
4040,4040,124.698,4040
3213,3213,1544.0,3213
4099,4099,2343.0,4099
1061,1061,1580.0,1061
3763,3763,772.0,3763
2526,2526,141.751,2526
1363,1363,1300.0,1363
4032,4032,142.02100000000004,4032
3397,3397,3490.0,3397
2628,2628,164.03900000000004,2628
4201,4201,3314.0,4201
516,516,102.449,516
2725,2725,421.0,2725
3102,3102,245.583,3102
2932,2932,43.468,2932
1326,1326,32.262,1326
2368,2368,150.342,2368
2031,2031,1998.0,2031
4030,4030,109.62,4030
971,971,1246.0,971
1115,1115,867.0,1115
3336,3336,125.095,3336
2224,2224,143.37,2224
2294,2294,28.977,2294
3489,3489,1828.0,3489
1767,1767,3445.0,1767
2972,2972,30.261,2972
2088,2088,33.993,2088
674,674,140.908,674
1084,1084,114.783,1084
3716,3716,142.45,3716
1435,1435,2223.0,1435
1444,1444,45.928,1444
1926,1926,148.68,1926
1227,1227,1319.0,1227
3962,3962,50.782,3962
959,959,419.0,959
1314,1314,152.537,1314
1656,1656,33.515,1656
3010,3010,149.909,3010
3013,3013,2913.0,3013
3322,3322,32.211,3322
2282,2282,109.747,2282
1748,1748,126.307,1748
1710,1710,122.899,1710
3955,3955,2147.0,3955
523,523,2081.0,523
1065,1065,3378.0,1065
1963,1963,767.0,1963
2002,2002,31.645,2002
4044,4044,28.046,4044
1357,1357,2119.0,1357
2089,2089,2403.0,2089
1942,1942,147.174,1942
4066,4066,103.034,4066
3518,3518,116.058,3518
3953,3953,1491.0,3953
3411,3411,2272.0,3411
2032,2032,111.12,2032
1555,1555,506.0,1555
3333,3333,3229.0,3333
1860,1860,37.429,1860
3156,3156,149.55700000000004,3156
2536,2536,29.681,2536
3069,3069,1644.0,3069
2193,2193,2796.0,2193
693,693,616.0,693
1727,1727,506.0,1727
3491,3491,1398.0,3491
3809,3809,662.0,3809
3202,3202,28.173,3202
3409,3409,442.0,3409
3686,3686,25.882,3686
3240,3240,114.215,3240
2881,2881,2256.0,2881
3553,3553,1062.0,3553
2215,2215,1565.0,2215
4501,4501,943.0,4501
4436,4436,147.46200000000005,4436
4085,4085,3344.0,4085
1522,1522,31.277,1522
2152,2152,26.058000000000003,2152
2401,2401,2659.0,2401
4147,4147,3451.0,4147
2252,2252,162.108,2252
3385,3385,2450.0,3385
1173,1173,2899.0,1173
2589,2589,397.0,2589
3836,3836,26.463,3836
1882,1882,105.889,1882
4292,4292,40.58,4292
2885,2885,2657.0,2885
4098,4098,41.82,4098
2220,2220,25.906,2220
947,947,2325.0,947
1340,1340,37.217,1340
4156,4156,45.532,4156
1904,1904,49.97,1904
4582,4582,115.304,4582
2553,2553,1683.0,2553
584,584,145.59799999999996,584
1075,1075,2199.0,1075
4340,4340,107.527,4340
4081,4081,2609.0,4081
4178,4178,135.262,4178
2082,2082,51.333,2082
1100,1100,107.479,1100
2675,2675,3419.0,2675
1527,1527,857.0,1527
3563,3563,486.0,3563
3832,3832,147.44899999999996,3832
1221,1221,3487.0,1221
1211,1211,2229.0,1211
2654,2654,316.233,2654
2981,2981,1673.0,2981
2343,2343,1703.0,2343
678,678,102.814,678
1072,1072,155.602,1072
1149,1149,347.0,1149
1257,1257,415.0,1257
2916,2916,27.231,2916
2029,2029,2330.0,2029
3143,3143,2373.0,3143
1840,1840,27.936,1840
2477,2477,1988.0,2477
3922,3922,106.217,3922
814,814,147.524,814
4458,4458,39.261,4458
3620,3620,26.48,3620
1836,1836,31.65,1836
2433,2433,2433.0,2433
1387,1387,2799.0,1387
2580,2580,25.234,2580
2995,2995,719.0,2995
1457,1457,2076.0,1457
3235,3235,318.0,3235
3781,3781,451.0,3781
1783,1783,2915.0,1783
3422,3422,26.988000000000003,3422
3888,3888,125.799,3888
3535,3535,2811.0,3535
2104,2104,27.5,2104
1474,1474,44.544,1474
3855,3855,2598.0,3855
2253,2253,3345.0,2253
2101,2101,1990.0,2101
3292,3292,199.452,3292
4214,4214,26.842,4214
2655,2655,544.0,2655
845,845,1182.0,845
3342,3342,130.175,3342
904,904,29.79,904
3486,3486,158.944,3486
2071,2071,1568.0,2071
3487,3487,2192.0,3487
1159,1159,911.0,1159
3875,3875,2304.0,3875
1053,1053,840.0,1053
4360,4360,37.517,4360
2218,2218,149.227,2218
3452,3452,141.189,3452
1050,1050,36.257,1050
3659,3659,3196.0,3659
1622,1622,126.812,1622
2713,2713,345.0,2713
2927,2927,2863.0,2927
710,710,39.447,710
1819,1819,2026.0,1819
2075,2075,1035.0,2075
3547,3547,3051.0,3547
1432,1432,118.85,1432
4553,4553,1968.0,4553
4502,4502,29.9,4502
3079,3079,3116.0,3079
929,929,1877.0,929
3722,3722,31.332,3722
2313,2313,2305.0,2313
3297,3297,919.0,3297
3403,3403,656.0,3403
1827,1827,737.0,1827
4388,4388,122.062,4388
4379,4379,940.0,4379
3008,3008,31.879,3008
2560,2560,141.616,2560
1932,1932,156.36,1932
3035,3035,2559.0,3035
1068,1068,39.975,1068
2445,2445,1938.0,2445
3670,3670,27.346,3670
4486,4486,130.542,4486
3858,3858,25.24,3858
1157,1157,2887.0,1157
2033,2033,1655.0,2033
3250,3250,153.387,3250
2303,2303,385.0,2303
3829,3829,1781.0,3829
3088,3088,109.717,3088
3889,3889,1326.0,3889
2120,2120,29.872,2120
664,664,32.021,664
1431,1431,1956.0,1431
4572,4572,169.28799999999995,4572
843,843,2920.0,843
4239,4239,3128.0,4239
1735,1735,2472.0,1735
1842,1842,115.498,1842
2085,2085,437.0,2085
3885,3885,2053.0,3885
2759,2759,926.0,2759
4210,4210,36.677,4210
2388,2388,173.62,2388
2405,2405,2920.0,2405
1073,1073,1825.0,1073
4020,4020,28.794,4020
1284,1284,104.608,1284
2312,2312,30.942,2312
515,515,3211.0,515
1599,1599,408.0,1599
3041,3041,2180.0,3041
4092,4092,104.306,4092
3780,3780,29.269,3780
4165,4165,411.0,4165
3689,3689,1630.0,3689
2489,2489,1100.0,2489
832,832,30.097,832
3334,3334,26.676,3334
2839,2839,620.0,2839
712,712,148.77200000000005,712
865,865,1522.0,865
3019,3019,459.0,3019
3062,3062,30.76,3062
3230,3230,148.364,3230
2925,2925,3227.0,2925
2197,2197,2388.0,2197
4172,4172,133.745,4172
1816,1816,28.791,1816
939,939,3289.0,939
2349,2349,2923.0,2349
2006,2006,37.724,2006
546,546,161.588,546
4544,4544,152.308,4544
4163,4163,2749.0,4163
3302,3302,38.42,3302
1654,1654,151.327,1654
1119,1119,349.0,1119
3972,3972,29.831,3972
1398,1398,59.285,1398
3388,3388,110.127,3388
3075,3075,2222.0,3075
4540,4540,132.536,4540
1253,1253,758.0,1253
4256,4256,28.66,4256
636,636,140.822,636
940,940,112.187,940
650,650,25.866,650
2356,2356,131.45600000000002,2356
2415,2415,434.0,2415
3640,3640,27.098000000000006,3640
3540,3540,32.821,3540
1550,1550,25.838,1550
3335,3335,875.0,3335
3425,3425,2864.0,3425
3261,3261,2949.0,3261
896,896,136.502,896
2322,2322,105.915,2322
1271,1271,859.0,1271
1666,1666,47.14100000000001,1666
3573,3573,1625.0,3573
925,925,2553.0,925
4198,4198,142.532,4198
3421,3421,2151.0,3421
872,872,138.183,872
969,969,1905.0,969
2996,2996,202.469,2996
2984,2984,179.205,2984
2798,2798,113.852,2798
4528,4528,39.113,4528
2523,2523,742.0,2523
2667,2667,989.0,2667
2744,2744,133.339,2744
4361,4361,975.0,4361
4069,4069,902.0,4069
1901,1901,627.0,1901
2965,2965,3392.0,2965
846,846,27.034,846
4462,4462,30.311,4462
854,854,109.188,854
3181,3181,1466.0,3181
3828,3828,152.588,3828
4189,4189,2702.0,4189
2888,2888,139.641,2888
1707,1707,1274.0,1707
1074,1074,159.472,1074
3309,3309,3398.0,3309
2982,2982,26.099,2982
3211,3211,1938.0,3211
2882,2882,279.942,2882
1759,1759,1458.0,1759
2859,2859,2957.0,2859
2893,2893,2056.0,2893
603,603,2453.0,603
2630,2630,34.639,2630
1528,1528,27.563,1528
3856,3856,145.667,3856
510,510,25.814,510
3094,3094,351.352,3094
1411,1411,3080.0,1411
1187,1187,2986.0,1187
2922,2922,36.413,2922
2792,2792,130.0,2792
3562,3562,25.405,3562
3107,3107,658.0,3107
2274,2274,132.59799999999998,2274
4473,4473,1828.0,4473
2231,2231,454.0,2231
3544,3544,28.387,3544
635,635,2281.0,635
3354,3354,31.657,3354
1889,1889,911.0,1889
4377,4377,1025.0,4377
3030,3030,144.974,3030
2210,2210,140.207,2210
2121,2121,1160.0,2121
1542,1542,25.763,1542
2213,2213,1939.0,2213
2851,2851,2980.0,2851
3527,3527,2626.0,3527
1486,1486,28.108,1486
1610,1610,115.102,1610
4410,4410,144.885,4410
2784,2784,102.816,2784
2988,2988,164.785,2988
4412,4412,26.004,4412
541,541,1682.0,541
3076,3076,140.935,3076
2593,2593,2377.0,2593
1608,1608,28.943,1608
4173,4173,3363.0,4173
1520,1520,29.408,1520
1261,1261,1212.0,1261
4243,4243,1936.0,4243
3539,3539,2713.0,3539
1125,1125,1740.0,1125
3569,3569,2600.0,3569
697,697,3465.0,697
4534,4534,123.894,4534
1108,1108,29.572,1108
616,616,148.455,616
2305,2305,1878.0,2305
1355,1355,525.0,1355
3653,3653,1421.0,3653
3472,3472,27.729,3472
4514,4514,90.395,4514
3167,3167,1461.0,3167
990,990,27.448,990
4400,4400,26.21,4400
3003,3003,1904.0,3003
3815,3815,2604.0,3815
3586,3586,131.23,3586
1989,1989,375.0,1989
2542,2542,28.698,2542
4191,4191,3406.0,4191
871,871,618.0,871
3007,3007,3026.0,3007
2485,2485,3324.0,2485
3456,3456,39.736,3456
1799,1799,3221.0,1799
1782,1782,56.32100000000001,1782
503,503,1905.0,503
2884,2884,64.003,2884
4415,4415,2668.0,4415
1245,1245,635.0,1245
3188,3188,303.825,3188
3711,3711,2179.0,3711
3291,3291,334.0,3291
1719,1719,676.0,1719
2030,2030,34.369,2030
4506,4506,26.186,4506
2326,2326,129.828,2326
2841,2841,2796.0,2841
1600,1600,141.64600000000004,1600
2287,2287,627.0,2287
4324,4324,29.905,4324
2086,2086,128.355,2086
4003,4003,2572.0,4003
3058,3058,153.844,3058
746,746,148.46,746
2931,2931,1972.0,2931
1469,1469,2342.0,1469
3908,3908,146.923,3908
3897,3897,323.0,3897
4048,4048,38.621,4048
2404,2404,158.514,2404
2668,2668,101.239,2668
2990,2990,132.85399999999998,2990
1898,1898,146.997,1898
4366,4366,147.101,4366
4464,4464,138.006,4464
4320,4320,161.343,4320
1682,1682,107.457,1682
4255,4255,1420.0,4255
530,530,141.44899999999996,530
3726,3726,27.621,3726
1757,1757,534.0,1757
779,779,925.0,779
3237,3237,2450.0,3237
4227,4227,2135.0,4227
2541,2541,1758.0,2541
1164,1164,136.576,1164
3944,3944,100.789,3944
3776,3776,25.085,3776
3625,3625,1820.0,3625
1818,1818,102.815,1818
1223,1223,732.0,1223
3363,3363,940.0,3363
